name,iterations,real_time,cpu_time,time_unit,bytes_per_second,items_per_second,label,error_occurred,error_message,"det","edges","red_det","red_edges","red_states","states"
"sim/0",70822,9197.91,9194.06,ns,,,,,,0,1,0,1,1,1
"sim/1",60073,10836.6,10831.2,ns,,,,,,0,3,0,3,2,2
"sim/2",43200,17039.8,17031,ns,,,,,,1,7,1,7,4,4
"sim/3",48945,14752.4,14744.2,ns,,,,,,1,5,0,5,3,3
"sim/4",59608,12099.2,12086.7,ns,,,,,,1,3,1,3,2,2
"sim/5",45305,15136.1,15125.1,ns,,,,,,1,6,1,6,3,3
"sim/6",47131,44506.6,44286,ns,,,,,,2,6,2,6,3,3
"sim/7",42456,16559.5,16548.8,ns,,,,,,2,8,1,8,4,4
"sim/8",10000,85106,84646,ns,,,,,,2,4,2,4,2,2
"sim/9",45313,15732.5,15704.9,ns,,,,,,1,6,1,6,3,3
"sim/10",67375,30851.2,30693.8,ns,,,,,,0,3,0,3,2,2
"sim/11",80635,8459.92,8451.74,ns,,,,,,0,1,0,1,1,1
"sim/12",61081,34189.5,34054.3,ns,,,,,,0,3,0,3,2,2
"sim/13",61313,11357,11353.4,ns,,,,,,0,3,0,3,2,2
"sim/14",37789,55611.5,55339.3,ns,,,,,,2,11,2,11,5,5
"sim/15",56224,11758.9,11747.8,ns,,,,,,0,3,0,3,2,2
"sim/16",54155,38584,38366.4,ns,,,,,,2,4,0,4,2,2
"sim/17",48242,14238.7,14222.2,ns,,,,,,1,5,1,5,3,3
"sim/18",52455,39572.4,39383.6,ns,,,,,,2,4,0,4,2,2
"sim/19",48616,14172.2,14161.3,ns,,,,,,1,5,1,5,3,3
"sim/20",10000,170423,169265,ns,,,,,,4,29,1,20,8,8
"sim/21",32936,22038.6,22030,ns,,,,,,1,13,0,13,7,7
"sim/22",22099,31923,31912.5,ns,,,,,,6,28,6,28,7,7
"sim/23",28585,25282.2,25271.5,ns,,,,,,2,16,1,16,8,8
"sim/24",14601,49222.7,48536.3,ns,,,,,,6,32,6,26,7,7
"sim/25",26826,21598.2,21590.6,ns,,,,,,1,14,1,14,7,7
"sim/26",85125,8317.28,8315.11,ns,,,,,,0,1,0,1,1,1
"sim/27",64545,10231.1,10226.9,ns,,,,,,0,3,0,3,2,2
"sim/28",45963,15881.4,15414.6,ns,,,,,,1,7,1,7,4,4
"sim/29",49297,14398.3,14112.6,ns,,,,,,1,5,0,5,3,3
"sim/30",63546,11353.6,11350.1,ns,,,,,,1,3,1,3,2,2
"sim/31",49638,14641.3,14636,ns,,,,,,1,6,1,6,3,3
"sim/32",48269,15111.8,15106.1,ns,,,,,,2,6,2,6,3,3
"sim/33",42381,17634.3,17622.6,ns,,,,,,2,8,1,8,4,4
"sim/34",53828,12679.2,12675.9,ns,,,,,,2,4,2,4,2,2
"sim/35",46328,15379.5,15374.9,ns,,,,,,1,6,1,6,3,3
"sim/36",62880,11096.8,11093.6,ns,,,,,,0,3,0,3,2,2
"sim/37",58217,11451.9,11448.3,ns,,,,,,0,3,0,3,2,2
"sim/38",43283,16480,16475.2,ns,,,,,,1,7,1,7,4,4
"sim/39",50170,14451.7,14447.3,ns,,,,,,1,5,0,5,3,3
"sim/40",36479,19331.4,19326,ns,,,,,,2,11,2,11,5,5
"sim/41",45258,15553,15547.5,ns,,,,,,3,7,1,7,3,3
"sim/42",45328,15920.1,15914.9,ns,,,,,,2,6,2,6,3,3
"sim/43",40172,17632,17625.8,ns,,,,,,2,8,1,8,4,4
"sim/44",46822,13555.7,13552.1,ns,,,,,,2,4,2,4,2,2
"sim/45",41278,16132.8,16127.3,ns,,,,,,1,6,1,6,3,3
"sim/46",59111,12826.1,12818.6,ns,,,,,,2,4,0,4,2,2
"sim/47",62795,11235.6,11232.1,ns,,,,,,1,3,1,3,2,2
"sim/48",37503,18452.3,18444.8,ns,,,,,,3,11,1,11,5,5
"sim/49",47158,14069.1,14064.8,ns,,,,,,1,5,1,5,3,3
"sim/50",43739,15760.4,15754.7,ns,,,,,,3,7,1,7,3,3
"sim/51",47989,14958.1,14953.3,ns,,,,,,2,6,2,6,3,3
"sim/52",37533,18726,18719.2,ns,,,,,,3,10,2,10,4,4
"sim/53",39724,17702.8,17697.3,ns,,,,,,2,8,2,8,4,4
"sim/54",41379,17444,17435,ns,,,,,,3,8,2,8,3,3
"sim/55",41495,17607.1,17601.3,ns,,,,,,2,8,2,8,4,4
"sim/56",47401,15314,15156.9,ns,,,,,,1,5,1,5,3,3
"sim/57",40829,15143,15138.9,ns,,,,,,1,6,0,6,3,3
"sim/58",34914,19863.2,19857.7,ns,,,,,,2,11,2,11,5,5
"sim/59",41568,18119.7,18110.1,ns,,,,,,2,8,1,8,4,4
"sim/60",34650,18661.5,18349.1,ns,,,,,,2,8,2,8,4,4
"sim/61",37374,22288.5,21444.7,ns,,,,,,2,9,0,9,4,4
"sim/62",16760,36932.3,36848,ns,,,,,,5,22,5,22,6,6
"sim/63",30291,29073.9,28106.2,ns,,,,,,3,12,2,12,5,5
"sim/64",18457,39166.6,38394.3,ns,,,,,,4,16,3,11,4,4
"sim/65",30073,25818.3,25520,ns,,,,,,2,10,1,10,4,4
"sim/66",32273,20953.8,20775.3,ns,,,,,,2,10,1,10,5,5
"sim/67",37986,18440.2,18426.8,ns,,,,,,2,8,2,8,4,4
"sim/68",26306,31464.1,30238.4,ns,,,,,,3,14,2,14,6,6
"sim/69",32504,27505.4,26590.1,ns,,,,,,2,7,0,7,4,4
"sim/70",31180,25879.3,24784.1,ns,,,,,,2,11,1,11,5,5
"sim/71",30511,32621.2,29938.1,ns,,,,,,3,12,3,12,5,5
"sim/72",23928,31430.7,29624.4,ns,,,,,,4,16,4,16,6,6
"sim/73",27933,22794.7,20972.7,ns,,,,,,3,10,1,10,5,5
"sim/74",14066,56725.2,50264.9,ns,,,,,,7,25,5,21,7,8
"sim/75",12549,60805.8,55167.3,ns,,,,,,6,28,2,8,4,10
"sim/76",10457,80763.4,77146.5,ns,,,,,,7,34,5,25,6,8
"sim/77",41919,15119.8,14719.4,ns,,,,,,1,5,1,5,3,3
"sim/78",11264,61801.3,58963.4,ns,,,,,,8,56,7,47,11,12
"sim/79",38415,19580.4,18009.7,ns,,,,,,3,8,1,8,4,4
"sim/80",28481,28773.2,26750.3,ns,,,,,,5,17,1,17,5,5
"sim/81",39391,19735.3,19042.1,ns,,,,,,2,8,2,8,4,4
"sim/82",8112,88718.5,86175.7,ns,,,,,,11,63,9,63,12,12
"sim/83",25743,26940.9,25823.5,ns,,,,,,4,11,2,11,5,5
"sim/84",8913,76621.9,73503.8,ns,,,,,,10,57,9,57,10,10
"sim/85",34953,21975.1,21088.4,ns,,,,,,4,11,2,8,4,5
"sim/86",28363,26467.3,25340.4,ns,,,,,,4,14,4,14,4,4
"sim/87",26181,20566,19560,ns,,,,,,2,6,1,6,3,3
"sim/88",23648,30663.6,29029.2,ns,,,,,,5,21,3,17,6,7
"sim/89",35499,21061,20711.4,ns,,,,,,2,9,1,9,4,4
"sim/90",42256,19036.8,17748.9,ns,,,,,,3,8,3,8,3,3
"sim/91",34704,22212.4,19861.5,ns,,,,,,2,9,2,9,4,4
"sim/92",24498,29545.4,28059,ns,,,,,,5,20,3,16,5,6
"sim/93",25694,26145.4,25268,ns,,,,,,3,13,2,13,5,5
"sim/94",8623,74464,73633.7,ns,,,,,,12,60,5,23,6,12
"sim/95",12167,58465.1,58330.3,ns,,,,,,8,38,4,25,8,11
"sim/96",33442,20997.5,20988.7,ns,,,,,,4,14,4,14,4,4
"sim/97",41586,16971,16965.3,ns,,,,,,3,7,1,7,3,3
"sim/98",22874,31251.2,31238.9,ns,,,,,,5,21,5,21,7,7
"sim/99",33677,21682.8,21669.1,ns,,,,,,3,10,1,10,4,4
"sim/100",39793,18200.8,18194.1,ns,,,,,,3,8,3,8,3,3
"sim/101",26577,23403.4,22459.8,ns,,,,,,2,10,2,10,4,4
"sim/102",22921,33030.2,30375.9,ns,,,,,,5,20,5,20,6,6
"sim/103",28730,26846.2,24693.2,ns,,,,,,4,14,2,14,5,5
"sim/104",9257,82513,75895.1,ns,,,,,,12,60,7,27,7,12
"sim/105",6596,117495,108048,ns,,,,,,10,56,6,48,11,12
"sim/106",23930,28133.1,25363.2,ns,,,,,,3,15,1,10,5,5
"sim/107",40218,19070.1,16877.7,ns,,,,,,0,11,0,11,6,6
"sim/108",21119,36740.6,34235.2,ns,,,,,,4,21,2,14,6,6
"sim/109",30668,21417.8,19531.2,ns,,,,,,0,14,0,14,7,7
"sim/110",59183,13647.3,11990.9,ns,,,,,,0,3,0,3,2,2
"sim/111",58210,14015.2,12321.6,ns,,,,,,0,3,0,3,2,2
"sim/112",43513,18188.5,16014.8,ns,,,,,,1,6,1,6,3,3
"sim/113",43387,18457.6,16227.4,ns,,,,,,1,6,1,6,3,3
"sim/114",44052,18459.8,16749.9,ns,,,,,,1,6,1,6,3,3
"sim/115",46346,15705.1,15487.6,ns,,,,,,1,6,1,6,3,3
"sim/116",48163,16056.6,14854.8,ns,,,,,,2,7,1,6,3,3
"sim/117",55102,12963.4,12700.1,ns,,,,,,2,5,1,4,2,2
"sim/118",47080,14697.6,14692.3,ns,,,,,,3,10,2,7,3,4
"sim/119",53690,15557.1,14503.9,ns,,,,,,2,7,1,4,2,3
"sim/120",40904,18807.2,18064.3,ns,,,,,,1,6,0,6,4,4
"sim/121",39034,15709.9,15689.5,ns,,,,,,1,6,1,6,3,3
"sim/122",90835,9030.17,9013.04,ns,,,,,,0,0,0,0,1,1
"sim/123",41244,13764.7,13758.9,ns,,,,,,1,7,1,7,4,4
"sim/124",56466,12332.6,12329.2,ns,,,,,,2,5,1,4,2,2
"sim/125",53661,41214.4,39297.5,ns,,,,,,2,7,1,6,3,3
"sim/126",21608,33765.5,33747.5,ns,,,,,,5,16,1,7,3,5
"sim/127",27049,24020.9,24009.2,ns,,,,,,6,29,1,10,3,7
"sim/128",61248,12066.2,11742.4,ns,,,,,,0,3,0,3,2,2
"sim/129",56946,12354,12348.5,ns,,,,,,0,3,0,3,2,2
"sim/130",30704,21477.3,21452.5,ns,,,,,,1,9,1,9,5,5
"sim/131",71581,8875.27,8870.64,ns,,,,,,0,0,0,0,1,1
"sim/132",34099,18013.6,18006.7,ns,,,,,,1,10,1,10,5,5
"sim/133",83273,8667.17,8663.09,ns,,,,,,0,0,0,0,1,1
"sim/134",24783,27464.3,27448.7,ns,,,,,,7,19,4,19,7,7
"sim/135",50690,13382.6,13372.6,ns,,,,,,2,5,1,3,2,3
"sim/136",28505,25634.3,25624.6,ns,,,,,,7,17,3,17,7,7
"sim/137",59531,12716.9,12616.2,ns,,,,,,2,5,1,3,2,3
"sim/138",50553,12229.9,12186.8,ns,,,,,,2,4,0,4,2,2
"sim/139",60952,11885.4,11880.8,ns,,,,,,1,3,1,3,2,2
"sim/140",44657,15339,15329.5,ns,,,,,,1,5,1,5,3,3
"sim/141",55833,12928.7,12923.8,ns,,,,,,2,4,0,4,2,2
"sim/142",51901,12793.2,12787.2,ns,,,,,,2,5,1,4,2,2
"sim/143",51226,13640.7,13635.8,ns,,,,,,2,7,1,6,3,3
"sim/144",52152,13168.2,13163.8,ns,,,,,,1,4,0,4,1,1
"sim/145",55006,13404.2,13397.5,ns,,,,,,1,5,1,5,3,3
"sim/146",52328,13055.5,13051,ns,,,,,,0,7,0,7,4,4
"sim/147",63274,12399.8,12299.1,ns,,,,,,0,4,0,4,3,3
"sim/148",2659,244476,234703,ns,,,,,,14,88,8,50,13,18
"sim/149",39243,19242.5,18602.1,ns,,,,,,3,12,2,9,4,5
"sim/150",41668,16361,16321.5,ns,,,,,,1,8,1,8,4,4
"sim/151",11908,59234.4,59214.8,ns,,,,,,10,51,4,19,6,12
"sim/152",51570,13512.2,13507.5,ns,,,,,,1,4,1,4,3,3
"sim/153",11321,63893.8,63872,ns,,,,,,8,39,4,29,6,8
"sim/154",46282,14623.8,14618.6,ns,,,,,,1,5,0,5,3,3
"sim/155",43676,15843.8,15837.7,ns,,,,,,1,8,1,8,4,4
"sim/156",72347,9474.97,9471.24,ns,,,,,,0,1,0,1,1,1
"sim/157",70432,30222.8,30104.9,ns,,,,,,0,3,0,3,2,2
"sim/158",64381,11311.7,11307.9,ns,,,,,,0,3,0,3,2,2
"sim/159",63513,11252.5,11249.5,ns,,,,,,0,3,0,3,2,2
"sim/160",55567,13311.2,12932.4,ns,,,,,,1,3,1,3,2,2
"sim/161",38603,21488.7,20995,ns,,,,,,2,11,2,11,4,4
"sim/162",43102,16081.1,15511,ns,,,,,,1,5,1,5,3,3
"sim/163",33204,23067.8,21621.1,ns,,,,,,2,11,2,11,4,4
"sim/164",28621,24359.8,23672.7,ns,,,,,,5,13,2,13,7,7
"sim/165",13133,162856,161594,ns,,,,,,10,37,2,19,8,12
"sim/166",60426,12132.5,12118.2,ns,,,,,,1,3,1,3,2,2
"sim/167",52690,39127.4,38945.2,ns,,,,,,2,5,0,5,2,2
"sim/168",45989,15284.7,15272.3,ns,,,,,,1,6,1,6,4,4
"sim/169",46228,14994,14989.1,ns,,,,,,2,6,0,6,3,3
"sim/170",48096,14574.1,14567.7,ns,,,,,,1,5,1,5,3,3
"sim/171",52175,13451.1,13445.5,ns,,,,,,2,4,0,4,2,2
"sim/172",49780,13580.6,13571.9,ns,,,,,,1,5,1,5,3,3
"sim/173",48868,13752.7,13722.7,ns,,,,,,1,4,0,4,1,1
"sim/174",51944,13330.7,13326.4,ns,,,,,,2,4,2,4,2,2
"sim/175",33932,18048.7,18030.9,ns,,,,,,1,6,1,6,3,3
"sim/176",34138,21096.9,21075,ns,,,,,,3,9,1,9,5,5
"sim/177",38912,17409.7,17386.6,ns,,,,,,3,7,0,7,4,4
"sim/178",6257,119569,119184,ns,,,,,,1,32,0,32,1,1
"sim/179",28865,25747.7,25691.1,ns,,,,,,1,11,1,11,6,6
"sim/180",47098,14891.1,14841,ns,,,,,,0,2,0,2,2,2
"sim/181",57026,12330.5,12315.5,ns,,,,,,0,2,0,2,2,2
"sim/182",36130,21068,21034.4,ns,,,,,,2,9,2,9,4,4
"sim/183",14981,45269.2,45222.8,ns,,,,,,3,26,3,26,6,6
"babiak/0",209293,3520.52,3509.23,ns,,,,,,0,1,0,1,1,1
"babiak/1",120787,17595.5,17457.3,ns,,,,,,0,3,0,3,2,2
"babiak/2",19473,34627.5,34592.2,ns,,,,,,1,7,1,7,4,4
"babiak/3",63551,10358.7,10343.9,ns,,,,,,1,5,0,5,3,3
"babiak/4",105032,6639.19,6632.83,ns,,,,,,1,3,0,3,2,2
"babiak/5",65672,10796.1,10783.7,ns,,,,,,1,6,0,6,3,3
"babiak/6",19480,36490.5,36453.1,ns,,,,,,2,6,1,6,3,3
"babiak/7",10000,50198.8,50153.9,ns,,,,,,2,8,1,8,4,4
"babiak/8",68192,10532.7,10519.9,ns,,,,,,2,4,0,4,2,2
"babiak/9",16405,44811,44740.4,ns,,,,,,1,6,1,6,3,3
"babiak/10",103487,6175.98,6168.84,ns,,,,,,0,3,0,3,2,2
"babiak/11",208654,3376.69,3373.37,ns,,,,,,0,1,0,1,1,1
"babiak/12",121916,5936.28,5928.54,ns,,,,,,0,3,0,3,2,2
"babiak/13",101852,7028.57,7015.33,ns,,,,,,0,3,0,3,2,2
"babiak/14",12883,54079.1,54007.7,ns,,,,,,2,11,1,11,5,5
"babiak/15",99227,6739.54,6736.28,ns,,,,,,0,3,0,3,2,2
"babiak/16",73088,9748.46,9725.8,ns,,,,,,2,4,0,4,2,2
"babiak/17",22811,31022.3,30920.8,ns,,,,,,1,5,1,5,3,3
"babiak/18",67946,10407.7,10402.4,ns,,,,,,2,4,0,4,2,2
"babiak/19",22538,30046.1,30031.1,ns,,,,,,1,5,1,5,3,3
"babiak/20",3571,195330,195199,ns,,,,,,4,29,1,20,8,8
"babiak/21",27416,26019.5,26002.3,ns,,,,,,1,13,0,13,7,7
"babiak/22",4198,160595,160289,ns,,,,,,6,28,4,28,7,7
"babiak/23",7543,98515.5,98423.1,ns,,,,,,2,16,1,16,8,8
"babiak/24",1000,616750,615021,ns,,,,,,6,32,4,26,7,7
"babiak/25",7318,92659.5,92506.8,ns,,,,,,1,14,1,14,7,7
"babiak/26",186483,3738.53,3731.82,ns,,,,,,0,1,0,1,1,1
"babiak/27",110128,6443.11,6434.23,ns,,,,,,0,3,0,3,2,2
"babiak/28",14850,38333.4,38285.4,ns,,,,,,1,7,1,7,4,4
"babiak/29",80206,16319.9,16255.6,ns,,,,,,1,5,0,5,3,3
"babiak/30",6520,106758,106185,ns,,,,,,1,3,0,3,2,2
"babiak/31",67838,10477,10468.1,ns,,,,,,1,6,0,6,3,3
"babiak/32",19407,107485,106949,ns,,,,,,2,6,1,6,3,3
"babiak/33",10687,118521,118209,ns,,,,,,2,8,1,8,4,4
"babiak/34",33482,22644.9,22579.3,ns,,,,,,2,4,0,4,2,2
"babiak/35",12860,73511.8,73332.8,ns,,,,,,1,6,1,6,3,3
"babiak/36",96510,7199.28,7189.22,ns,,,,,,0,3,0,3,2,2
"babiak/37",93913,6611.02,6604.57,ns,,,,,,0,3,0,3,2,2
"babiak/38",12648,51621.4,51567.1,ns,,,,,,1,7,1,7,4,4
"babiak/39",74138,11657.3,11638.3,ns,,,,,,1,5,0,5,3,3
"babiak/40",9687,72605.6,72528.6,ns,,,,,,2,11,2,11,5,5
"babiak/41",45182,15354.4,15338.7,ns,,,,,,3,7,0,7,3,3
"babiak/42",12388,78153.8,77972.7,ns,,,,,,2,6,1,6,3,3
"babiak/43",9476,71700.9,71569.4,ns,,,,,,2,8,1,8,4,4
"babiak/44",35809,19378.4,19345.8,ns,,,,,,2,4,0,4,2,2
"babiak/45",10632,80103,79906.8,ns,,,,,,1,6,1,6,3,3
"babiak/46",90719,8062.77,8047.25,ns,,,,,,2,4,0,4,2,2
"babiak/47",33983,20810.5,20773.9,ns,,,,,,1,3,1,3,2,2
"babiak/48",8447,96624.2,96370.7,ns,,,,,,3,11,1,11,5,5
"babiak/49",17525,41295.2,41201.2,ns,,,,,,1,5,1,5,3,3
"babiak/50",46087,13879.3,13864.5,ns,,,,,,3,7,0,7,3,3
"babiak/51",19364,36238,36223.5,ns,,,,,,2,6,2,6,3,3
"babiak/52",8640,81071.2,81040.3,ns,,,,,,3,10,1,10,4,4
"babiak/53",11542,60814,60787.7,ns,,,,,,2,8,2,8,4,4
"babiak/54",30543,23058.1,23049.9,ns,,,,,,3,8,0,8,3,3
"babiak/55",11586,60801.5,60767.3,ns,,,,,,2,8,2,8,4,4
"babiak/56",25636,26137.5,26126.9,ns,,,,,,1,5,1,5,3,3
"babiak/57",68062,10490,10485.2,ns,,,,,,1,6,0,6,3,3
"babiak/58",10026,70572.2,70532.8,ns,,,,,,2,11,2,11,5,5
"babiak/59",50736,14405.1,14392.1,ns,,,,,,2,8,0,8,4,4
"babiak/60",12185,54825.8,54758.8,ns,,,,,,2,8,2,8,4,4
"babiak/61",40839,19400.3,19357.7,ns,,,,,,2,9,0,9,4,4
"babiak/62",2709,261618,261179,ns,,,,,,5,22,4,22,6,6
"babiak/63",7241,102258,102122,ns,,,,,,3,12,1,12,5,5
"babiak/64",4025,175223,173398,ns,,,,,,4,16,4,16,4,4
"babiak/65",7860,91145.6,90895.4,ns,,,,,,2,10,1,10,4,4
"babiak/66",10498,58740,58632.1,ns,,,,,,2,10,1,10,5,5
"babiak/67",45808,13328.7,13311.6,ns,,,,,,2,8,0,5,3,4
"babiak/68",6953,104062,103901,ns,,,,,,3,14,1,14,6,6
"babiak/69",51990,12863,12849.2,ns,,,,,,2,7,0,7,4,4
"babiak/70",9262,73399,73293.8,ns,,,,,,2,11,1,11,5,5
"babiak/71",34884,23336.2,23302.9,ns,,,,,,3,12,0,8,4,5
"babiak/72",4547,139192,138961,ns,,,,,,4,16,2,16,6,6
"babiak/73",9077,73111.5,73042.2,ns,,,,,,3,10,1,10,5,5
"babiak/74",1267,518451,517765,ns,,,,,,7,25,2,21,7,8
"babiak/75",3828,207189,206928,ns,,,,,,6,28,1,8,4,10
"babiak/76",1335,493857,492986,ns,,,,,,7,34,3,25,6,8
"babiak/77",27265,77456.8,77110.3,ns,,,,,,1,5,1,5,3,3
"babiak/78",910,779179,777885,ns,,,,,,8,56,3,47,11,12
"babiak/79",10000,182428,181483,ns,,,,,,3,8,1,8,4,4
"babiak/80",25500,28264.7,28237.8,ns,,,,,,5,17,0,17,5,5
"babiak/81",14983,86061,85725.3,ns,,,,,,2,8,2,8,4,4
"babiak/82",364,1.90612e+06,1.90311e+06,ns,,,,,,11,63,5,49,10,12
"babiak/83",11230,63341.1,63309.2,ns,,,,,,4,11,2,11,5,5
"babiak/84",1418,497671,497298,ns,,,,,,10,57,3,57,10,10
"babiak/85",7211,104599,104442,ns,,,,,,4,11,2,8,4,5
"babiak/86",10119,69072.9,69041,ns,,,,,,4,14,4,14,4,4
"babiak/87",20084,34649.5,34634,ns,,,,,,2,6,1,6,3,3
"babiak/88",3290,215142,215017,ns,,,,,,5,21,1,17,6,7
"babiak/89",12785,52054.7,51999.3,ns,,,,,,2,9,1,9,4,4
"babiak/90",43568,17076.6,17058.3,ns,,,,,,3,8,0,8,3,3
"babiak/91",10969,64278.3,64220.6,ns,,,,,,2,9,2,9,4,4
"babiak/92",2089,342556,342023,ns,,,,,,5,20,1,16,5,6
"babiak/93",7022,97646.4,97516,ns,,,,,,3,13,2,13,5,5
"babiak/94",1299,529179,528699,ns,,,,,,12,60,2,23,6,12
"babiak/95",1123,663022,661899,ns,,,,,,8,38,3,25,8,11
"babiak/96",7085,84869.2,84720.5,ns,,,,,,4,14,4,14,4,4
"babiak/97",577,1.27428e+06,1.26223e+06,ns,,,,,,3,7,1,7,3,3
"babiak/98",100,5.14768e+06,5.09853e+06,ns,,,,,,5,21,3,16,6,7
"babiak/99",9679,83139,82883.2,ns,,,,,,3,10,1,10,4,4
"babiak/100",27709,74720.9,74090.4,ns,,,,,,3,8,0,8,3,3
"babiak/101",4466,141195,141109,ns,,,,,,2,10,2,10,4,4
"babiak/102",1514,549969,548852,ns,,,,,,5,20,3,15,5,6
"babiak/103",2866,210150,209945,ns,,,,,,4,14,2,14,5,5
"babiak/104",921,788732,786634,ns,,,,,,12,60,4,22,6,12
"babiak/105",415,5.12151e+06,5.09553e+06,ns,,,,,,10,56,5,44,11,12
"babiak/106",9032,78638.9,78522.6,ns,,,,,,3,15,1,10,5,5
"babiak/107",10000,111303,110672,ns,,,,,,0,11,0,11,6,6
"babiak/108",6158,129657,128989,ns,,,,,,4,21,2,14,6,6
"babiak/109",31120,66915.6,63998.2,ns,,,,,,0,14,0,14,7,7
"babiak/110",108418,7069.54,6614.42,ns,,,,,,0,3,0,3,2,2
"babiak/111",135802,5068.28,5066.91,ns,,,,,,0,3,0,3,2,2
"babiak/112",59569,11612.3,11607.5,ns,,,,,,1,6,0,6,3,3
"babiak/113",77337,11378.9,10453,ns,,,,,,1,6,0,6,3,3
"babiak/114",58045,11588.9,11114,ns,,,,,,1,6,0,6,3,3
"babiak/115",55445,14102,13280.7,ns,,,,,,1,6,0,6,3,3
"babiak/116",13461,56256.1,54385.8,ns,,,,,,2,7,1,6,3,3
"babiak/117",17788,43895.2,40986.4,ns,,,,,,2,5,1,4,2,2
"babiak/118",10375,80284.3,74374.8,ns,,,,,,3,10,2,7,3,4
"babiak/119",15336,47912.4,45054.2,ns,,,,,,2,7,1,4,2,3
"babiak/120",62298,10911.3,10305.7,ns,,,,,,1,6,0,6,4,4
"babiak/121",24355,27178,26859,ns,,,,,,1,6,1,6,3,3
"babiak/122",256278,2405.89,2405.05,ns,,,,,,0,0,0,0,1,1
"babiak/123",23763,28614.6,28604.2,ns,,,,,,1,7,1,7,4,4
"babiak/124",19193,40334.7,40305.6,ns,,,,,,2,5,1,4,2,2
"babiak/125",14423,50910.2,50630.1,ns,,,,,,2,7,1,6,3,3
"babiak/126",6932,116741,110128,ns,,,,,,5,16,1,7,3,5
"babiak/127",8251,98507.7,91639.9,ns,,,,,,6,29,1,10,3,7
"babiak/128",94340,5836.84,5833.88,ns,,,,,,0,3,0,3,2,2
"babiak/129",117762,6407.2,6073.38,ns,,,,,,0,3,0,3,2,2
"babiak/130",15985,54516,51822.5,ns,,,,,,1,9,1,9,5,5
"babiak/131",232860,2725.32,2724.03,ns,,,,,,0,0,0,0,1,1
"babiak/132",14397,49288.3,49264.7,ns,,,,,,1,10,1,10,5,5
"babiak/133",240151,2877.92,2875.76,ns,,,,,,0,0,0,0,1,1
"babiak/134",7781,94748.2,94683.1,ns,,,,,,7,19,0,4,2,7
"babiak/135",18965,36933.6,36916.6,ns,,,,,,2,5,1,3,2,3
"babiak/136",8811,134295,133955,ns,,,,,,7,17,0,4,2,7
"babiak/137",1036,681381,677199,ns,,,,,,2,5,1,3,2,3
"babiak/138",88061,7007.74,7004.17,ns,,,,,,2,4,0,4,2,2
"babiak/139",38329,18127.8,18120.8,ns,,,,,,1,3,1,3,2,2
"babiak/140",21219,26290.7,25906.6,ns,,,,,,1,5,1,5,3,3
"babiak/141",95675,8975.73,8526.66,ns,,,,,,2,4,0,4,2,2
"babiak/142",17052,39480.8,39457.2,ns,,,,,,2,5,1,4,2,2
"babiak/143",14662,49870.4,48588.1,ns,,,,,,2,7,1,6,3,3
"babiak/144",114777,6268.56,6264.81,ns,,,,,,1,4,0,4,1,1
"babiak/145",26555,25207.2,25193.3,ns,,,,,,1,5,1,5,3,3
"babiak/146",57675,10679.5,10669.6,ns,,,,,,0,7,0,7,4,4
"babiak/147",105649,6295.54,6292.53,ns,,,,,,0,4,0,4,3,3
"babiak/148",3440,208683,208564,ns,,,,,,14,88,2,9,5,18
"babiak/149",6067,122057,121986,ns,,,,,,3,12,2,9,4,5
"babiak/150",15438,44923.4,44887.4,ns,,,,,,1,8,1,8,4,4
"babiak/151",1698,406094,405703,ns,,,,,,10,51,4,19,6,12
"babiak/152",32134,24277.7,24255.4,ns,,,,,,1,4,1,4,3,3
"babiak/153",2308,340796,340453,ns,,,,,,8,39,3,21,5,8
"babiak/154",79601,9879.06,9868.55,ns,,,,,,1,5,0,5,3,3
"babiak/155",15720,45346.2,45309.7,ns,,,,,,1,8,1,8,4,4
"babiak/156",213222,3491.13,3411.77,ns,,,,,,0,1,0,1,1,1
"babiak/157",131625,5521.71,5518.33,ns,,,,,,0,3,0,3,2,2
"babiak/158",112192,6706.78,6642.59,ns,,,,,,0,3,0,3,2,2
"babiak/159",135332,5270.05,5207.26,ns,,,,,,0,3,0,3,2,2
"babiak/160",32709,22523.5,21727.2,ns,,,,,,1,3,1,3,2,2
"babiak/161",40354,18479.4,17720.8,ns,,,,,,2,11,0,11,4,4
"babiak/162",21827,32564.5,31240.2,ns,,,,,,1,5,1,5,3,3
"babiak/163",43958,17112.1,16435.3,ns,,,,,,2,11,0,11,4,4
"babiak/164",7672,80736.4,78930.2,ns,,,,,,5,13,1,13,7,7
"babiak/165",10000,54919.7,51690.9,ns,,,,,,10,37,0,21,8,12
"babiak/166",35663,19452.2,19113.8,ns,,,,,,1,3,1,3,2,2
"babiak/167",96354,8193.1,8184.66,ns,,,,,,2,5,0,5,2,2
"babiak/168",22316,32045.3,32031.7,ns,,,,,,1,6,1,6,4,4
"babiak/169",76452,9372.98,9366.11,ns,,,,,,2,6,0,6,3,3
"babiak/170",25154,26315.7,26300.6,ns,,,,,,1,5,1,5,3,3
"babiak/171",92435,7467.28,7462.82,ns,,,,,,2,4,0,4,2,2
"babiak/172",28465,25268.9,25257.7,ns,,,,,,1,5,1,5,3,3
"babiak/173",114102,5825.7,5821.83,ns,,,,,,1,4,0,4,1,1
"babiak/174",72876,28694.9,28601.3,ns,,,,,,2,4,0,4,2,2
"babiak/175",17880,39589.4,39568.5,ns,,,,,,1,6,1,6,3,3
"babiak/176",46592,15048.8,15040.4,ns,,,,,,3,9,0,9,5,5
"babiak/177",61659,11074.6,11070.4,ns,,,,,,3,7,0,7,4,4
"babiak/178",15774,44441.3,44426.5,ns,,,,,,1,32,0,32,1,1
"babiak/179",4557,149618,149548,ns,,,,,,1,11,1,11,6,6
"babiak/180",83219,8368.9,8366.66,ns,,,,,,0,2,0,2,2,2
"babiak/181",136396,5112.87,5071.31,ns,,,,,,0,2,0,2,2,2
"babiak/182",13365,54197.3,54169.7,ns,,,,,,2,9,2,9,4,4
"babiak/183",3001,211276,194956,ns,,,,,,3,26,2,26,6,6
