name,iterations,real_time,cpu_time,time_unit,bytes_per_second,items_per_second,label,error_occurred,error_message,"det","edges","red_det","red_edges","red_states","states"
"sim/0",42348,16467.9,16454.9,ns,,,,,,3,9,2,8,4,4
"sim/1",68387,10800,10790.4,ns,,,,,,1,3,1,3,2,2
"sim/2",22749,34729.1,34674.3,ns,,,,,,6,30,4,17,6,8
"sim/3",40724,18515.4,18496,ns,,,,,,4,11,1,4,2,4
"sim/4",26893,25236.6,25222,ns,,,,,,6,21,2,12,6,8
"sim/5",50360,13596.7,13588.5,ns,,,,,,1,5,1,5,3,3
"sim/6",43104,16994.7,16974.9,ns,,,,,,2,6,1,3,2,3
"sim/7",5232,140246,140095,ns,,,,,,18,124,7,26,10,20
"sim/8",40160,17380.7,17370.9,ns,,,,,,4,13,2,9,5,6
"sim/9",45752,45726.9,45510.6,ns,,,,,,1,6,1,6,3,3
"sim/10",42739,16877.2,16859,ns,,,,,,1,6,1,6,3,3
"sim/11",38350,18292.5,18277.4,ns,,,,,,1,7,1,7,4,4
"sim/12",22678,32476.6,32450.5,ns,,,,,,6,21,4,18,7,8
"sim/13",14420,41492.9,41462.2,ns,,,,,,4,16,3,15,9,9
"sim/14",6978,88866.4,88815.2,ns,,,,,,7,45,6,33,10,14
"sim/15",37839,19062.6,19047.9,ns,,,,,,2,11,1,8,4,5
"sim/16",17291,36789.3,36765.6,ns,,,,,,5,36,3,22,6,8
"sim/17",23785,28501.8,28461.7,ns,,,,,,6,23,4,18,8,10
"sim/18",12145,54041.2,53980.3,ns,,,,,,6,30,4,17,8,11
"sim/19",10000,155043,153983,ns,,,,,,3,9,3,8,3,3
"sim/20",50457,13926.4,13911.2,ns,,,,,,1,6,1,6,3,3
"sim/21",46518,15442.1,15424.4,ns,,,,,,1,7,1,7,4,4
"sim/22",16133,42459.1,42421.8,ns,,,,,,7,19,3,18,8,9
"sim/23",53158,13207.4,13191.2,ns,,,,,,0,3,0,3,2,2
"sim/24",78515,26562.4,26426.4,ns,,,,,,1,2,0,2,1,1
"sim/25",55266,12357,12344.8,ns,,,,,,2,5,1,4,2,2
"sim/26",50582,13861.9,13845.3,ns,,,,,,2,6,1,6,3,3
"sim/27",4915,135081,134944,ns,,,,,,20,107,19,107,20,20
"sim/28",45713,45650.5,45418.9,ns,,,,,,3,8,2,8,3,3
"sim/29",12503,57427.4,57353.3,ns,,,,,,10,58,4,30,6,10
"sim/30",19598,36770.5,36714.7,ns,,,,,,7,26,6,26,8,8
"sim/31",18863,37863.6,37811.6,ns,,,,,,4,24,3,24,4,4
"sim/32",40712,18556.6,18531.2,ns,,,,,,2,11,0,11,7,7
"sim/33",43010,18130.4,18098.1,ns,,,,,,2,6,1,6,3,3
"sim/34",22325,24062.5,24034.4,ns,,,,,,5,16,5,16,7,7
"sim/35",36332,18678.5,18650.5,ns,,,,,,3,11,2,11,5,5
"sim/36",24048,30626.8,30586.6,ns,,,,,,7,21,6,19,8,8
"sim/37",42804,13553.2,13537,ns,,,,,,0,4,0,4,3,3
"sim/38",30757,22762.3,22728.6,ns,,,,,,2,11,2,11,5,5
"sim/39",19883,32960.3,32908.2,ns,,,,,,3,23,2,17,6,7
"sim/40",12156,57665.3,57550.2,ns,,,,,,12,79,5,21,6,13
"sim/41",10210,67883.1,67810.6,ns,,,,,,12,90,2,22,6,12
"sim/42",16166,41829.2,41784.4,ns,,,,,,8,43,1,25,9,12
"sim/43",21320,32466.3,32432.7,ns,,,,,,8,26,6,23,13,14
"sim/44",25055,28040.7,28017.9,ns,,,,,,6,22,4,16,6,7
"sim/45",33380,21154.9,21125,ns,,,,,,3,11,3,11,4,4
"sim/46",22395,54580.4,54366.6,ns,,,,,,6,27,4,15,5,6
"sim/47",2523,223148,221480,ns,,,,,,1,7,1,7,4,4
"sim/48",46777,15155,15138.7,ns,,,,,,0,5,0,5,3,3
"sim/49",9557,69185.7,69114.1,ns,,,,,,6,36,4,22,7,9
"sim/50",36572,19294.8,19276,ns,,,,,,3,12,3,9,5,6
"sim/51",41810,17493.9,17467.1,ns,,,,,,1,7,1,7,5,5
"sim/52",18988,38943.5,38889.9,ns,,,,,,6,23,4,23,9,9
"sim/53",23705,29621.8,29588.6,ns,,,,,,4,20,2,20,7,7
"sim/54",36331,19333.5,19310.6,ns,,,,,,4,13,3,9,4,5
"sim/55",34579,20004.6,19986.1,ns,,,,,,2,10,2,10,5,5
"sim/56",5690,121137,121014,ns,,,,,,11,67,5,33,10,15
"sim/57",40008,17715,17698.8,ns,,,,,,3,9,3,9,5,5
"sim/58",25257,26646.8,26606.6,ns,,,,,,4,15,4,15,10,10
"sim/59",10000,166476,165350,ns,,,,,,4,17,3,17,6,6
"sim/60",20993,32512.2,32480.7,ns,,,,,,7,39,2,12,4,8
"sim/61",12467,54031.4,53976.1,ns,,,,,,4,28,3,26,8,8
"sim/62",19565,67841,67525,ns,,,,,,4,24,4,24,10,10
"sim/63",1111,640951,635471,ns,,,,,,8,30,6,26,10,10
"sim/64",34071,20233,20211.5,ns,,,,,,4,14,3,12,4,4
"sim/65",30339,21555.9,21534.5,ns,,,,,,2,10,2,10,4,4
"sim/66",61822,11055.8,11045.1,ns,,,,,,1,3,0,3,2,2
"sim/67",34993,19572.6,19553.2,ns,,,,,,2,11,1,11,5,5
"sim/68",29538,24056.6,24032.6,ns,,,,,,5,21,4,14,7,8
"sim/69",25722,27728.3,27699,ns,,,,,,5,21,3,15,5,6
"sim/70",29260,23995.8,23963.3,ns,,,,,,5,14,3,14,8,8
"sim/71",24628,28273.6,28243.4,ns,,,,,,4,20,4,20,7,7
"sim/72",54180,12954,12942.3,ns,,,,,,0,4,0,4,3,3
"sim/73",6603,100834,100726,ns,,,,,,17,121,4,33,9,20
"sim/74",39902,17510.1,17492.9,ns,,,,,,1,8,1,8,4,4
"sim/75",20243,34288.3,34252.8,ns,,,,,,5,25,5,25,11,11
"sim/76",47311,14993.7,14978.3,ns,,,,,,1,5,1,5,3,3
"sim/77",28041,24902.2,24875.8,ns,,,,,,2,15,2,15,6,6
"sim/78",43262,16129.3,16114,ns,,,,,,1,6,1,6,4,4
"sim/79",5082,143110,142962,ns,,,,,,28,166,6,20,9,31
"sim/80",57491,12281.2,12265.2,ns,,,,,,0,4,0,4,3,3
"sim/81",49946,14014.5,14000.8,ns,,,,,,2,6,0,6,3,3
"sim/82",1119,631052,630341,ns,,,,,,25,174,10,73,18,31
"sim/83",29131,23966,23936.2,ns,,,,,,2,15,2,15,7,7
"sim/84",38434,18262,18242,ns,,,,,,1,10,1,10,5,5
"sim/85",46189,15360.2,15343.4,ns,,,,,,1,6,1,6,4,4
"sim/86",45056,15897.6,15878.6,ns,,,,,,3,11,2,8,4,5
"sim/87",47411,16392.4,16370.8,ns,,,,,,2,7,0,7,4,4
"sim/88",10000,52460.4,52365.5,ns,,,,,,4,18,2,16,7,7
"sim/89",18179,41753.4,41707.5,ns,,,,,,7,33,5,28,9,10
"sim/90",23955,30473.4,30141.2,ns,,,,,,4,15,1,15,5,5
"sim/91",29822,21334.2,20708.2,ns,,,,,,3,12,1,12,7,7
"sim/92",39150,15715.4,15708.5,ns,,,,,,1,6,1,6,4,4
"sim/93",33289,20016,20008.7,ns,,,,,,4,15,3,11,6,7
"sim/94",11258,61310.3,61279.8,ns,,,,,,9,46,4,25,10,12
"sim/95",54537,13558.4,13392.6,ns,,,,,,1,4,1,4,3,3
"sim/96",10453,69264.1,69227,ns,,,,,,11,77,6,49,10,13
"sim/97",3602,187572,187480,ns,,,,,,13,72,10,63,15,16
"sim/98",42654,16994.5,16988.1,ns,,,,,,2,10,2,10,6,6
"sim/99",46136,15806.7,15800.7,ns,,,,,,2,6,0,6,4,4
"babiak/0",11043,61071.3,61047.5,ns,,,,,,3,9,1,8,4,4
"babiak/1",48131,15244.2,15237.7,ns,,,,,,1,3,1,3,2,2
"babiak/2",1904,409173,408801,ns,,,,,,6,30,4,17,6,8
"babiak/3",11762,47554.4,47498.2,ns,,,,,,4,11,1,4,2,4
"babiak/4",5505,129531,129425,ns,,,,,,6,21,2,12,6,8
"babiak/5",27056,25253,25237.3,ns,,,,,,1,5,1,5,3,3
"babiak/6",17468,42182.5,42161.4,ns,,,,,,2,6,1,3,2,3
"babiak/7",679,990119,989345,ns,,,,,,18,124,6,24,10,20
"babiak/8",7100,98497.4,98397.1,ns,,,,,,4,13,2,9,5,6
"babiak/9",49118,13238.4,13231,ns,,,,,,1,6,0,6,3,3
"babiak/10",8050,70991.3,70951.8,ns,,,,,,1,6,1,6,3,3
"babiak/11",19947,36951.9,36926.5,ns,,,,,,1,7,1,7,4,4
"babiak/12",2218,298566,298360,ns,,,,,,6,21,4,18,7,8
"babiak/13",3667,208805,208522,ns,,,,,,4,16,2,13,8,9
"babiak/14",622,1.07661e+06,1.07539e+06,ns,,,,,,7,45,4,33,10,14
"babiak/15",3563,162985,162772,ns,,,,,,2,11,1,8,4,5
"babiak/16",2351,314829,314534,ns,,,,,,5,36,2,20,6,8
"babiak/17",3055,263690,263340,ns,,,,,,6,23,3,18,8,10
"babiak/18",1788,469829,469144,ns,,,,,,6,30,4,17,8,11
"babiak/19",8575,83467.8,83412.3,ns,,,,,,3,9,1,8,3,3
"babiak/20",17160,40973,40912.3,ns,,,,,,1,6,1,6,3,3
"babiak/21",20885,40672.6,40598.4,ns,,,,,,1,7,1,7,4,4
"babiak/22",1432,389666,389305,ns,,,,,,7,19,3,18,8,9
"babiak/23",33479,16290.1,16280.9,ns,,,,,,0,3,0,3,2,2
"babiak/24",179375,4888.05,4881.12,ns,,,,,,1,2,0,2,1,1
"babiak/25",8967,56458.8,56345,ns,,,,,,2,5,1,4,2,2
"babiak/26",16481,44876.8,44782.9,ns,,,,,,2,6,1,6,3,3
"babiak/27",479,1.54998e+06,1.49054e+06,ns,,,,,,20,107,12,107,20,20
"babiak/28",8012,101082,92521.5,ns,,,,,,3,8,2,8,3,3
"babiak/29",721,1.18345e+06,1.0823e+06,ns,,,,,,10,58,4,30,6,10
"babiak/30",2880,198927,198585,ns,,,,,,7,26,6,26,8,8
"babiak/31",6886,111460,104665,ns,,,,,,4,24,2,24,4,4
"babiak/32",35099,25052.2,24183.3,ns,,,,,,2,11,0,11,7,7
"babiak/33",21762,27688,27662.7,ns,,,,,,2,6,1,6,3,3
"babiak/34",9358,76950.1,76918.6,ns,,,,,,5,16,5,16,7,7
"babiak/35",15661,45324.6,45302.8,ns,,,,,,3,11,2,11,5,5
"babiak/36",3783,191524,191373,ns,,,,,,7,21,6,19,8,8
"babiak/37",99128,7166.65,7163.63,ns,,,,,,0,4,0,4,3,3
"babiak/38",5519,137758,137644,ns,,,,,,2,11,2,11,5,5
"babiak/39",3307,216377,216236,ns,,,,,,3,23,2,17,6,7
"babiak/40",1162,494631,494197,ns,,,,,,12,79,5,21,6,13
"babiak/41",833,859186,858656,ns,,,,,,12,90,2,20,6,12
"babiak/42",2185,385812,363640,ns,,,,,,8,43,1,25,9,12
"babiak/43",1334,428673,393632,ns,,,,,,8,26,6,23,13,14
"babiak/44",3574,243720,227738,ns,,,,,,6,22,4,16,6,7
"babiak/45",4431,166629,156044,ns,,,,,,3,11,2,9,4,4
"babiak/46",1953,418389,402691,ns,,,,,,6,27,3,15,5,6
"babiak/47",10000,64518.9,59098.9,ns,,,,,,1,7,1,7,4,4
"babiak/48",53903,14555.9,13392.4,ns,,,,,,0,5,0,5,3,3
"babiak/49",1000,588810,550237,ns,,,,,,6,36,4,29,8,9
"babiak/50",4205,165418,154218,ns,,,,,,3,12,3,9,5,6
"babiak/51",10000,51682.1,51524.6,ns,,,,,,1,7,1,7,5,5
"babiak/52",1971,408267,407477,ns,,,,,,6,23,4,23,9,9
"babiak/53",4403,145076,144990,ns,,,,,,4,20,1,20,7,7
"babiak/54",5289,131712,131625,ns,,,,,,4,13,3,9,4,5
"babiak/55",3778,184034,183747,ns,,,,,,2,10,2,10,5,5
"babiak/56",507,1.88563e+06,1.88066e+06,ns,,,,,,11,67,4,40,11,15
"babiak/57",10000,62694.4,62543.5,ns,,,,,,3,9,3,9,5,5
"babiak/58",4443,130328,130144,ns,,,,,,4,15,4,15,10,10
"babiak/59",6894,106661,106591,ns,,,,,,4,17,1,17,6,6
"babiak/60",3431,202965,202794,ns,,,,,,7,39,2,12,4,8
"babiak/61",679,996552,995697,ns,,,,,,4,28,2,26,8,8
"babiak/62",3506,202164,202035,ns,,,,,,4,24,4,24,10,10
"babiak/63",2127,345226,344988,ns,,,,,,8,30,6,26,10,10
"babiak/64",5398,167493,167181,ns,,,,,,4,14,3,12,4,4
"babiak/65",1805,376264,376030,ns,,,,,,2,10,2,10,4,4
"babiak/66",120614,17244.3,17178.2,ns,,,,,,1,3,0,3,2,2
"babiak/67",11989,60945.9,60872.7,ns,,,,,,2,11,1,11,5,5
"babiak/68",4787,483903,480537,ns,,,,,,5,21,3,14,7,8
"babiak/69",2147,339454,339084,ns,,,,,,5,21,3,15,5,6
"babiak/70",5932,96614.7,96409.1,ns,,,,,,5,14,2,14,8,8
"babiak/71",3401,186666,186276,ns,,,,,,4,20,2,20,7,7
"babiak/72",86550,8133.05,8113.21,ns,,,,,,0,4,0,4,3,3
"babiak/73",527,1.22879e+06,1.22589e+06,ns,,,,,,17,121,4,33,9,20
"babiak/74",6991,101065,100859,ns,,,,,,1,8,1,8,4,4
"babiak/75",2396,289044,288728,ns,,,,,,5,25,5,25,11,11
"babiak/76",57671,12204,12192.7,ns,,,,,,1,5,0,5,3,3
"babiak/77",4351,158416,158229,ns,,,,,,2,15,1,15,6,6
"babiak/78",9788,72827.3,72747.9,ns,,,,,,1,6,1,6,4,4
"babiak/79",738,965476,964132,ns,,,,,,28,166,6,20,9,31
"babiak/80",86162,8346.32,8336.99,ns,,,,,,0,4,0,4,3,3
"babiak/81",76109,9463.17,9456.44,ns,,,,,,2,6,0,6,3,3
"babiak/82",170,4.22533e+06,4.22005e+06,ns,,,,,,25,174,8,74,18,31
"babiak/83",5204,133418,133292,ns,,,,,,2,15,2,15,7,7
"babiak/84",41520,16216.5,16204.4,ns,,,,,,1,10,0,10,5,5
"babiak/85",14774,46780.8,46737.6,ns,,,,,,1,6,1,6,4,4
"babiak/86",8503,81877.9,81827.1,ns,,,,,,3,11,2,8,4,5
"babiak/87",65347,10698.2,10690.3,ns,,,,,,2,7,0,7,4,4
"babiak/88",1995,351315,350860,ns,,,,,,4,18,1,18,7,7
"babiak/89",1169,609721,609273,ns,,,,,,7,33,3,28,9,10
"babiak/90",5100,140125,139999,ns,,,,,,4,15,1,15,5,5
"babiak/91",12250,58800.3,58747.9,ns,,,,,,3,12,1,12,7,7
"babiak/92",12890,48498,48460.7,ns,,,,,,1,6,1,6,4,4
"babiak/93",5961,122345,122160,ns,,,,,,4,15,3,11,6,7
"babiak/94",1189,592123,591282,ns,,,,,,9,46,1,33,10,12
"babiak/95",16059,45656.7,45606.4,ns,,,,,,1,4,1,4,3,3
"babiak/96",812,896474,895288,ns,,,,,,11,77,6,49,10,13
"babiak/97",750,916998,915793,ns,,,,,,13,72,2,72,16,16
"babiak/98",37183,18857.2,18832.7,ns,,,,,,2,10,0,10,6,6
"babiak/99",53596,12124.6,12109.1,ns,,,,,,2,6,0,6,4,4
