name,iterations,real_time,cpu_time,time_unit,bytes_per_second,items_per_second,label,error_occurred,error_message,"det","edges","red_det","red_edges","red_states","states"
"sim/0",36938,19532.9,19496.3,ns,,,,,,3,9,3,9,4,4
"sim/1",59677,11845.4,11826.9,ns,,,,,,1,3,1,3,2,2
"sim/2",22372,31813.5,31763.6,ns,,,,,,6,30,4,18,6,8
"sim/3",41933,16445.6,16424.1,ns,,,,,,4,11,2,4,2,4
"sim/4",27327,26542.8,26498.5,ns,,,,,,6,21,3,12,6,8
"sim/5",45376,15648.6,15621.7,ns,,,,,,1,5,1,5,3,3
"sim/6",44918,15491.6,15469.7,ns,,,,,,2,6,1,3,2,3
"sim/7",5248,126775,126555,ns,,,,,,20,141,9,28,11,22
"sim/8",34109,20497.4,20457.4,ns,,,,,,4,13,2,9,5,6
"sim/9",38953,18263.6,18234.7,ns,,,,,,1,6,1,6,3,3
"sim/10",36010,18794.9,18780.8,ns,,,,,,1,6,1,6,3,3
"sim/11",36911,18785.8,18769.2,ns,,,,,,1,7,1,7,4,4
"sim/12",20907,31342,31306.8,ns,,,,,,6,21,5,18,7,8
"sim/13",15673,41975.7,41939.3,ns,,,,,,4,16,3,15,9,9
"sim/14",8426,85500.8,85234.9,ns,,,,,,7,45,5,30,9,14
"sim/15",32386,21929.7,21909.1,ns,,,,,,2,11,1,8,4,5
"sim/16",12648,53224.1,53157.7,ns,,,,,,5,36,3,20,6,8
"sim/17",12436,53082.4,52858.4,ns,,,,,,6,23,3,13,7,10
"sim/18",11974,59217.7,59156.5,ns,,,,,,6,30,3,15,7,11
"sim/19",37424,18503.9,18483.5,ns,,,,,,3,9,3,7,3,3
"sim/20",45417,16021.7,16004.3,ns,,,,,,1,6,1,6,3,3
"sim/21",40282,17388.1,17368.3,ns,,,,,,1,7,1,7,4,4
"sim/22",14257,46860.9,46727.5,ns,,,,,,7,19,5,17,8,9
"sim/23",81969,9178.28,9165.29,ns,,,,,,0,3,0,3,2,2
"sim/24",61606,10041.5,10025.1,ns,,,,,,1,2,1,2,1,1
"sim/25",49132,14215.5,14192.6,ns,,,,,,2,5,2,4,2,2
"sim/26",43967,15102.1,15079.2,ns,,,,,,2,6,2,5,3,3
"sim/27",2391,302536,302022,ns,,,,,,23,119,22,112,22,23
"sim/28",26767,25573.2,25530.4,ns,,,,,,3,8,3,7,3,3
"sim/29",14328,48655.7,48581.2,ns,,,,,,10,58,6,24,6,10
"sim/30",18428,39361.9,39293.3,ns,,,,,,8,29,8,29,9,9
"sim/31",18656,37860.9,37790.5,ns,,,,,,6,31,6,30,6,6
"sim/32",37677,19010.2,18978.7,ns,,,,,,2,11,2,10,7,7
"sim/33",39434,18997.9,18963.5,ns,,,,,,2,6,2,6,3,3
"sim/34",26577,27433.2,27382.2,ns,,,,,,5,16,5,16,7,7
"sim/35",33440,21141.4,21096.8,ns,,,,,,3,11,3,11,5,5
"sim/36",21954,31646,31595.9,ns,,,,,,7,21,7,18,8,8
"sim/37",84309,8375.25,8363.39,ns,,,,,,0,4,0,4,3,3
"sim/38",28708,24162.2,24122.4,ns,,,,,,2,11,2,11,5,5
"sim/39",22188,37133.7,37070.2,ns,,,,,,3,23,2,16,6,7
"sim/40",10991,56411.6,56357.6,ns,,,,,,12,79,5,20,6,13
"sim/41",9603,74329.3,74260.6,ns,,,,,,12,86,6,21,6,12
"sim/42",16144,41893.3,41852.3,ns,,,,,,8,43,4,20,8,12
"sim/43",18201,38064.5,38032.7,ns,,,,,,8,26,6,23,13,14
"sim/44",23324,28123.7,28100.6,ns,,,,,,6,22,5,14,6,7
"sim/45",32183,21199.4,21179,ns,,,,,,3,11,3,9,4,4
"sim/46",14438,44745.2,44673.7,ns,,,,,,6,27,5,17,5,6
"sim/47",36545,18986.2,18969.9,ns,,,,,,1,7,1,7,4,4
"sim/48",72056,9597.19,9589.68,ns,,,,,,0,5,0,5,3,3
"sim/49",10164,73049.1,72974.9,ns,,,,,,6,36,4,22,7,9
"sim/50",32878,21313.2,21294,ns,,,,,,3,12,3,9,5,6
"sim/51",32634,18823.3,18804.7,ns,,,,,,1,7,1,7,5,5
"sim/52",18716,37258.8,37228.3,ns,,,,,,6,23,6,23,9,9
"sim/53",22160,31788.2,31729.5,ns,,,,,,4,20,4,19,7,7
"sim/54",31545,22097.1,22065,ns,,,,,,4,13,3,9,4,5
"sim/55",28997,23772.3,23752.9,ns,,,,,,2,10,2,10,5,5
"sim/56",5463,134539,134396,ns,,,,,,11,67,6,33,10,15
"sim/57",34564,20395,20372,ns,,,,,,3,9,3,9,5,5
"sim/58",23451,30050.1,30025.1,ns,,,,,,4,15,4,15,10,10
"sim/59",25405,27596.4,27574.6,ns,,,,,,4,17,4,14,6,6
"sim/60",22185,32502.9,32474,ns,,,,,,7,39,3,11,4,8
"sim/61",12563,57350.5,57275.7,ns,,,,,,4,28,3,26,8,8
"sim/62",19227,37003.2,36973.5,ns,,,,,,4,24,4,24,10,10
"sim/63",18312,38265.8,38228.3,ns,,,,,,8,30,8,26,10,10
"sim/64",31390,22228.1,22207.7,ns,,,,,,4,14,4,10,4,4
"sim/65",28308,25627.9,25604.3,ns,,,,,,2,10,2,10,4,4
"sim/66",54422,12699.1,12688.3,ns,,,,,,1,3,1,3,2,2
"sim/67",32758,21511.2,21493.9,ns,,,,,,2,11,2,10,5,5
"sim/68",26028,26967.2,26940.2,ns,,,,,,5,21,4,14,7,8
"sim/69",21970,29464.7,29441.1,ns,,,,,,5,21,4,15,5,6
"sim/70",25735,26365.9,26345.4,ns,,,,,,5,14,5,14,8,8
"sim/71",22029,31753.8,31726,ns,,,,,,4,20,4,20,7,7
"sim/72",78762,9227.74,9219,ns,,,,,,0,4,0,4,3,3
"sim/73",6317,111488,111382,ns,,,,,,17,121,6,33,9,20
"sim/74",33596,20893.9,20877.2,ns,,,,,,1,8,1,8,4,4
"sim/75",10328,68127.9,68072.7,ns,,,,,,5,25,4,21,10,11
"sim/76",39675,18192.8,18170.6,ns,,,,,,1,5,1,5,3,3
"sim/77",24121,27753.8,27729.3,ns,,,,,,2,15,2,15,6,6
"sim/78",37947,19153.9,19137.7,ns,,,,,,1,6,1,6,4,4
"sim/79",84993,8238.38,8230.59,ns,,,,,,0,4,0,4,3,3
"sim/80",49389,14641.1,14626.3,ns,,,,,,2,6,2,5,3,3
"sim/81",25352,27433.6,27410.4,ns,,,,,,2,15,2,15,7,7
"sim/82",31880,21027.4,21010.6,ns,,,,,,1,10,1,10,5,5
"sim/83",38387,17931.2,17914.6,ns,,,,,,1,6,1,6,4,4
"sim/84",38704,17954.3,17935.8,ns,,,,,,3,11,2,8,4,5
"sim/85",39226,18125.8,18104.5,ns,,,,,,2,7,2,7,4,4
"sim/86",15993,43629.3,43586.5,ns,,,,,,4,18,3,15,7,7
"sim/87",15792,43810.6,43755.8,ns,,,,,,8,36,7,30,10,11
"sim/88",26681,26513.4,26491.8,ns,,,,,,4,15,4,13,5,5
"sim/89",34648,20183.2,20161.4,ns,,,,,,3,12,3,11,7,7
"sim/90",37831,18159.1,18143,ns,,,,,,1,6,1,6,4,4
"sim/91",30292,23298.1,23272.8,ns,,,,,,4,15,3,11,6,7
"sim/92",10133,68555.1,68484.1,ns,,,,,,9,46,4,25,10,12
"sim/93",44036,16118.4,16104.2,ns,,,,,,1,4,1,4,3,3
"sim/94",5867,114240,114131,ns,,,,,,11,77,7,29,9,13
"sim/95",3631,196170,195899,ns,,,,,,13,72,10,63,15,16
"sim/96",35608,20278.2,20259.9,ns,,,,,,2,10,2,10,6,6
"sim/97",38110,18530.9,18514.9,ns,,,,,,2,6,2,6,4,4
"babiak/0",12384,57205.2,57115.1,ns,,,,,,3,9,1,9,4,4
"babiak/1",43970,16091.9,16069.7,ns,,,,,,1,3,1,3,2,2
"babiak/2",1406,492586,491781,ns,,,,,,6,30,4,18,6,8
"babiak/3",13790,50495.6,50447,ns,,,,,,4,11,1,4,2,4
"babiak/4",4950,143159,143012,ns,,,,,,6,21,2,12,6,8
"babiak/5",21667,30211.6,30126.1,ns,,,,,,1,5,1,5,3,3
"babiak/6",15010,43580.3,43535.5,ns,,,,,,2,6,1,3,2,3
"babiak/7",775,904891,903764,ns,,,,,,20,141,8,28,11,22
"babiak/8",8018,91114.4,91017.7,ns,,,,,,4,13,2,9,5,6
"babiak/9",49044,15124.5,15100.6,ns,,,,,,1,6,0,6,3,3
"babiak/10",8906,78407.3,78256,ns,,,,,,1,6,1,6,3,3
"babiak/11",18024,38984.5,38916.8,ns,,,,,,1,7,1,7,4,4
"babiak/12",2344,303821,303286,ns,,,,,,6,21,4,18,7,8
"babiak/13",3297,205281,204926,ns,,,,,,4,16,3,15,9,9
"babiak/14",685,959665,957801,ns,,,,,,7,45,4,33,10,14
"babiak/15",4959,139011,138766,ns,,,,,,2,11,1,8,4,5
"babiak/16",1564,392895,392151,ns,,,,,,5,36,2,20,6,8
"babiak/17",2968,228429,227997,ns,,,,,,6,23,3,18,8,10
"babiak/18",1536,453131,452216,ns,,,,,,6,30,4,17,8,11
"babiak/19",5098,132261,131992,ns,,,,,,3,9,2,7,3,3
"babiak/20",21704,31554.7,31493.8,ns,,,,,,1,6,1,6,3,3
"babiak/21",21465,32578,32530.6,ns,,,,,,1,7,1,7,4,4
"babiak/22",1667,438113,437488,ns,,,,,,7,19,3,18,8,9
"babiak/23",41190,16797.7,16780.4,ns,,,,,,0,3,0,3,2,2
"babiak/24",174111,4022.9,4019.68,ns,,,,,,1,2,0,2,1,1
"babiak/25",16004,48413.9,48349.3,ns,,,,,,2,5,1,4,2,2
"babiak/26",9662,73452.8,73380.7,ns,,,,,,2,6,1,5,3,3
"babiak/27",419,1.7053e+06,1.70287e+06,ns,,,,,,23,119,22,119,23,23
"babiak/28",5720,123740,123630,ns,,,,,,3,8,2,7,3,3
"babiak/29",1102,610145,609507,ns,,,,,,10,58,5,24,6,10
"babiak/30",3386,208831,208631,ns,,,,,,8,29,7,29,9,9
"babiak/31",2138,327660,327263,ns,,,,,,6,31,4,30,6,6
"babiak/32",31604,22185.3,22165.6,ns,,,,,,2,11,0,10,7,7
"babiak/33",22912,30317.6,30290.3,ns,,,,,,2,6,1,6,3,3
"babiak/34",8005,92094.6,91978.8,ns,,,,,,5,16,5,16,7,7
"babiak/35",11609,62485.5,62417.8,ns,,,,,,3,11,2,11,5,5
"babiak/36",2911,239732,239473,ns,,,,,,7,21,6,18,8,8
"babiak/37",89119,7970.48,7963.79,ns,,,,,,0,4,0,4,3,3
"babiak/38",4443,160158,159897,ns,,,,,,2,11,2,11,5,5
"babiak/39",2479,275791,275327,ns,,,,,,3,23,2,16,6,7
"babiak/40",1085,590007,589319,ns,,,,,,12,79,5,20,6,13
"babiak/41",708,986482,984977,ns,,,,,,12,86,4,22,6,12
"babiak/42",2062,346989,346536,ns,,,,,,8,43,3,20,8,12
"babiak/43",1592,433873,433033,ns,,,,,,8,26,6,23,13,14
"babiak/44",3238,215973,215710,ns,,,,,,6,22,4,14,6,7
"babiak/45",2718,256739,256482,ns,,,,,,3,11,2,9,4,4
"babiak/46",972,707402,706567,ns,,,,,,6,27,3,18,5,6
"babiak/47",15936,43080.6,43034.3,ns,,,,,,1,7,1,7,4,4
"babiak/48",53429,14421.4,14398.7,ns,,,,,,0,5,0,5,3,3
"babiak/49",1394,489240,488656,ns,,,,,,6,36,4,29,8,9
"babiak/50",6313,113457,113338,ns,,,,,,3,12,3,9,5,6
"babiak/51",19430,37156.4,37115.2,ns,,,,,,1,7,1,7,5,5
"babiak/52",2095,331829,331465,ns,,,,,,6,23,4,23,9,9
"babiak/53",2156,339607,339146,ns,,,,,,4,20,2,19,7,7
"babiak/54",5502,134294,134133,ns,,,,,,4,13,3,9,4,5
"babiak/55",4584,149482,149286,ns,,,,,,2,10,2,10,5,5
"babiak/56",471,1.48763e+06,1.48576e+06,ns,,,,,,11,67,5,36,11,15
"babiak/57",15201,46290,46235.9,ns,,,,,,3,9,3,9,5,5
"babiak/58",6730,105636,105489,ns,,,,,,4,15,4,15,10,10
"babiak/59",2845,248755,248321,ns,,,,,,4,17,2,14,6,6
"babiak/60",2752,252747,252320,ns,,,,,,7,39,3,11,4,8
"babiak/61",647,1.06069e+06,1.05863e+06,ns,,,,,,4,28,2,26,8,8
"babiak/62",3127,224698,224222,ns,,,,,,4,24,4,24,10,10
"babiak/63",1642,430299,429528,ns,,,,,,8,30,8,26,10,10
"babiak/64",4730,147156,146886,ns,,,,,,4,14,3,10,4,4
"babiak/65",1747,401137,400331,ns,,,,,,2,10,2,10,4,4
"babiak/66",111099,6463.99,6452.19,ns,,,,,,1,3,0,3,2,2
"babiak/67",5538,128556,128355,ns,,,,,,2,11,1,10,5,5
"babiak/68",3113,231236,230797,ns,,,,,,5,21,3,14,7,8
"babiak/69",1718,415743,414952,ns,,,,,,5,21,3,15,5,6
"babiak/70",7972,88992,88824.6,ns,,,,,,5,14,3,14,8,8
"babiak/71",3433,202784,202433,ns,,,,,,4,20,2,20,7,7
"babiak/72",80254,9182.6,9165.78,ns,,,,,,0,4,0,4,3,3
"babiak/73",353,1.72547e+06,1.72177e+06,ns,,,,,,17,121,4,33,9,20
"babiak/74",7879,95019.3,94818.9,ns,,,,,,1,8,1,8,4,4
"babiak/75",2325,309777,309168,ns,,,,,,5,25,5,25,11,11
"babiak/76",52838,13133.6,13112.9,ns,,,,,,1,5,0,5,3,3
"babiak/77",4179,186043,185576,ns,,,,,,2,15,1,15,6,6
"babiak/78",8840,80147.7,80009.6,ns,,,,,,1,6,1,6,4,4
"babiak/79",84509,8281.11,8269.1,ns,,,,,,0,4,0,4,3,3
"babiak/80",74502,9459.07,9441.39,ns,,,,,,2,6,0,5,3,3
"babiak/81",4674,146984,146678,ns,,,,,,2,15,2,15,7,7
"babiak/82",41455,17000.6,16972.1,ns,,,,,,1,10,0,10,5,5
"babiak/83",14924,46402.8,46325.7,ns,,,,,,1,6,1,6,4,4
"babiak/84",8079,90106,89949.8,ns,,,,,,3,11,2,8,4,5
"babiak/85",67616,10517.9,10498.1,ns,,,,,,2,7,0,7,4,4
"babiak/86",1189,575956,574972,ns,,,,,,4,18,1,17,7,7
"babiak/87",819,861166,859354,ns,,,,,,8,36,7,30,10,11
"babiak/88",2184,313028,312398,ns,,,,,,4,15,2,13,5,5
"babiak/89",5491,130075,129844,ns,,,,,,3,12,1,11,7,7
"babiak/90",13180,61346.7,61216.2,ns,,,,,,1,6,1,6,4,4
"babiak/91",6050,127488,127235,ns,,,,,,4,15,3,11,6,7
"babiak/92",1304,524453,523753,ns,,,,,,9,46,1,33,10,12
"babiak/93",14214,48611.5,48555,ns,,,,,,1,4,1,4,3,3
"babiak/94",526,1.29756e+06,1.29558e+06,ns,,,,,,11,77,7,44,10,13
"babiak/95",802,881417,880084,ns,,,,,,13,72,2,72,16,16
"babiak/96",37930,19147.4,19108.8,ns,,,,,,2,10,0,10,6,6
"babiak/97",54036,12901.4,12883.9,ns,,,,,,2,6,0,6,4,4
