name,iterations,real_time,cpu_time,time_unit,bytes_per_second,items_per_second,label,error_occurred,error_message,"det","edges","red_det","red_edges","red_states","states"
"sim/0",103809,6624.24,6591.64,ns,,,,,,0,2,0,2,2,2
"sim/1",63845,10258.6,10201.8,ns,,,,,,0,8,0,8,8,8
"sim/2",30665,24316.8,24196.5,ns,,,,,,0,24,0,24,24,24
"sim/3",9673,74222.5,73812.4,ns,,,,,,0,65,0,64,64,65
"babiak/0",129803,5278.83,5253.09,ns,,,,,,0,2,0,2,2,2
"babiak/1",48964,14304.9,14218.3,ns,,,,,,0,8,0,8,8,8
"babiak/2",16541,42662.1,42443.9,ns,,,,,,0,24,0,24,24,24
"babiak/3",4048,174446,173561,ns,,,,,,0,65,0,64,64,65
