name,iterations,real_time,cpu_time,time_unit,bytes_per_second,items_per_second,label,error_occurred,error_message,"det","edges","red_det","red_edges","red_states","states"
"sim/0",20684,35713.5,35690.8,ns,,,,,,5,27,5,18,5,5
"sim/1",79016,26898.1,26788,ns,,,,,,1,2,1,2,1,1
"sim/2",27675,27102,27082.3,ns,,,,,,6,26,6,17,6,6
"sim/3",41681,16792.3,16773.4,ns,,,,,,4,14,4,13,4,4
"sim/4",44426,16174.6,16159.6,ns,,,,,,3,10,3,8,3,3
"sim/5",58452,12632,12618.2,ns,,,,,,2,6,2,5,2,2
"sim/6",47143,14837.2,14819.3,ns,,,,,,3,7,3,7,3,3
"sim/7",11697,59579,59517.3,ns,,,,,,13,44,6,19,9,15
"sim/8",55305,12173.6,12161,ns,,,,,,2,5,2,4,2,2
"sim/9",45372,12915.5,12903,ns,,,,,,1,3,1,3,2,2
"sim/10",56859,12373.2,12367.5,ns,,,,,,1,2,1,2,1,1
"sim/11",51381,13746,13740.5,ns,,,,,,2,6,2,5,2,2
"sim/12",16472,42781,42764.4,ns,,,,,,3,23,3,21,7,7
"sim/13",18998,37085,37072.4,ns,,,,,,6,19,3,13,6,8
"sim/14",33985,20743.4,20733.6,ns,,,,,,2,11,2,10,5,5
"sim/15",79480,7393.13,7387.36,ns,,,,,,0,2,0,2,2,2
"sim/16",25146,29072.5,29053.6,ns,,,,,,5,20,5,20,8,8
"sim/17",23726,88236.9,87741.5,ns,,,,,,8,31,5,16,7,10
"sim/18",36259,20145.6,20123.9,ns,,,,,,5,13,5,12,6,6
"sim/19",41512,50369.4,50141.5,ns,,,,,,3,14,3,10,3,3
"sim/20",117605,6083.17,6080.76,ns,,,,,,0,2,0,2,2,2
"sim/21",56638,12591.3,12585.2,ns,,,,,,1,4,1,4,3,3
"sim/22",5443,130430,130358,ns,,,,,,20,108,20,108,20,20
"sim/23",113533,6239.97,6237.69,ns,,,,,,0,1,0,1,1,1
"sim/24",62597,11035.5,11031.6,ns,,,,,,1,3,1,3,2,2
"sim/25",53227,12856.7,12852.2,ns,,,,,,2,7,2,6,3,3
"sim/26",49847,14633.6,14627.1,ns,,,,,,3,9,2,6,3,4
"sim/27",33770,21253.2,21243.8,ns,,,,,,3,13,3,13,7,7
"sim/28",49386,13746.1,13732.9,ns,,,,,,1,4,1,4,3,3
"sim/29",18867,37677.3,37622.8,ns,,,,,,10,37,7,24,13,15
"sim/30",13552,54490.9,54425.3,ns,,,,,,11,59,5,22,6,12
"sim/31",36250,20155.2,20122.4,ns,,,,,,5,18,2,9,4,7
"sim/32",46563,15204.8,15199.6,ns,,,,,,2,9,2,9,6,6
"sim/33",43345,16364.4,16359.3,ns,,,,,,2,8,2,8,4,4
"sim/34",11248,60235.9,60206,ns,,,,,,12,43,8,25,9,12
"sim/35",36447,19427.1,19420.6,ns,,,,,,5,18,3,9,4,6
"sim/36",6803,104686,104633,ns,,,,,,13,63,11,45,15,16
"sim/37",82086,8556.29,8553.45,ns,,,,,,0,8,0,8,4,4
"sim/38",19697,37541.3,37516.4,ns,,,,,,5,30,5,30,8,8
"sim/39",12811,53888.4,53866.5,ns,,,,,,7,30,5,18,6,8
"sim/40",8637,79076.9,79042.2,ns,,,,,,15,82,5,17,6,16
"sim/41",7262,92535.3,92496.2,ns,,,,,,26,145,5,17,6,27
"sim/42",15275,45602,45578.1,ns,,,,,,5,29,4,23,8,9
"sim/43",12663,52714.3,52659.8,ns,,,,,,9,42,9,42,17,17
"sim/44",14411,48201.9,48167.1,ns,,,,,,9,35,8,21,9,10
"sim/45",42411,15673.7,15664.9,ns,,,,,,3,8,2,6,3,3
"sim/46",28263,23189.5,23164.3,ns,,,,,,4,17,4,15,6,6
"sim/47",49587,14486,14466.2,ns,,,,,,2,5,2,5,3,3
"sim/48",104247,6575.83,6569.63,ns,,,,,,0,2,0,2,2,2
"sim/49",45316,15955.2,15937.5,ns,,,,,,3,9,1,5,3,4
"sim/50",16287,42753.3,42739.6,ns,,,,,,6,33,3,19,7,9
"sim/51",39048,18623.9,18592.7,ns,,,,,,3,10,3,10,6,6
"sim/52",26613,26806.4,26770.3,ns,,,,,,4,17,4,17,7,7
"sim/53",22582,30915.9,30888.9,ns,,,,,,6,24,6,24,8,8
"sim/54",40408,17844.4,17835.2,ns,,,,,,2,9,2,8,4,4
"sim/55",39684,18186.5,18177.5,ns,,,,,,3,10,2,7,3,3
"sim/56",12862,50742.8,50725.4,ns,,,,,,7,37,2,14,5,10
"sim/57",34296,20001.2,19994.3,ns,,,,,,4,13,4,13,6,6
"sim/58",8712,72898.7,72864.1,ns,,,,,,9,61,9,61,15,15
"sim/59",22555,31941,31921.6,ns,,,,,,8,40,3,14,6,11
"sim/60",14831,47127.6,47091.5,ns,,,,,,9,43,3,10,4,10
"sim/61",15797,44443.5,44397,ns,,,,,,8,45,6,33,10,12
"sim/62",38187,18170.4,18158.8,ns,,,,,,1,9,1,9,5,5
"sim/63",40473,16890.5,16880.6,ns,,,,,,3,11,3,11,6,6
"sim/64",20139,33410.1,33382,ns,,,,,,4,19,4,14,6,6
"sim/65",10000,50591.3,50505,ns,,,,,,4,31,4,24,6,6
"sim/66",54373,13640.3,13623.6,ns,,,,,,2,7,1,5,3,4
"sim/67",39194,17430.7,17424.2,ns,,,,,,3,10,3,10,5,5
"sim/68",33716,64479.7,64188,ns,,,,,,5,20,5,14,6,6
"sim/69",12984,49621.2,49599.6,ns,,,,,,7,34,7,27,8,8
"sim/70",7380,87588.9,87533.9,ns,,,,,,13,53,11,44,14,15
"sim/71",19092,37293.1,37257.9,ns,,,,,,5,24,3,15,6,7
"sim/72",97984,7059.44,7057.38,ns,,,,,,0,3,0,3,3,3
"sim/73",2453,309725,309393,ns,,,,,,17,106,14,85,29,31
"sim/74",96360,7040.07,7037.69,ns,,,,,,0,2,0,2,2,2
"sim/75",16604,42631.2,42611.6,ns,,,,,,11,60,5,15,8,15
"sim/76",44274,15558.3,15553.1,ns,,,,,,2,8,1,5,3,4
"sim/77",34608,20202.7,20195.1,ns,,,,,,2,13,2,13,6,6
"sim/78",53367,13215.4,13209.6,ns,,,,,,1,3,1,3,2,2
"sim/79",13786,51453.3,51377.5,ns,,,,,,13,92,7,27,7,13
"sim/80",116610,5939,5936.37,ns,,,,,,0,2,0,2,2,2
"sim/81",47320,42865.8,42646.9,ns,,,,,,2,8,2,8,5,5
"sim/82",2972,238335,238228,ns,,,,,,16,146,13,65,17,19
"sim/83",27949,24990.2,24980.5,ns,,,,,,5,19,5,19,6,6
"sim/84",41754,16952,16944.8,ns,,,,,,1,8,1,8,5,5
"sim/85",52288,13847.5,13823.6,ns,,,,,,2,5,2,5,3,3
"sim/86",52259,13343.1,13335.4,ns,,,,,,2,8,1,5,3,4
"sim/87",42080,16288,16277.9,ns,,,,,,1,9,1,9,5,5
"sim/88",24390,28372.5,28355.1,ns,,,,,,5,19,5,19,8,8
"sim/89",25036,26512.4,26493.2,ns,,,,,,4,22,3,16,6,7
"sim/90",29856,23173,23155.5,ns,,,,,,4,17,3,13,6,7
"sim/91",34688,21418.9,21388.9,ns,,,,,,4,16,3,13,7,8
"sim/92",24645,28163.8,28133.2,ns,,,,,,1,11,1,10,6,6
"sim/93",29228,25620,25589.2,ns,,,,,,5,12,3,7,4,5
"sim/94",31404,22869.4,22857,ns,,,,,,6,15,6,13,7,7
"sim/95",47210,14891.1,14883.6,ns,,,,,,1,7,1,7,4,4
"sim/96",24216,29686.2,29669.1,ns,,,,,,6,27,5,20,7,8
"sim/97",3263,217406,217310,ns,,,,,,18,90,13,57,16,24
"sim/98",43348,16418.5,16411.6,ns,,,,,,1,8,1,8,5,5
"sim/99",10000,77677.8,77306.1,ns,,,,,,1,10,1,7,5,6
"babiak/0",3590,194735,194646,ns,,,,,,5,27,5,18,5,5
"babiak/1",203991,3519.99,3517.33,ns,,,,,,1,2,0,2,1,1
"babiak/2",3001,229139,229037,ns,,,,,,6,26,6,17,6,6
"babiak/3",5529,122317,122271,ns,,,,,,4,14,4,13,4,4
"babiak/4",8528,83469.6,83436.2,ns,,,,,,3,10,2,8,3,3
"babiak/5",14555,48067.4,48048.4,ns,,,,,,2,6,2,5,2,2
"babiak/6",18785,37113.8,37097.7,ns,,,,,,3,7,1,7,3,3
"babiak/7",1078,629311,628928,ns,,,,,,13,44,8,25,11,15
"babiak/8",17766,40595.4,40573.5,ns,,,,,,2,5,1,4,2,2
"babiak/9",97685,21439.1,21338.1,ns,,,,,,1,3,0,3,2,2
"babiak/10",139947,5059.23,5056.1,ns,,,,,,1,2,0,2,1,1
"babiak/11",13891,151139,150523,ns,,,,,,2,6,2,5,2,2
"babiak/12",1920,357133,356934,ns,,,,,,3,23,2,20,7,7
"babiak/13",3752,184465,184372,ns,,,,,,6,19,3,13,6,8
"babiak/14",2629,258931,258803,ns,,,,,,2,11,1,10,5,5
"babiak/15",100215,7111.09,7107.96,ns,,,,,,0,2,0,2,2,2
"babiak/16",5717,123244,123176,ns,,,,,,5,20,4,20,8,8
"babiak/17",3445,207132,207005,ns,,,,,,8,31,5,16,7,10
"babiak/18",6691,104983,104929,ns,,,,,,5,13,5,12,6,6
"babiak/19",7355,96575.2,96526.7,ns,,,,,,3,14,2,10,3,3
"babiak/20",149424,4765.24,4763.7,ns,,,,,,0,2,0,2,2,2
"babiak/21",86503,6905.93,6902.83,ns,,,,,,1,4,0,4,3,3
"babiak/22",554,1.24022e+06,1.23924e+06,ns,,,,,,20,108,20,108,20,20
"babiak/23",186638,3697.19,3695.08,ns,,,,,,0,1,0,1,1,1
"babiak/24",45361,15413,15405.5,ns,,,,,,1,3,1,3,2,2
"babiak/25",13661,53879.3,53848.3,ns,,,,,,2,7,1,6,3,3
"babiak/26",11936,178348,177630,ns,,,,,,3,9,2,6,3,4
"babiak/27",8526,84087.8,84052,ns,,,,,,3,13,2,13,7,7
"babiak/28",10000,170661,169746,ns,,,,,,1,4,1,4,3,3
"babiak/29",1107,648372,647943,ns,,,,,,10,37,6,24,13,15
"babiak/30",2498,283429,283265,ns,,,,,,11,59,4,22,6,12
"babiak/31",5704,128335,128229,ns,,,,,,5,18,2,9,4,7
"babiak/32",13377,46455.2,46421,ns,,,,,,2,9,2,9,6,6
"babiak/33",13193,54236.2,54210.8,ns,,,,,,2,8,1,5,3,4
"babiak/34",1000,1.7484e+06,1.73845e+06,ns,,,,,,12,43,6,26,10,12
"babiak/35",7700,89950.8,89906.1,ns,,,,,,5,18,2,9,4,6
"babiak/36",801,864117,863357,ns,,,,,,13,63,8,42,14,16
"babiak/37",66773,10662.4,10657.9,ns,,,,,,0,8,0,8,4,4
"babiak/38",10171,205652,204654,ns,,,,,,5,30,0,30,8,8
"babiak/39",2096,325975,325806,ns,,,,,,7,30,5,24,7,8
"babiak/40",1409,526288,525709,ns,,,,,,15,82,5,27,8,16
"babiak/41",966,728114,727638,ns,,,,,,26,145,3,17,6,27
"babiak/42",1937,369325,369055,ns,,,,,,5,29,4,23,8,9
"babiak/43",2108,334145,333944,ns,,,,,,9,42,1,42,17,17
"babiak/44",1247,554638,554283,ns,,,,,,9,35,6,21,9,10
"babiak/45",7891,86501.2,86469.8,ns,,,,,,3,8,1,6,3,3
"babiak/46",1000,1.71505e+06,1.70036e+06,ns,,,,,,4,17,4,15,6,6
"babiak/47",90113,7989.18,7979.79,ns,,,,,,2,5,0,5,3,3
"babiak/48",137252,15365.2,15280.6,ns,,,,,,0,2,0,2,2,2
"babiak/49",13486,53800,53729.8,ns,,,,,,3,9,1,5,3,4
"babiak/50",3166,224743,224486,ns,,,,,,6,33,2,21,7,9
"babiak/51",43840,16412.8,16394.2,ns,,,,,,3,10,0,10,6,6
"babiak/52",4037,174227,174024,ns,,,,,,4,17,2,17,7,7
"babiak/53",4653,145115,144952,ns,,,,,,6,24,5,24,8,8
"babiak/54",5501,128405,128252,ns,,,,,,2,9,1,8,4,4
"babiak/55",44883,15712.8,15697,ns,,,,,,3,10,0,7,3,3
"babiak/56",2387,293333,292952,ns,,,,,,7,37,2,18,6,10
"babiak/57",12678,54683.5,54624,ns,,,,,,4,13,2,13,6,6
"babiak/58",976,717819,716908,ns,,,,,,9,61,3,61,15,15
"babiak/59",2294,308552,308159,ns,,,,,,8,40,3,14,6,11
"babiak/60",2196,322982,322461,ns,,,,,,9,43,4,15,5,10
"babiak/61",964,711110,710110,ns,,,,,,8,45,5,33,10,12
"babiak/62",13692,52367,52309.7,ns,,,,,,1,9,1,9,5,5
"babiak/63",11608,61340.3,61270.9,ns,,,,,,3,11,3,11,6,6
"babiak/64",2874,244956,244672,ns,,,,,,4,19,2,14,6,6
"babiak/65",234,3.04097e+06,3.03692e+06,ns,,,,,,4,31,4,24,6,6
"babiak/66",87788,8057.24,8049.32,ns,,,,,,2,7,0,5,3,4
"babiak/67",13674,51437.2,51389.7,ns,,,,,,3,10,3,10,5,5
"babiak/68",4776,146408,146346,ns,,,,,,5,20,3,14,6,6
"babiak/69",2174,320067,319879,ns,,,,,,7,34,4,34,8,8
"babiak/70",895,778492,777918,ns,,,,,,13,53,11,45,14,15
"babiak/71",2876,241458,241248,ns,,,,,,5,24,2,17,6,7
"babiak/72",115704,18049.3,17968.9,ns,,,,,,0,3,0,3,3,3
"babiak/73",162,4.27434e+06,4.26914e+06,ns,,,,,,17,106,13,85,29,31
"babiak/74",126817,5451.91,5444.12,ns,,,,,,0,2,0,2,2,2
"babiak/75",1619,435073,434786,ns,,,,,,11,60,5,15,8,15
"babiak/76",56621,31889.3,31774.8,ns,,,,,,2,8,0,5,3,4
"babiak/77",10004,71418.1,71379.4,ns,,,,,,2,13,1,13,6,6
"babiak/78",61860,33839.5,33705.6,ns,,,,,,1,3,0,3,2,2
"babiak/79",1234,590591,590104,ns,,,,,,13,92,6,27,7,13
"babiak/80",100000,7492.23,7471.23,ns,,,,,,0,2,0,2,2,2
"babiak/81",1060,655562,651232,ns,,,,,,2,8,2,8,5,5
"babiak/82",146,4.79313e+06,4.78705e+06,ns,,,,,,16,146,6,60,15,19
"babiak/83",7058,97226.5,97121.5,ns,,,,,,5,19,5,19,6,6
"babiak/84",18900,37287.7,37248.8,ns,,,,,,1,8,1,8,5,5
"babiak/85",65048,9167.2,9150.9,ns,,,,,,2,5,0,5,3,3
"babiak/86",13238,52985.5,52918.1,ns,,,,,,2,8,1,5,3,4
"babiak/87",10000,182121,180835,ns,,,,,,1,9,1,9,5,5
"babiak/88",1251,557184,556538,ns,,,,,,5,19,5,19,8,8
"babiak/89",2605,256809,256517,ns,,,,,,4,22,3,16,6,7
"babiak/90",3149,219700,219442,ns,,,,,,4,17,3,13,6,7
"babiak/91",5593,123083,122922,ns,,,,,,4,16,2,13,7,8
"babiak/92",7624,97885.5,97739,ns,,,,,,1,11,1,10,6,6
"babiak/93",7463,93871.1,93763.2,ns,,,,,,5,12,2,7,4,5
"babiak/94",5489,111025,110862,ns,,,,,,6,15,4,13,7,7
"babiak/95",19406,36421.7,36390.3,ns,,,,,,1,7,1,7,4,4
"babiak/96",2047,324689,324505,ns,,,,,,6,27,4,20,7,8
"babiak/97",560,1.36357e+06,1.36224e+06,ns,,,,,,18,90,11,59,17,24
"babiak/98",20776,36974.5,36939.2,ns,,,,,,1,8,1,8,5,5
"babiak/99",6556,107495,107410,ns,,,,,,1,10,1,7,5,6
