name,iterations,real_time,cpu_time,time_unit,bytes_per_second,items_per_second,label,error_occurred,error_message,"det","edges","red_det","red_edges","red_states","states"
"sim/0",13474,51627.3,51610.5,ns,,,,,,11,82,0,0,1,12
"sim/1",36363,19387.8,19380.1,ns,,,,,,3,8,3,6,3,4
"sim/2",10083,68122.5,68098.7,ns,,,,,,13,79,6,14,6,14
"sim/3",24476,28864.8,28855,ns,,,,,,7,28,3,6,3,8
"sim/4",19848,35653.9,35642.4,ns,,,,,,7,21,3,6,3,8
"sim/5",27252,26105.7,26076.7,ns,,,,,,5,20,3,6,3,6
"sim/6",25740,27254,27237.3,ns,,,,,,5,15,4,9,4,6
"sim/7",9056,77855.7,77797.7,ns,,,,,,16,49,11,33,15,19
"sim/8",23215,30108.7,30089.5,ns,,,,,,5,13,3,6,3,6
"sim/9",23161,30477.5,30446.1,ns,,,,,,3,10,1,3,2,5
"sim/10",27400,25713.7,25693.5,ns,,,,,,4,10,2,5,3,5
"sim/11",22979,30754.2,30721.6,ns,,,,,,6,22,2,5,3,7
"sim/12",13728,51473.8,51450.6,ns,,,,,,5,33,4,28,8,10
"sim/13",16399,42627.1,42576.8,ns,,,,,,8,27,3,14,7,11
"sim/14",19706,35745.9,35719,ns,,,,,,4,17,3,12,6,8
"sim/15",41706,16957.8,16938.1,ns,,,,,,2,7,0,2,2,4
"sim/16",16433,43211.1,43182.6,ns,,,,,,6,25,4,16,7,10
"sim/17",12164,56520.8,56475.1,ns,,,,,,11,45,7,24,9,14
"sim/18",36539,18581.9,18576.2,ns,,,,,,7,18,0,0,1,8
"sim/19",23217,29968.7,29960.4,ns,,,,,,8,39,0,0,1,9
"sim/20",45673,14923.5,14919.3,ns,,,,,,2,7,0,2,2,4
"sim/21",31558,22128.8,22122.4,ns,,,,,,3,9,1,4,3,5
"sim/22",2147,320177,320037,ns,,,,,,22,119,20,99,20,23
"sim/23",42270,16709.5,16704.5,ns,,,,,,2,7,0,2,2,4
"sim/24",54139,13113.2,13109.2,ns,,,,,,1,5,0,0,1,3
"sim/25",33350,21235.9,21229.4,ns,,,,,,3,10,3,6,3,5
"sim/26",36074,19575.1,19568.8,ns,,,,,,5,18,0,0,1,7
"sim/27",21589,32647.5,32637.5,ns,,,,,,3,15,2,10,6,8
"sim/28",31286,22251.7,22244.5,ns,,,,,,1,6,1,4,3,4
"sim/29",12397,56723.4,56704.1,ns,,,,,,11,42,1,6,4,17
"sim/30",12316,55872.4,55854.4,ns,,,,,,15,94,0,0,1,17
"sim/31",26243,26186.6,26178.8,ns,,,,,,5,20,1,3,2,8
"sim/32",31809,21614.2,21608.1,ns,,,,,,4,17,0,5,5,9
"sim/33",36998,18538.6,18533.1,ns,,,,,,2,10,2,10,5,5
"sim/34",9734,72761.8,72734.5,ns,,,,,,14,50,8,24,9,16
"sim/35",16661,42146.8,42133.7,ns,,,,,,7,29,3,9,4,9
"sim/36",3176,221556,221376,ns,,,,,,18,81,11,38,15,22
"sim/37",36177,19564.6,19545.9,ns,,,,,,2,13,0,8,4,6
"sim/38",9121,76603.2,76551.1,ns,,,,,,7,41,5,30,8,11
"sim/39",12066,57893.8,57873.7,ns,,,,,,9,41,4,13,5,11
"sim/40",7383,94616.6,94581.5,ns,,,,,,18,87,7,21,8,20
"sim/41",3093,221794,221706,ns,,,,,,29,165,9,34,10,31
"sim/42",11517,61311.2,61243,ns,,,,,,7,39,3,15,6,12
"sim/43",3390,207592,207439,ns,,,,,,12,58,8,40,16,21
"sim/44",11330,62600.1,62534.8,ns,,,,,,14,42,12,31,13,16
"sim/45",33219,21484.3,21461.4,ns,,,,,,5,15,0,0,1,6
"sim/46",15362,45922.4,45872.3,ns,,,,,,7,31,5,23,8,10
"sim/47",28562,24818.4,24799.5,ns,,,,,,3,10,2,5,3,5
"sim/48",42907,16562,16544.2,ns,,,,,,2,7,0,2,2,4
"sim/49",24212,29076.6,29054.6,ns,,,,,,5,18,2,8,4,7
"sim/50",13569,52784.5,52720.2,ns,,,,,,8,44,4,22,8,12
"sim/51",23095,30504.4,30481,ns,,,,,,4,15,3,10,6,8
"sim/52",16910,41753.8,41706.9,ns,,,,,,5,22,3,15,7,9
"sim/53",10306,68702.6,68654.3,ns,,,,,,8,37,6,24,8,11
"sim/54",22356,31385.9,31353.7,ns,,,,,,4,15,3,10,5,7
"sim/55",20945,33663.8,33634.6,ns,,,,,,6,17,5,12,5,7
"sim/56",9338,75415.3,75334.8,ns,,,,,,10,57,4,25,7,14
"sim/57",29887,23448.6,23441.7,ns,,,,,,5,18,0,2,2,8
"sim/58",3149,223679,223512,ns,,,,,,12,82,9,57,15,19
"sim/59",15487,45435.3,45400.9,ns,,,,,,9,45,2,10,5,13
"sim/60",11966,59747.3,59694.4,ns,,,,,,11,53,4,13,5,13
"sim/61",6554,102995,102933,ns,,,,,,10,59,7,35,11,15
"sim/62",17275,40333.7,40322.4,ns,,,,,,3,16,1,9,5,8
"sim/63",21047,33123.7,33114.2,ns,,,,,,4,16,1,4,3,8
"sim/64",17369,40503.9,40459.4,ns,,,,,,6,22,6,19,8,9
"sim/65",9308,75424.8,75399.7,ns,,,,,,8,49,7,44,9,11
"sim/66",23570,29312.7,29293.3,ns,,,,,,3,12,1,5,3,6
"sim/67",33733,20489.5,20483.6,ns,,,,,,5,15,0,0,1,7
"sim/68",21111,32756.8,32746.4,ns,,,,,,8,25,1,4,3,9
"sim/69",11564,58726.5,58707.4,ns,,,,,,9,43,8,30,9,11
"sim/70",9081,73279.1,73221,ns,,,,,,14,58,8,31,12,17
"sim/71",16708,42276.9,42245.9,ns,,,,,,6,29,3,15,6,9
"sim/72",41897,16771.2,16766,ns,,,,,,2,8,0,3,3,5
"sim/73",2085,340385,340234,ns,,,,,,18,114,15,89,30,34
"sim/74",41290,17161.3,17148.4,ns,,,,,,2,7,0,2,2,4
"sim/75",12577,56449.5,56388,ns,,,,,,12,65,5,15,8,17
"sim/76",18272,38589.5,38558,ns,,,,,,4,17,1,5,3,7
"sim/77",19639,36118,36080.1,ns,,,,,,4,18,2,13,6,8
"sim/78",25979,27270.1,27262,ns,,,,,,4,11,2,6,4,6
"sim/79",3684,192074,191994,ns,,,,,,23,134,10,31,10,24
"sim/80",43868,16057.4,16052.4,ns,,,,,,2,8,0,3,3,5
"sim/81",41196,17310.6,17305.4,ns,,,,,,2,11,0,3,3,6
"sim/82",2427,291377,291134,ns,,,,,,19,153,17,85,21,23
"sim/83",16201,43784.8,43741.4,ns,,,,,,6,23,3,10,4,8
"sim/84",24480,28770.9,28751.7,ns,,,,,,2,13,1,8,5,7
"sim/85",22167,31942.6,31910.1,ns,,,,,,4,12,2,5,3,6
"sim/86",24661,28726.5,28704.6,ns,,,,,,5,20,3,10,5,8
"sim/87",37399,18964.4,18943.9,ns,,,,,,1,11,1,11,6,6
"sim/88",23420,30102.5,30079.8,ns,,,,,,6,24,0,0,1,10
"sim/89",14013,50327.4,50293.7,ns,,,,,,7,40,4,20,7,11
"sim/90",22002,31556.2,31540,ns,,,,,,5,19,1,6,4,8
"sim/91",26546,25604.6,25594.1,ns,,,,,,6,27,0,0,1,11
"sim/92",21352,32190.4,32181.2,ns,,,,,,2,16,1,10,6,8
"sim/93",23157,29662.1,29653.5,ns,,,,,,6,16,4,9,5,8
"sim/94",18613,37200.8,37177.9,ns,,,,,,7,20,6,13,7,9
"sim/95",19099,36694.7,36670,ns,,,,,,4,17,1,6,4,8
"sim/96",11134,60125.7,60107.2,ns,,,,,,9,47,7,33,9,12
"sim/97",2720,249855,249758,ns,,,,,,20,105,17,65,20,27
"sim/98",19300,35864.2,35854.2,ns,,,,,,3,14,1,8,5,8
"sim/99",33580,20110,20104.4,ns,,,,,,1,12,1,9,6,7
"babiak/0",654,1.07636e+06,1.07529e+06,ns,,,,,,11,82,7,81,12,12
"babiak/1",20447,34058.8,34029.1,ns,,,,,,3,8,1,8,4,4
"babiak/2",643,1.0881e+06,1.08701e+06,ns,,,,,,13,79,4,77,13,14
"babiak/3",3556,199638,199394,ns,,,,,,7,28,3,26,8,8
"babiak/4",3618,195687,195515,ns,,,,,,7,21,5,19,8,8
"babiak/5",9413,74700.6,74620.9,ns,,,,,,5,20,1,20,6,6
"babiak/6",3492,204736,204633,ns,,,,,,5,15,3,15,6,6
"babiak/7",713,948494,947945,ns,,,,,,16,49,10,37,16,19
"babiak/8",11255,63076.8,63052.4,ns,,,,,,5,13,3,13,6,6
"babiak/9",5815,121144,121091,ns,,,,,,3,10,2,10,5,5
"babiak/10",3886,183361,183272,ns,,,,,,4,10,2,10,5,5
"babiak/11",7640,92749.6,92708.7,ns,,,,,,6,22,2,22,7,7
"babiak/12",494,1.42812e+06,1.42729e+06,ns,,,,,,5,33,3,29,10,10
"babiak/13",1338,504353,504070,ns,,,,,,8,27,5,21,9,11
"babiak/14",1454,480854,480591,ns,,,,,,4,17,2,17,8,8
"babiak/15",9176,72747.1,72717.9,ns,,,,,,2,7,2,7,4,4
"babiak/16",1618,428571,428322,ns,,,,,,6,25,5,25,10,10
"babiak/17",1264,550125,549809,ns,,,,,,11,45,7,29,11,14
"babiak/18",6367,111449,111396,ns,,,,,,7,18,4,10,5,8
"babiak/19",2746,256367,256064,ns,,,,,,8,39,8,39,9,9
"babiak/20",16489,42643.5,42612,ns,,,,,,2,7,2,7,4,4
"babiak/21",13296,52862.1,52805.7,ns,,,,,,3,9,2,9,5,5
"babiak/22",457,1.54495e+06,1.54357e+06,ns,,,,,,22,119,22,119,23,23
"babiak/23",4706,151669,151462,ns,,,,,,2,7,2,7,4,4
"babiak/24",22613,31132.6,31121.5,ns,,,,,,1,5,1,5,3,3
"babiak/25",12836,54884.6,54862.8,ns,,,,,,3,10,1,10,5,5
"babiak/26",2823,247373,247256,ns,,,,,,5,18,4,14,6,7
"babiak/27",2519,277597,277439,ns,,,,,,3,15,2,15,8,8
"babiak/28",10105,66551.3,66524.9,ns,,,,,,1,6,1,6,4,4
"babiak/29",512,1.38584e+06,1.38499e+06,ns,,,,,,11,42,6,27,14,17
"babiak/30",646,1.10053e+06,1.09983e+06,ns,,,,,,15,94,7,39,9,17
"babiak/31",2308,305735,305576,ns,,,,,,5,20,2,11,5,8
"babiak/32",5508,127707,127631,ns,,,,,,4,17,4,17,9,9
"babiak/33",4829,145812,145741,ns,,,,,,2,10,1,7,4,5
"babiak/34",578,1.23027e+06,1.22869e+06,ns,,,,,,14,50,6,41,13,16
"babiak/35",1333,499954,499686,ns,,,,,,7,29,4,18,7,9
"babiak/36",367,1.89189e+06,1.89018e+06,ns,,,,,,18,81,11,64,20,22
"babiak/37",6453,109157,109030,ns,,,,,,2,13,2,13,6,6
"babiak/38",737,960516,959654,ns,,,,,,7,41,2,41,11,11
"babiak/39",607,1.16357e+06,1.16217e+06,ns,,,,,,9,41,6,35,10,11
"babiak/40",576,1.23436e+06,1.23334e+06,ns,,,,,,18,87,7,39,12,20
"babiak/41",129,5.21668e+06,5.21234e+06,ns,,,,,,29,165,12,68,18,31
"babiak/42",611,1.15616e+06,1.15476e+06,ns,,,,,,7,39,4,27,10,12
"babiak/43",1185,596845,596266,ns,,,,,,12,58,4,58,21,21
"babiak/44",669,1.0536e+06,1.05215e+06,ns,,,,,,14,42,8,34,14,16
"babiak/45",3673,190691,190528,ns,,,,,,5,15,5,15,6,6
"babiak/46",883,789996,789573,ns,,,,,,7,31,5,30,10,10
"babiak/47",6570,104619,104524,ns,,,,,,3,10,2,10,5,5
"babiak/48",8590,81202.1,81139.7,ns,,,,,,2,7,2,7,4,4
"babiak/49",4369,163847,163648,ns,,,,,,5,18,4,13,6,7
"babiak/50",1180,592554,591985,ns,,,,,,8,44,5,31,10,12
"babiak/51",7337,97307.9,97228.9,ns,,,,,,4,15,2,15,8,8
"babiak/52",1185,597299,596714,ns,,,,,,5,22,3,22,9,9
"babiak/53",1080,655805,655022,ns,,,,,,8,37,7,37,11,11
"babiak/54",3647,192227,192001,ns,,,,,,4,15,2,15,7,7
"babiak/55",3310,214596,214409,ns,,,,,,6,17,4,17,7,7
"babiak/56",632,1.11076e+06,1.10939e+06,ns,,,,,,10,57,5,34,10,14
"babiak/57",5564,127496,127387,ns,,,,,,5,18,3,18,8,8
"babiak/58",607,1.17231e+06,1.17142e+06,ns,,,,,,12,82,6,82,19,19
"babiak/59",485,1.39574e+06,1.39469e+06,ns,,,,,,9,45,3,19,8,13
"babiak/60",509,1.38315e+06,1.38187e+06,ns,,,,,,11,53,6,25,8,13
"babiak/61",314,2.2293e+06,2.22622e+06,ns,,,,,,10,59,6,46,13,15
"babiak/62",5750,123106,122992,ns,,,,,,3,16,3,16,8,8
"babiak/63",3658,193183,192924,ns,,,,,,4,16,4,16,8,8
"babiak/64",1692,420576,420082,ns,,,,,,6,22,2,22,9,9
"babiak/65",100,7.04832e+06,7.03971e+06,ns,,,,,,8,49,6,49,11,11
"babiak/66",9325,76187.4,76125,ns,,,,,,3,12,2,12,6,6
"babiak/67",8470,83026.2,82991.3,ns,,,,,,5,15,4,15,7,7
"babiak/68",4037,168164,168079,ns,,,,,,8,25,8,25,9,9
"babiak/69",890,794688,793894,ns,,,,,,9,43,6,43,11,11
"babiak/70",551,1.29164e+06,1.28964e+06,ns,,,,,,14,58,12,51,16,17
"babiak/71",1364,515516,515005,ns,,,,,,6,29,4,22,8,9
"babiak/72",13239,53503.8,53484.5,ns,,,,,,2,8,2,8,5,5
"babiak/73",88,7.51715e+06,7.5085e+06,ns,,,,,,18,114,15,94,32,34
"babiak/74",12260,57523.1,57480.6,ns,,,,,,2,7,2,7,4,4
"babiak/75",594,1.18504e+06,1.18344e+06,ns,,,,,,12,65,6,20,10,17
"babiak/76",1475,475581,474968,ns,,,,,,4,17,2,13,6,7
"babiak/77",5311,131434,131303,ns,,,,,,4,18,3,18,8,8
"babiak/78",3994,176433,176281,ns,,,,,,4,11,2,11,6,6
"babiak/79",340,2.06492e+06,2.06177e+06,ns,,,,,,23,134,18,87,21,24
"babiak/80",12253,57685.5,57663.7,ns,,,,,,2,8,2,8,5,5
"babiak/81",7100,96164.9,96125.5,ns,,,,,,2,11,2,11,6,6
"babiak/82",52,1.37017e+07,1.36811e+07,ns,,,,,,19,153,14,131,23,23
"babiak/83",2528,280768,280479,ns,,,,,,6,23,6,23,8,8
"babiak/84",4248,166353,166123,ns,,,,,,2,13,2,13,7,7
"babiak/85",7885,89884.2,89801.6,ns,,,,,,4,12,2,12,6,6
"babiak/86",2789,255802,255462,ns,,,,,,5,20,4,15,7,8
"babiak/87",8533,82939.9,82866.6,ns,,,,,,1,11,1,11,6,6
"babiak/88",296,2.39119e+06,2.38763e+06,ns,,,,,,6,24,6,24,10,10
"babiak/89",589,1.19224e+06,1.19156e+06,ns,,,,,,7,40,6,32,10,11
"babiak/90",2459,280686,280543,ns,,,,,,5,19,4,15,7,8
"babiak/91",1147,580650,580050,ns,,,,,,6,27,3,17,9,11
"babiak/92",2336,296010,295723,ns,,,,,,2,16,2,15,8,8
"babiak/93",4136,170129,169915,ns,,,,,,6,16,4,14,7,8
"babiak/94",2581,271171,270916,ns,,,,,,7,20,5,18,9,9
"babiak/95",2882,243294,242974,ns,,,,,,4,17,2,17,8,8
"babiak/96",459,1.54193e+06,1.54045e+06,ns,,,,,,9,47,7,38,11,12
"babiak/97",103,6.8373e+06,6.83275e+06,ns,,,,,,20,105,18,93,27,27
"babiak/98",9639,73225.8,73193.4,ns,,,,,,3,14,3,14,8,8
"babiak/99",2126,325849,325667,ns,,,,,,1,12,1,9,6,7
