name,iterations,real_time,cpu_time,time_unit,bytes_per_second,items_per_second,label,error_occurred,error_message,"det","edges","red_det","red_edges","red_states","states"
"sim/0",7788,90939.5,90858.3,ns,,,,,,17,65,7,16,7,18
"sim/1",30941,22732.7,22715.8,ns,,,,,,6,18,3,6,3,7
"sim/2",2922,240272,240036,ns,,,,,,26,176,8,21,8,28
"sim/3",12992,50919.7,50874.7,ns,,,,,,15,59,7,18,7,15
"sim/4",5117,136685,136577,ns,,,,,,26,117,10,22,10,28
"sim/5",21724,32558,32532.5,ns,,,,,,9,31,5,11,5,11
"sim/6",21787,32238.5,32213.7,ns,,,,,,9,33,4,9,4,10
"sim/7",308,2.26136e+06,2.25951e+06,ns,,,,,,85,812,25,90,28,87
"sim/8",13138,53391.2,53351.7,ns,,,,,,16,65,8,18,8,18
"sim/9",20069,34688.1,34659.3,ns,,,,,,9,33,5,13,5,10
"sim/10",17331,40526.6,40495.7,ns,,,,,,10,37,6,16,6,11
"sim/11",14908,47603.6,47565.8,ns,,,,,,12,44,8,19,8,15
"sim/12",5213,132910,132800,ns,,,,,,24,111,10,29,10,26
"sim/13",4224,168371,168223,ns,,,,,,22,82,9,25,12,28
"sim/14",1713,403339,403006,ns,,,,,,40,231,12,45,12,44
"sim/15",15959,43281.3,43240.4,ns,,,,,,13,52,5,12,5,14
"sim/16",1556,450957,450583,ns,,,,,,33,274,24,119,25,34
"sim/17",3913,179960,179807,ns,,,,,,28,113,11,27,11,30
"sim/18",2753,255275,255055,ns,,,,,,31,164,4,9,4,36
"sim/19",10251,63867.2,63814.1,ns,,,,,,14,52,7,18,7,14
"sim/20",22809,30179.2,30158.5,ns,,,,,,9,33,4,9,4,10
"sim/21",16741,41049.7,41010.1,ns,,,,,,10,35,8,20,8,12
"sim/22",3154,218434,218235,ns,,,,,,27,110,7,17,7,30
"sim/23",24304,28304.2,28283.6,ns,,,,,,6,18,4,9,4,7
"sim/24",23612,29115.8,29094,ns,,,,,,7,23,5,11,5,7
"sim/25",19961,34655.9,34631.2,ns,,,,,,10,33,5,11,5,10
"sim/26",15241,46226,46192.9,ns,,,,,,11,37,9,22,9,12
"sim/27",353,2.0016e+06,1.9995e+06,ns,,,,,,80,828,63,434,64,80
"sim/28",10449,67374,67318.8,ns,,,,,,12,64,9,32,9,12
"sim/29",987,666761,666096,ns,,,,,,48,373,29,133,29,48
"sim/30",949,741193,740531,ns,,,,,,39,230,17,68,18,40
"sim/31",1470,477155,476736,ns,,,,,,30,304,6,16,6,30
"sim/32",11897,58571.5,58522.9,ns,,,,,,14,50,10,27,13,18
"sim/33",9225,76745.2,76687.4,ns,,,,,,11,46,5,12,5,12
"sim/34",3864,181856,181700,ns,,,,,,21,89,13,39,14,23
"sim/35",4781,146672,146528,ns,,,,,,15,66,8,19,8,17
"sim/36",3124,220521,220354,ns,,,,,,31,128,21,60,22,32
"sim/37",19196,36178.7,36154.1,ns,,,,,,7,22,7,16,7,9
"sim/38",6881,98620.1,98538.6,ns,,,,,,15,62,13,41,13,17
"sim/39",3374,206042,205875,ns,,,,,,23,133,18,67,19,25
"sim/40",738,952472,951511,ns,,,,,,56,545,14,53,15,57
"sim/41",696,1.00628e+06,1.0054e+06,ns,,,,,,56,510,18,86,20,56
"sim/42",2385,297660,297376,ns,,,,,,35,226,15,52,15,38
"sim/43",4198,167818,167677,ns,,,,,,32,130,12,33,16,42
"sim/44",3800,186220,186039,ns,,,,,,25,119,16,52,16,26
"sim/45",8551,81823.6,81755.9,ns,,,,,,14,55,9,24,9,15
"sim/46",4016,172401,172222,ns,,,,,,24,152,12,51,12,24
"sim/47",16306,42587.8,42554,ns,,,,,,10,35,8,20,8,12
"sim/48",22622,31492.3,31470.3,ns,,,,,,7,24,5,12,5,8
"sim/49",2679,264103,263864,ns,,,,,,26,178,9,28,9,27
"sim/50",7182,97758.2,97677.6,ns,,,,,,17,66,8,18,8,20
"sim/51",15623,44911.8,44875.4,ns,,,,,,11,37,8,19,9,15
"sim/52",2024,349281,348974,ns,,,,,,27,121,16,50,16,29
"sim/53",1784,394065,393693,ns,,,,,,25,123,16,56,17,27
"sim/54",14298,49551.3,49512.3,ns,,,,,,13,60,5,12,5,14
"sim/55",11247,58555.5,58502.1,ns,,,,,,13,48,8,20,8,15
"sim/56",921,772280,771577,ns,,,,,,50,364,25,109,26,51
"sim/57",13773,50973.2,50932.9,ns,,,,,,12,50,4,9,5,14
"sim/58",4526,151011,150882,ns,,,,,,26,87,18,39,18,34
"sim/59",3312,207953,207785,ns,,,,,,24,95,16,47,16,25
"sim/60",1157,608061,607483,ns,,,,,,41,306,12,44,13,42
"sim/61",3947,179194,179038,ns,,,,,,25,147,12,47,12,26
"sim/62",1475,471151,470686,ns,,,,,,25,144,24,108,32,33
"sim/63",2953,239151,238944,ns,,,,,,29,155,13,43,14,32
"sim/64",11782,59891.3,59843,ns,,,,,,14,68,4,9,4,14
"sim/65",10061,71083.7,71010.4,ns,,,,,,13,57,8,26,8,14
"sim/66",20544,34076.8,34052.8,ns,,,,,,7,22,6,16,6,8
"sim/67",10470,67123.1,67066,ns,,,,,,17,62,11,29,11,18
"sim/68",4185,163819,163676,ns,,,,,,26,105,14,35,14,28
"sim/69",2326,295484,295193,ns,,,,,,21,132,11,38,11,22
"sim/70",6382,107394,107303,ns,,,,,,21,74,14,35,15,25
"sim/71",4037,173808,173659,ns,,,,,,18,99,8,28,8,21
"sim/72",23579,29375.8,29355.1,ns,,,,,,5,19,5,11,5,8
"sim/73",575,1.22337e+06,1.22224e+06,ns,,,,,,69,704,28,152,28,70
"sim/74",18761,37642,37612.3,ns,,,,,,10,37,5,12,5,11
"sim/75",2655,266899,266688,ns,,,,,,28,132,12,39,16,35
"sim/76",21679,32731.1,32702.8,ns,,,,,,9,28,5,11,5,10
"sim/77",7145,98733,98648.2,ns,,,,,,17,81,12,38,12,19
"sim/78",18273,38846.9,38816.7,ns,,,,,,9,32,6,15,7,12
"sim/79",491,1.43534e+06,1.43403e+06,ns,,,,,,91,831,12,28,12,94
"sim/80",26456,26817.6,26796.7,ns,,,,,,6,19,4,10,5,8
"sim/81",18764,37627.1,37597.9,ns,,,,,,10,34,6,16,7,11
"sim/82",301,2.34869e+06,2.34641e+06,ns,,,,,,94,908,6,16,7,97
"sim/83",5040,140414,140297,ns,,,,,,18,83,9,27,10,22
"sim/84",15170,46601.5,46563.6,ns,,,,,,12,49,6,18,7,14
"sim/85",20688,33848.8,33824,ns,,,,,,7,29,5,13,6,11
"sim/86",20897,33501.8,33477.6,ns,,,,,,12,54,5,18,7,14
"sim/87",9264,73832.8,73769.4,ns,,,,,,11,47,5,13,6,13
"sim/88",6134,116355,116253,ns,,,,,,20,89,12,35,13,22
"sim/89",1971,354758,354433,ns,,,,,,34,212,23,101,24,37
"sim/90",4428,159909,159752,ns,,,,,,21,86,17,54,18,22
"sim/91",8275,85094.3,85026.1,ns,,,,,,18,64,14,34,15,23
"sim/92",15877,44517.1,44482.2,ns,,,,,,8,30,8,19,8,12
"sim/93",10635,66304.6,66244.3,ns,,,,,,17,73,9,21,9,21
"sim/94",2736,257720,257513,ns,,,,,,32,225,12,38,12,35
"sim/95",23670,29765.1,29742.6,ns,,,,,,6,19,4,10,5,8
"sim/96",1290,545875,545347,ns,,,,,,40,390,17,76,19,42
"sim/97",1096,615764,615261,ns,,,,,,46,349,17,82,17,47
"sim/98",18634,37142.3,37113.6,ns,,,,,,11,33,7,17,8,13
"sim/99",12751,55471,55431.2,ns,,,,,,8,34,4,12,6,10
"babiak/0",910,779251,778422,ns,,,,,,17,65,3,40,13,18
"babiak/1",8284,85226.9,85158.1,ns,,,,,,6,18,1,8,4,7
"babiak/2",242,2.92527e+06,2.92215e+06,ns,,,,,,26,176,10,59,16,28
"babiak/3",2046,350045,349561,ns,,,,,,15,59,3,30,9,15
"babiak/4",622,1.13603e+06,1.1349e+06,ns,,,,,,26,117,9,48,16,28
"babiak/5",3583,197606,197410,ns,,,,,,9,31,1,15,7,11
"babiak/6",4096,169529,169376,ns,,,,,,9,33,2,12,5,10
"babiak/7",27,2.47824e+07,2.47535e+07,ns,,,,,,85,812,41,217,51,87
"babiak/8",1583,437497,437063,ns,,,,,,16,65,4,24,10,18
"babiak/9",1385,465882,465441,ns,,,,,,9,33,3,17,6,10
"babiak/10",617,1.1391e+06,1.13777e+06,ns,,,,,,10,37,4,22,8,11
"babiak/11",1398,506125,505609,ns,,,,,,12,44,2,26,11,15
"babiak/12",598,1.17742e+06,1.17613e+06,ns,,,,,,24,111,6,37,12,26
"babiak/13",502,1.40126e+06,1.3998e+06,ns,,,,,,22,82,10,49,21,28
"babiak/14",157,4.50443e+06,4.4993e+06,ns,,,,,,40,231,9,62,15,44
"babiak/15",1302,540376,539836,ns,,,,,,13,52,4,21,7,14
"babiak/16",67,1.00634e+07,1.00524e+07,ns,,,,,,33,274,21,163,28,34
"babiak/17",643,1.10288e+06,1.10161e+06,ns,,,,,,28,113,7,41,14,30
"babiak/18",268,2.62225e+06,2.61963e+06,ns,,,,,,31,164,12,52,19,36
"babiak/19",826,854905,854014,ns,,,,,,14,52,3,33,10,14
"babiak/20",2908,240525,240286,ns,,,,,,9,33,3,17,6,10
"babiak/21",2116,335493,335165,ns,,,,,,10,35,4,27,10,12
"babiak/22",249,2.83945e+06,2.83611e+06,ns,,,,,,27,110,8,67,17,30
"babiak/23",838,843607,842811,ns,,,,,,6,18,2,12,5,7
"babiak/24",9061,77662.3,77585.9,ns,,,,,,7,23,1,23,7,7
"babiak/25",3550,199026,198817,ns,,,,,,10,33,1,23,7,10
"babiak/26",2272,305992,305685,ns,,,,,,11,37,3,37,12,12
"babiak/27",9,7.28501e+07,7.27514e+07,ns,,,,,,80,828,56,812,80,80
"babiak/28",346,1.9942e+06,1.99236e+06,ns,,,,,,12,64,9,58,12,12
"babiak/29",50,1.40821e+07,1.40661e+07,ns,,,,,,48,373,30,207,36,48
"babiak/30",74,9.51235e+06,9.50072e+06,ns,,,,,,39,230,26,192,35,40
"babiak/31",90,7.8824e+06,7.87149e+06,ns,,,,,,30,304,16,271,28,30
"babiak/32",880,793372,792283,ns,,,,,,14,50,4,42,16,18
"babiak/33",2235,310768,310486,ns,,,,,,11,46,6,46,12,12
"babiak/34",552,1.23293e+06,1.2315e+06,ns,,,,,,21,89,12,54,19,23
"babiak/35",504,1.36326e+06,1.36182e+06,ns,,,,,,15,66,8,65,17,17
"babiak/36",238,2.95889e+06,2.9556e+06,ns,,,,,,31,128,18,93,28,32
"babiak/37",7325,94828.2,94740.1,ns,,,,,,7,22,3,22,9,9
"babiak/38",228,3.10072e+06,3.09747e+06,ns,,,,,,15,62,10,59,17,17
"babiak/39",182,3.81775e+06,3.81396e+06,ns,,,,,,23,133,14,88,22,25
"babiak/40",44,1.62589e+07,1.62402e+07,ns,,,,,,56,545,36,237,40,57
"babiak/41",36,1.97054e+07,1.96836e+07,ns,,,,,,56,510,20,226,32,56
"babiak/42",272,2.60297e+06,2.60047e+06,ns,,,,,,35,226,9,70,19,38
"babiak/43",453,1.56066e+06,1.5591e+06,ns,,,,,,32,130,8,40,18,42
"babiak/44",329,2.14452e+06,2.14213e+06,ns,,,,,,25,119,11,77,20,26
"babiak/45",466,1.51769e+06,1.51576e+06,ns,,,,,,14,55,3,40,12,15
"babiak/46",178,3.95567e+06,3.95134e+06,ns,,,,,,24,152,3,87,15,24
"babiak/47",1265,559181,558579,ns,,,,,,10,35,4,27,10,12
"babiak/48",1434,491821,491334,ns,,,,,,7,24,3,16,6,8
"babiak/49",282,2.4984e+06,2.49574e+06,ns,,,,,,26,178,11,69,16,27
"babiak/50",722,961469,960526,ns,,,,,,17,66,9,45,17,20
"babiak/51",1921,368479,368048,ns,,,,,,11,37,4,25,11,15
"babiak/52",153,4.54272e+06,4.53808e+06,ns,,,,,,27,121,17,85,25,29
"babiak/53",157,4.52267e+06,4.51741e+06,ns,,,,,,25,123,14,115,27,27
"babiak/54",1773,389794,389434,ns,,,,,,13,60,3,16,6,14
"babiak/55",474,1.47295e+06,1.47144e+06,ns,,,,,,13,48,4,27,10,15
"babiak/56",59,1.18511e+07,1.18381e+07,ns,,,,,,50,364,22,127,30,51
"babiak/57",900,785293,784468,ns,,,,,,12,50,9,42,13,14
"babiak/58",406,1.73851e+06,1.73624e+06,ns,,,,,,26,87,10,51,22,34
"babiak/59",240,2.94122e+06,2.93821e+06,ns,,,,,,24,95,11,76,21,25
"babiak/60",61,1.14639e+07,1.14502e+07,ns,,,,,,41,306,31,194,36,42
"babiak/61",116,5.6891e+06,5.68274e+06,ns,,,,,,25,147,10,62,14,26
"babiak/62",127,5.55917e+06,5.55293e+06,ns,,,,,,25,144,20,121,33,33
"babiak/63",365,1.92923e+06,1.92719e+06,ns,,,,,,29,155,12,62,20,32
"babiak/64",600,1.18378e+06,1.18248e+06,ns,,,,,,14,68,11,51,11,14
"babiak/65",170,4.17214e+06,4.16722e+06,ns,,,,,,13,57,6,36,10,14
"babiak/66",6442,109773,109674,ns,,,,,,7,22,4,22,8,8
"babiak/67",701,1.00069e+06,999652,ns,,,,,,17,62,5,46,14,18
"babiak/68",445,1.60195e+06,1.60019e+06,ns,,,,,,26,105,6,54,18,28
"babiak/69",149,4.701e+06,4.69603e+06,ns,,,,,,21,132,15,91,19,22
"babiak/70",647,1.09592e+06,1.09471e+06,ns,,,,,,21,74,8,42,17,25
"babiak/71",239,2.95877e+06,2.95566e+06,ns,,,,,,18,99,13,75,21,21
"babiak/72",2109,336638,336257,ns,,,,,,5,19,3,15,6,8
"babiak/73",30,2.37398e+07,2.37132e+07,ns,,,,,,69,704,30,239,41,70
"babiak/74",696,1.00226e+06,1.00131e+06,ns,,,,,,10,37,4,21,7,11
"babiak/75",284,2.43466e+06,2.43208e+06,ns,,,,,,28,132,12,54,21,35
"babiak/76",3537,187913,187721,ns,,,,,,9,28,2,14,6,10
"babiak/77",257,2.65189e+06,2.64934e+06,ns,,,,,,17,81,8,52,15,19
"babiak/78",888,790586,789772,ns,,,,,,9,32,2,20,9,12
"babiak/79",43,1.48939e+07,1.48739e+07,ns,,,,,,91,831,7,43,16,94
"babiak/80",3269,216965,216761,ns,,,,,,6,19,2,13,6,8
"babiak/81",2051,344325,343735,ns,,,,,,10,34,2,28,9,11
"babiak/82",11,5.83723e+07,5.83036e+07,ns,,,,,,94,908,37,254,47,97
"babiak/83",323,2.19485e+06,2.19078e+06,ns,,,,,,18,83,11,56,19,22
"babiak/84",1520,476472,475979,ns,,,,,,12,49,4,23,8,14
"babiak/85",1693,416363,415940,ns,,,,,,7,29,3,17,7,11
"babiak/86",2227,315970,315617,ns,,,,,,12,54,3,18,7,14
"babiak/87",2995,235762,235523,ns,,,,,,11,47,3,47,13,13
"babiak/88",199,3.52594e+06,3.52208e+06,ns,,,,,,20,89,6,55,16,22
"babiak/89",98,7.19991e+06,7.19148e+06,ns,,,,,,34,212,7,143,29,37
"babiak/90",371,1.89425e+06,1.89246e+06,ns,,,,,,21,86,12,82,22,22
"babiak/91",598,1.1861e+06,1.18478e+06,ns,,,,,,18,64,6,52,19,23
"babiak/92",944,746644,745907,ns,,,,,,8,30,4,26,10,12
"babiak/93",1182,591762,591149,ns,,,,,,17,73,5,28,11,21
"babiak/94",316,2.19986e+06,2.19761e+06,ns,,,,,,32,225,10,58,13,35
"babiak/95",2767,256250,256005,ns,,,,,,6,19,2,13,6,8
"babiak/96",87,8.15282e+06,8.14333e+06,ns,,,,,,40,390,16,101,21,42
"babiak/97",99,7.08861e+06,7.08122e+06,ns,,,,,,46,349,16,109,19,47
"babiak/98",2539,277784,277499,ns,,,,,,11,33,3,21,9,13
"babiak/99",2540,277317,277042,ns,,,,,,8,34,2,34,10,10
