name,iterations,real_time,cpu_time,time_unit,bytes_per_second,items_per_second,label,error_occurred,error_message,"det","edges","red_det","red_edges","red_states","states"
"sim/0",47180,15128.6,15122.6,ns,,,,,,1,9,1,9,4,4
"sim/1",33048,21454.5,21447.6,ns,,,,,,5,16,5,16,9,9
"sim/2",21891,31938.4,31929.3,ns,,,,,,7,25,7,25,16,16
"sim/3",10000,50093.9,50078.4,ns,,,,,,9,36,9,36,25,25
"sim/4",9166,76966,76940,ns,,,,,,11,49,11,49,36,36
"sim/5",5761,118954,118919,ns,,,,,,13,64,13,64,49,49
"sim/6",3992,175343,175276,ns,,,,,,15,81,15,81,64,64
"sim/7",2697,255544,255462,ns,,,,,,17,100,17,100,81,81
"sim/8",1979,348167,348061,ns,,,,,,19,121,19,121,100,100
"sim/9",1469,474716,474554,ns,,,,,,21,144,21,144,121,121
"sim/10",1061,639386,639152,ns,,,,,,23,169,23,169,144,144
"sim/11",846,840564,840251,ns,,,,,,25,196,25,196,169,169
"babiak/0",63099,11182.7,11179.9,ns,,,,,,1,9,0,9,4,4
"babiak/1",8177,87412.5,87382.5,ns,,,,,,5,16,5,16,9,9
"babiak/2",3334,216590,215992,ns,,,,,,7,25,7,25,16,16
"babiak/3",1555,456179,455936,ns,,,,,,9,36,9,36,25,25
"babiak/4",741,952396,951856,ns,,,,,,11,49,11,49,36,36
"babiak/5",389,1.81631e+06,1.81527e+06,ns,,,,,,13,64,13,64,49,49
"babiak/6",168,4.2176e+06,4.21478e+06,ns,,,,,,15,81,15,81,64,64
"babiak/7",76,9.35752e+06,9.35151e+06,ns,,,,,,17,100,17,100,81,81
"babiak/8",35,1.95405e+07,1.95248e+07,ns,,,,,,19,121,19,121,100,100
"babiak/9",16,4.39597e+07,4.3916e+07,ns,,,,,,21,144,21,144,121,121
"babiak/10",10,6.59835e+07,6.59214e+07,ns,,,,,,23,169,23,169,144,144
"babiak/11",6,1.10186e+08,1.10077e+08,ns,,,,,,25,196,25,196,169,169
