name,iterations,real_time,cpu_time,time_unit,bytes_per_second,items_per_second,label,error_occurred,error_message,"det","edges","red_det","red_edges","red_states","states"
"sim/0",137806,4734.76,4733.45,ns,,,,,,0,2,0,2,2,2
"sim/1",100398,6999.35,6994.83,ns,,,,,,0,8,0,8,8,8
"sim/2",43024,16398,16393.5,ns,,,,,,0,24,0,24,24,24
"sim/3",11371,63347.9,63327.6,ns,,,,,,0,65,0,64,64,65
"sim/4",2630,268639,268559,ns,,,,,,0,162,0,160,160,162
"sim/5",542,1.31135e+06,1.31045e+06,ns,,,,,,0,387,0,384,384,387
"sim/6",99,6.71388e+06,6.71139e+06,ns,,,,,,0,900,0,896,896,900
"babiak/0",162185,4307.33,4304.65,ns,,,,,,0,2,0,2,2,2
"babiak/1",59733,11412.1,11409.3,ns,,,,,,0,8,0,8,8,8
"babiak/2",19188,35774.8,35765.2,ns,,,,,,0,24,0,24,24,24
"babiak/3",4589,151211,151113,ns,,,,,,0,65,0,64,64,65
"babiak/4",1241,563900,563474,ns,,,,,,0,162,0,161,161,162
"babiak/5",260,2.69227e+06,2.68872e+06,ns,,,,,,0,387,0,386,386,387
"babiak/6",38,1.8609e+07,1.85892e+07,ns,,,,,,0,900,0,899,899,900
