name,iterations,real_time,cpu_time,time_unit,bytes_per_second,items_per_second,label,error_occurred,error_message,"det","edges","red_det","red_edges","red_states","states"
"sim/0",6644,106780,106686,ns,,,,,,17,95,5,11,5,17
"sim/1",19098,36902.7,36873.3,ns,,,,,,9,21,8,19,8,9
"sim/2",6803,102370,102292,ns,,,,,,18,90,10,26,10,18
"sim/3",15092,46625.6,46589.8,ns,,,,,,13,41,8,19,8,13
"sim/4",15047,46146.7,46112.8,ns,,,,,,12,32,9,22,9,12
"sim/5",15824,43604.4,43570.9,ns,,,,,,11,33,8,19,8,11
"sim/6",15976,44689.1,44655.9,ns,,,,,,10,26,8,21,8,10
"sim/7",5896,119216,119112,ns,,,,,,21,60,15,45,19,23
"sim/8",16988,41532.7,41498.8,ns,,,,,,10,24,9,22,9,10
"sim/9",17786,39764,39733.4,ns,,,,,,8,21,7,19,8,9
"sim/10",17108,41150.4,41119.5,ns,,,,,,9,21,8,19,8,9
"sim/11",15252,46073.5,45921.2,ns,,,,,,11,33,8,19,8,11
"sim/12",8676,80302.6,80123.6,ns,,,,,,10,44,9,42,13,14
"sim/13",11966,60072.2,60022.2,ns,,,,,,13,38,8,28,12,15
"sim/14",13152,55263.7,55211.8,ns,,,,,,9,28,8,26,11,12
"sim/15",18216,39777.2,39735.6,ns,,,,,,7,18,6,16,7,8
"sim/16",11118,62999.7,62939.9,ns,,,,,,11,36,9,30,12,14
"sim/17",7801,93914.7,93303.6,ns,,,,,,16,56,12,38,14,18
"sim/18",14819,46577.7,46538.3,ns,,,,,,12,29,5,11,5,12
"sim/19",10757,63163.2,63110.9,ns,,,,,,13,50,5,11,5,13
"sim/20",19957,34619.4,34592.1,ns,,,,,,7,18,6,16,7,8
"sim/21",18769,36844.9,36816.8,ns,,,,,,8,20,7,18,8,9
"sim/22",2173,320945,320671,ns,,,,,,27,130,26,119,26,27
"sim/23",17801,41062.6,40665.7,ns,,,,,,7,18,6,16,7,8
"sim/24",22845,30490.4,30466.3,ns,,,,,,7,19,5,11,5,8
"sim/25",19351,36662.5,36636.9,ns,,,,,,9,24,7,16,7,10
"sim/26",14910,47423.9,47386.7,ns,,,,,,10,29,5,11,5,11
"sim/27",14792,46792.4,46759.7,ns,,,,,,9,29,6,20,10,13
"sim/28",28257,24213.9,24162.6,ns,,,,,,7,20,5,14,7,9
"sim/29",9030,80225.6,80193.5,ns,,,,,,16,53,7,22,10,21
"sim/30",5162,136348,136280,ns,,,,,,20,105,8,25,9,21
"sim/31",17731,39661,39648.9,ns,,,,,,11,34,5,13,6,13
"sim/32",15641,44072,44060.3,ns,,,,,,9,28,6,19,10,13
"sim/33",15742,43650.1,43636.1,ns,,,,,,8,24,7,22,9,10
"sim/34",5326,128184,128140,ns,,,,,,19,61,13,38,14,20
"sim/35",11562,60707.3,60688.5,ns,,,,,,12,40,7,19,8,13
"sim/36",2321,304923,304807,ns,,,,,,23,92,16,52,20,26
"sim/37",16414,42470.2,42458.5,ns,,,,,,7,24,6,22,9,10
"sim/38",7635,92943.6,92905.4,ns,,,,,,12,52,11,50,14,15
"sim/39",6967,101598,101559,ns,,,,,,14,52,9,27,10,15
"sim/40",4719,149768,149698,ns,,,,,,23,98,11,33,12,24
"sim/41",2702,261023,260917,ns,,,,,,34,176,13,46,14,35
"sim/42",6781,103481,103442,ns,,,,,,12,50,9,33,12,16
"sim/43",2471,287210,287106,ns,,,,,,17,69,13,56,21,25
"sim/44",6976,100869,100799,ns,,,,,,19,53,16,43,17,20
"sim/45",13180,49359.2,49344.4,ns,,,,,,10,26,5,11,5,10
"sim/46",10600,66662.9,66641.3,ns,,,,,,12,42,10,37,13,14
"sim/47",17673,40173.9,40160.6,ns,,,,,,8,21,7,19,8,9
"sim/48",19109,36683.3,36673,ns,,,,,,7,18,6,16,7,8
"sim/49",15839,43548.4,43536.8,ns,,,,,,10,29,8,22,9,11
"sim/50",9289,76143,76116.7,ns,,,,,,13,55,9,36,13,16
"sim/51",14505,47510.7,47497.4,ns,,,,,,9,26,8,24,11,12
"sim/52",12156,58022,58004.8,ns,,,,,,10,33,8,29,12,13
"sim/53",8290,85496.7,85465.8,ns,,,,,,13,48,12,46,14,15
"sim/54",14501,48515.4,48500.4,ns,,,,,,9,26,8,24,10,11
"sim/55",10000,50951.4,50932.8,ns,,,,,,11,28,10,26,10,11
"sim/56",5823,122074,122027,ns,,,,,,15,68,9,39,12,18
"sim/57",12545,55242.4,55227.4,ns,,,,,,10,29,5,14,7,12
"sim/58",2347,291558,291450,ns,,,,,,17,93,14,71,20,23
"sim/59",9824,71043.5,71019.7,ns,,,,,,14,56,7,24,10,17
"sim/60",7986,89465.7,89433.8,ns,,,,,,16,64,8,25,9,17
"sim/61",4343,163714,163642,ns,,,,,,15,70,12,49,16,19
"sim/62",14512,48565.8,48550.2,ns,,,,,,8,27,7,25,11,12
"sim/63",16081,43253.9,43241.5,ns,,,,,,9,27,7,20,9,12
"sim/64",11915,59470.8,59449.1,ns,,,,,,12,35,10,31,12,14
"sim/65",6296,112259,112218,ns,,,,,,13,60,12,58,14,15
"sim/66",14684,48108.5,48090.4,ns,,,,,,8,23,5,15,7,10
"sim/67",14496,47830.4,47817.3,ns,,,,,,10,26,5,11,5,11
"sim/68",14376,48215.9,48202.7,ns,,,,,,13,36,7,18,8,13
"sim/69",7896,88031.4,88001.2,ns,,,,,,14,54,12,42,13,15
"sim/70",5437,125883,125839,ns,,,,,,19,69,13,45,17,21
"sim/71",12123,58311.2,58293.5,ns,,,,,,11,40,8,29,11,13
"sim/72",18711,37747.4,37733.1,ns,,,,,,7,19,6,17,8,9
"sim/73",1694,413753,413584,ns,,,,,,23,125,20,103,35,38
"sim/74",18249,37680.5,37670.4,ns,,,,,,7,18,6,16,7,8
"sim/75",6824,102270,102233,ns,,,,,,17,76,10,29,13,21
"sim/76",14272,47387.3,47374.7,ns,,,,,,9,28,7,22,9,11
"sim/77",13518,52065.9,52024,ns,,,,,,9,29,8,27,11,12
"sim/78",16124,42523.7,42496.1,ns,,,,,,9,22,8,20,9,10
"sim/79",2149,322250,321959,ns,,,,,,28,145,14,43,14,28
"sim/80",19028,36303.4,36271,ns,,,,,,7,19,6,17,8,9
"sim/81",17668,39607.7,39577.3,ns,,,,,,8,24,6,17,8,11
"sim/82",2055,343051,342705,ns,,,,,,24,164,22,99,26,27
"sim/83",13448,52026.6,51987.5,ns,,,,,,11,34,9,27,10,12
"sim/84",15403,45640.4,45600.6,ns,,,,,,7,24,6,22,10,11
"sim/85",16783,42267,42233,ns,,,,,,9,23,8,21,9,10
"sim/86",15481,45444.8,45410.3,ns,,,,,,10,31,8,24,10,12
"sim/87",15554,44855.9,44819.6,ns,,,,,,7,25,6,23,10,11
"sim/88",11489,61367.2,61312,ns,,,,,,11,35,5,12,6,14
"sim/89",9193,75250.2,75182.4,ns,,,,,,12,51,9,34,12,15
"sim/90",13810,51764.9,51722.6,ns,,,,,,11,33,6,18,8,13
"sim/91",12284,54485.9,54438.1,ns,,,,,,11,38,5,12,6,15
"sim/92",14245,49000.2,48957.8,ns,,,,,,7,27,6,24,11,12
"sim/93",15264,46209.7,46170.1,ns,,,,,,11,27,10,23,10,12
"sim/94",13191,52941,52901.7,ns,,,,,,12,31,11,27,12,13
"sim/95",7888,85725.8,85638.1,ns,,,,,,9,28,5,16,8,12
"sim/96",7358,95866.5,95785.1,ns,,,,,,14,58,12,47,14,16
"sim/97",2216,317315,317001,ns,,,,,,25,116,22,79,25,31
"sim/98",15157,45763.2,45731.4,ns,,,,,,8,25,7,23,11,12
"sim/99",14924,46773.4,46741.3,ns,,,,,,7,26,6,21,10,12
"babiak/0",478,1.46809e+06,1.46636e+06,ns,,,,,,17,95,8,92,16,17
"babiak/1",4055,166756,166589,ns,,,,,,9,21,2,19,8,9
"babiak/2",481,1.4258e+06,1.42422e+06,ns,,,,,,18,90,4,86,16,18
"babiak/3",1694,410209,409789,ns,,,,,,13,41,4,37,12,13
"babiak/4",1818,380531,380143,ns,,,,,,12,32,5,28,11,12
"babiak/5",2270,309511,309202,ns,,,,,,11,33,2,31,10,11
"babiak/6",921,740729,739938,ns,,,,,,10,26,3,24,9,10
"babiak/7",516,1.36289e+06,1.36121e+06,ns,,,,,,21,60,10,46,19,23
"babiak/8",2520,279565,279248,ns,,,,,,10,24,3,22,9,10
"babiak/9",1268,555003,554422,ns,,,,,,8,21,2,19,8,9
"babiak/10",810,877336,876380,ns,,,,,,9,21,2,19,8,9
"babiak/11",1950,362231,361850,ns,,,,,,11,33,2,31,10,11
"babiak/12",303,2.31158e+06,2.3091e+06,ns,,,,,,10,44,3,38,13,14
"babiak/13",876,798414,797547,ns,,,,,,13,38,5,30,12,15
"babiak/14",441,1.58704e+06,1.58531e+06,ns,,,,,,9,28,2,26,11,12
"babiak/15",2105,331641,331281,ns,,,,,,7,18,2,16,7,8
"babiak/16",421,1.65094e+06,1.64915e+06,ns,,,,,,11,36,5,34,13,14
"babiak/17",793,856227,855363,ns,,,,,,16,56,7,38,14,18
"babiak/18",3451,202504,202287,ns,,,,,,12,29,4,19,8,12
"babiak/19",931,764119,763280,ns,,,,,,13,50,8,48,12,13
"babiak/20",3624,194321,194112,ns,,,,,,7,18,2,16,7,8
"babiak/21",3058,230904,230689,ns,,,,,,8,20,2,18,8,9
"babiak/22",172,4.17007e+06,4.16477e+06,ns,,,,,,27,130,22,128,26,27
"babiak/23",866,809266,808473,ns,,,,,,7,18,2,16,7,8
"babiak/24",5124,137266,137157,ns,,,,,,7,19,1,13,6,8
"babiak/25",3426,205042,204832,ns,,,,,,9,24,1,18,8,10
"babiak/26",1495,471770,471272,ns,,,,,,10,29,4,23,9,11
"babiak/27",712,983739,982700,ns,,,,,,9,29,2,23,11,13
"babiak/28",2652,261248,260982,ns,,,,,,7,20,1,14,7,9
"babiak/29",332,2.11282e+06,2.11003e+06,ns,,,,,,16,53,6,36,17,21
"babiak/30",451,1.52193e+06,1.52043e+06,ns,,,,,,20,105,7,47,12,21
"babiak/31",1318,532771,532220,ns,,,,,,11,34,2,19,8,13
"babiak/32",1268,555830,555147,ns,,,,,,9,28,4,26,12,13
"babiak/33",2350,301161,300855,ns,,,,,,8,24,1,15,7,10
"babiak/34",406,1.74237e+06,1.74058e+06,ns,,,,,,19,61,6,50,16,20
"babiak/35",839,846465,845553,ns,,,,,,12,40,4,27,10,13
"babiak/36",287,2.44156e+06,2.43884e+06,ns,,,,,,23,92,11,73,23,26
"babiak/37",1440,488274,487774,ns,,,,,,7,24,2,22,9,10
"babiak/38",230,3.12024e+06,3.11617e+06,ns,,,,,,12,52,2,50,14,15
"babiak/39",371,1.89656e+06,1.89435e+06,ns,,,,,,14,52,6,44,13,15
"babiak/40",406,1.75761e+06,1.7557e+06,ns,,,,,,23,98,7,48,15,24
"babiak/41",100,7.00492e+06,6.99717e+06,ns,,,,,,34,176,12,77,21,35
"babiak/42",411,1.69628e+06,1.69446e+06,ns,,,,,,12,50,4,36,13,16
"babiak/43",387,1.76243e+06,1.76052e+06,ns,,,,,,17,69,4,67,24,25
"babiak/44",546,1.29845e+06,1.29703e+06,ns,,,,,,19,53,8,43,17,20
"babiak/45",941,754908,754090,ns,,,,,,10,26,5,24,9,10
"babiak/46",606,1.16215e+06,1.16097e+06,ns,,,,,,12,42,5,39,13,14
"babiak/47",1321,529283,528700,ns,,,,,,8,21,2,19,8,9
"babiak/48",1558,449038,448618,ns,,,,,,7,18,2,16,7,8
"babiak/49",1931,366770,366402,ns,,,,,,10,29,4,22,9,11
"babiak/50",662,1.06344e+06,1.06211e+06,ns,,,,,,13,55,5,40,13,16
"babiak/51",1617,437924,437431,ns,,,,,,9,26,2,24,11,12
"babiak/52",325,2.15485e+06,2.15272e+06,ns,,,,,,10,33,3,31,12,13
"babiak/53",316,2.23619e+06,2.2335e+06,ns,,,,,,13,48,7,46,14,15
"babiak/54",950,743778,742966,ns,,,,,,9,26,2,24,10,11
"babiak/55",863,787119,786189,ns,,,,,,11,28,4,26,10,11
"babiak/56",391,1.76617e+06,1.76427e+06,ns,,,,,,15,68,5,43,13,18
"babiak/57",1341,526440,525818,ns,,,,,,10,29,3,27,11,12
"babiak/58",226,3.14401e+06,3.14017e+06,ns,,,,,,17,93,6,91,22,23
"babiak/59",321,2.19287e+06,2.19037e+06,ns,,,,,,14,56,3,28,11,17
"babiak/60",321,2.21797e+06,2.21555e+06,ns,,,,,,16,64,6,34,11,17
"babiak/61",171,4.12478e+06,4.11936e+06,ns,,,,,,15,70,6,55,16,19
"babiak/62",1422,485922,485407,ns,,,,,,8,27,3,25,11,12
"babiak/63",984,709985,709278,ns,,,,,,9,27,4,25,11,12
"babiak/64",476,1.49225e+06,1.49051e+06,ns,,,,,,12,35,2,31,12,14
"babiak/65",35,2.04567e+07,2.04334e+07,ns,,,,,,13,60,6,58,14,15
"babiak/66",2069,342751,342386,ns,,,,,,8,23,2,21,9,10
"babiak/67",1952,361995,361591,ns,,,,,,10,26,4,24,10,11
"babiak/68",1193,590932,590301,ns,,,,,,13,36,8,34,12,13
"babiak/69",291,2.42091e+06,2.4183e+06,ns,,,,,,14,54,6,52,14,15
"babiak/70",360,1.99219e+06,1.98948e+06,ns,,,,,,19,69,12,60,19,21
"babiak/71",760,931206,930235,ns,,,,,,11,40,4,31,11,13
"babiak/72",2789,253962,253714,ns,,,,,,7,19,2,17,8,9
"babiak/73",71,9.7744e+06,9.76298e+06,ns,,,,,,23,125,15,103,35,38
"babiak/74",2425,285150,284901,ns,,,,,,7,18,2,16,7,8
"babiak/75",370,1.84162e+06,1.83958e+06,ns,,,,,,17,76,6,29,13,21
"babiak/76",789,890658,889713,ns,,,,,,9,28,2,22,9,11
"babiak/77",1376,511701,511145,ns,,,,,,9,29,3,27,11,12
"babiak/78",1076,658367,657607,ns,,,,,,9,22,2,20,9,10
"babiak/79",269,2.63844e+06,2.63544e+06,ns,,,,,,28,145,18,96,24,28
"babiak/80",2397,293064,292771,ns,,,,,,7,19,2,17,8,9
"babiak/81",1593,444806,444301,ns,,,,,,8,24,2,20,9,11
"babiak/82",41,1.73698e+07,1.7349e+07,ns,,,,,,24,164,14,140,26,27
"babiak/83",731,965300,964208,ns,,,,,,11,34,6,32,11,12
"babiak/84",1011,698047,697312,ns,,,,,,7,24,2,22,10,11
"babiak/85",1771,394297,393917,ns,,,,,,9,23,2,21,9,10
"babiak/86",1523,467995,467471,ns,,,,,,10,31,4,24,10,12
"babiak/87",1985,354053,353697,ns,,,,,,7,25,1,19,9,11
"babiak/88",94,7.44054e+06,7.43221e+06,ns,,,,,,11,35,6,33,13,14
"babiak/89",368,1.92638e+06,1.92416e+06,ns,,,,,,12,51,6,41,13,15
"babiak/90",1550,453299,452828,ns,,,,,,11,33,4,23,10,13
"babiak/91",711,987229,986069,ns,,,,,,11,38,3,26,12,15
"babiak/92",1189,572560,571939,ns,,,,,,7,27,2,24,11,12
"babiak/93",2021,343756,343355,ns,,,,,,11,27,4,23,10,12
"babiak/94",1339,525253,524697,ns,,,,,,12,31,5,27,12,13
"babiak/95",808,875835,874921,ns,,,,,,9,28,2,26,11,12
"babiak/96",324,2.18484e+06,2.18226e+06,ns,,,,,,14,58,7,47,14,16
"babiak/97",76,9.24298e+06,9.23199e+06,ns,,,,,,25,116,18,102,30,31
"babiak/98",2074,341071,340688,ns,,,,,,8,25,3,23,11,12
"babiak/99",1266,554274,553698,ns,,,,,,7,26,1,17,9,12
