name,iterations,real_time,cpu_time,time_unit,bytes_per_second,items_per_second,label,error_occurred,error_message,"det","edges","red_det","red_edges","red_states","states"
"sim/0",7543,93498.6,93464.7,ns,,,,,,17,65,7,16,7,18
"sim/1",30318,22731.5,22725.1,ns,,,,,,6,18,3,6,3,7
"sim/2",2862,242075,241984,ns,,,,,,26,176,8,21,8,28
"sim/3",13211,53313.1,53292.7,ns,,,,,,15,59,7,18,7,15
"sim/4",5027,137269,137218,ns,,,,,,26,117,10,22,10,28
"sim/5",21660,32463.7,32453.2,ns,,,,,,9,31,5,11,5,11
"sim/6",21721,32437.4,32428.2,ns,,,,,,9,33,4,9,4,10
"sim/7",310,2.26794e+06,2.2669e+06,ns,,,,,,85,812,25,90,28,87
"sim/8",12232,57822.1,57801.2,ns,,,,,,16,65,8,18,8,18
"sim/9",20491,34402.6,34390.9,ns,,,,,,9,33,5,13,5,10
"sim/10",16875,41707.1,41694.7,ns,,,,,,10,37,6,16,6,11
"sim/11",14270,48746,48731.3,ns,,,,,,12,44,8,19,8,15
"sim/12",5208,134052,134008,ns,,,,,,24,111,10,29,10,26
"sim/13",4198,167795,167732,ns,,,,,,22,82,9,25,12,28
"sim/14",1706,407396,407248,ns,,,,,,40,231,12,45,12,44
"sim/15",15524,44555.7,44542.2,ns,,,,,,13,52,5,12,5,14
"sim/16",1541,453906,453725,ns,,,,,,33,274,24,119,25,34
"sim/17",3863,182040,181975,ns,,,,,,28,113,11,27,11,30
"sim/18",2708,258395,258296,ns,,,,,,31,164,4,9,4,36
"sim/19",10067,68285.4,68262.1,ns,,,,,,14,52,7,18,7,14
"sim/20",22965,30211.1,30202.6,ns,,,,,,9,33,4,9,4,10
"sim/21",16833,41050.6,41038.6,ns,,,,,,10,35,8,20,8,12
"sim/22",3114,219573,219492,ns,,,,,,27,110,7,17,7,30
"sim/23",24406,27836.6,27828.6,ns,,,,,,6,18,4,9,4,7
"sim/24",23707,28963.5,28955.2,ns,,,,,,7,23,5,11,5,7
"sim/25",20389,33757.2,33747.5,ns,,,,,,10,33,5,11,5,10
"sim/26",15539,45211.3,45195.5,ns,,,,,,11,37,9,22,9,12
"sim/27",352,2.00059e+06,1.99969e+06,ns,,,,,,80,828,63,434,64,80
"sim/28",9845,70989.8,70965.9,ns,,,,,,12,64,9,32,9,12
"sim/29",1057,668413,668115,ns,,,,,,48,373,29,133,29,48
"sim/30",945,742271,741971,ns,,,,,,39,230,17,68,18,40
"sim/31",1477,479642,479443,ns,,,,,,30,304,6,16,6,30
"sim/32",11581,60716.7,60696.2,ns,,,,,,14,50,10,27,13,18
"sim/33",9007,78077.1,78048.3,ns,,,,,,11,46,5,12,5,12
"sim/34",3829,183310,183243,ns,,,,,,21,89,13,39,14,23
"sim/35",4694,150254,150189,ns,,,,,,15,66,8,19,8,17
"sim/36",3148,222096,222017,ns,,,,,,31,128,21,60,22,32
"sim/37",19200,36494.5,36482.8,ns,,,,,,7,22,7,16,7,9
"sim/38",7033,99051.1,99017.7,ns,,,,,,15,62,13,41,13,17
"sim/39",3291,204853,204781,ns,,,,,,23,133,18,67,19,25
"sim/40",736,948706,948296,ns,,,,,,56,545,14,53,15,57
"sim/41",695,1.01029e+06,1.00985e+06,ns,,,,,,56,510,18,86,20,56
"sim/42",2373,298388,298269,ns,,,,,,35,226,15,52,15,38
"sim/43",4208,169510,169449,ns,,,,,,32,130,12,33,16,42
"sim/44",3828,185445,185370,ns,,,,,,25,119,16,52,16,26
"sim/45",8538,84728.6,84695.3,ns,,,,,,14,55,9,24,9,15
"sim/46",4074,172506,172443,ns,,,,,,24,152,12,51,12,24
"sim/47",16463,42479.3,42466.8,ns,,,,,,10,35,8,20,8,12
"sim/48",22397,31637.6,31626,ns,,,,,,7,24,5,12,5,8
"sim/49",2674,263594,263495,ns,,,,,,26,178,9,28,9,27
"sim/50",6874,102165,102127,ns,,,,,,17,66,8,18,8,20
"sim/51",15574,44876.7,44863.7,ns,,,,,,11,37,8,19,9,15
"sim/52",2028,345481,345346,ns,,,,,,27,121,16,50,16,29
"sim/53",1786,393642,393492,ns,,,,,,25,123,16,56,17,27
"sim/54",10000,50504.4,50485.4,ns,,,,,,13,60,5,12,5,14
"sim/55",11858,58357.2,58338.9,ns,,,,,,13,48,8,20,8,15
"sim/56",912,768001,767700,ns,,,,,,50,364,25,109,26,51
"sim/57",13437,52279.9,52260.9,ns,,,,,,12,50,4,9,5,14
"sim/58",4663,152521,152468,ns,,,,,,26,87,18,39,18,34
"sim/59",3323,211819,211738,ns,,,,,,24,95,16,47,16,25
"sim/60",1154,605488,605264,ns,,,,,,41,306,12,44,13,42
"sim/61",3862,177315,177253,ns,,,,,,25,147,12,47,12,26
"sim/62",1488,466538,466358,ns,,,,,,25,144,24,108,32,33
"sim/63",2927,238754,238666,ns,,,,,,29,155,13,43,14,32
"sim/64",11267,59264.5,59244.6,ns,,,,,,14,68,4,9,4,14
"sim/65",10203,69927.6,69905.2,ns,,,,,,13,57,8,26,8,14
"sim/66",20562,34165.9,34155.5,ns,,,,,,7,22,6,16,6,8
"sim/67",9659,72095.3,72071.3,ns,,,,,,17,62,11,29,11,18
"sim/68",4172,168642,168578,ns,,,,,,26,105,14,35,14,28
"sim/69",2373,295301,295198,ns,,,,,,21,132,11,38,11,22
"sim/70",6372,109698,109657,ns,,,,,,21,74,14,35,15,25
"sim/71",3964,179282,179212,ns,,,,,,18,99,8,28,8,21
"sim/72",23728,29133.8,29125.3,ns,,,,,,5,19,5,11,5,8
"sim/73",562,1.21835e+06,1.21782e+06,ns,,,,,,69,704,28,152,28,70
"sim/74",18736,37015.1,37004.1,ns,,,,,,10,37,5,12,5,11
"sim/75",2577,266395,266299,ns,,,,,,28,132,12,39,16,35
"sim/76",21147,32873.4,32863.6,ns,,,,,,9,28,5,11,5,10
"sim/77",7139,94760.7,94729.9,ns,,,,,,17,81,12,38,12,19
"sim/78",18133,38301.1,38290.3,ns,,,,,,9,32,6,15,7,12
"sim/79",481,1.43446e+06,1.4338e+06,ns,,,,,,91,831,12,28,12,94
"sim/80",26224,26636.5,26628.8,ns,,,,,,6,19,4,10,5,8
"sim/81",18324,37642.9,37632.2,ns,,,,,,10,34,6,16,7,11
"sim/82",293,2.34621e+06,2.34515e+06,ns,,,,,,94,908,6,16,7,97
"sim/83",5069,139136,139077,ns,,,,,,18,83,9,27,10,22
"sim/84",14602,48229.3,48214.2,ns,,,,,,12,49,6,18,7,14
"sim/85",20203,34171.9,34162,ns,,,,,,7,29,5,13,6,11
"sim/86",20885,33754.5,33742.6,ns,,,,,,12,54,5,18,7,14
"sim/87",8753,76277.8,76253.2,ns,,,,,,11,47,5,13,6,13
"sim/88",6036,116331,116284,ns,,,,,,20,89,12,35,13,22
"sim/89",1952,355849,355721,ns,,,,,,34,212,23,101,24,37
"sim/90",4451,159054,158997,ns,,,,,,21,86,17,54,18,22
"sim/91",8556,84571.2,84536.3,ns,,,,,,18,64,14,34,15,23
"sim/92",16004,44149,44136,ns,,,,,,8,30,8,19,8,12
"sim/93",10894,64851.8,64828.9,ns,,,,,,17,73,9,21,9,21
"sim/94",2740,256986,256876,ns,,,,,,32,225,12,38,12,35
"sim/95",23838,29611.7,29601.2,ns,,,,,,6,19,4,10,5,8
"sim/96",1283,548452,548223,ns,,,,,,40,390,17,76,19,42
"sim/97",1131,614843,614609,ns,,,,,,46,349,17,82,17,47
"sim/98",18664,37529.6,37518.5,ns,,,,,,11,33,7,17,8,13
"sim/99",12993,54310.4,54294.6,ns,,,,,,8,34,4,12,6,10
"babiak/0",905,781452,780962,ns,,,,,,17,65,3,40,13,18
"babiak/1",8293,84871.7,84842.3,ns,,,,,,6,18,1,8,4,7
"babiak/2",242,2.94041e+06,2.93856e+06,ns,,,,,,26,176,10,59,16,28
"babiak/3",2037,348763,348567,ns,,,,,,15,59,3,30,9,15
"babiak/4",619,1.1639e+06,1.16305e+06,ns,,,,,,26,117,9,48,16,28
"babiak/5",3543,207057,206939,ns,,,,,,9,31,1,15,7,11
"babiak/6",4112,171462,171381,ns,,,,,,9,33,2,12,5,10
"babiak/7",28,2.48632e+07,2.48476e+07,ns,,,,,,85,812,41,217,51,87
"babiak/8",1603,441167,440902,ns,,,,,,16,65,4,24,10,18
"babiak/9",1489,472423,472168,ns,,,,,,9,33,3,17,6,10
"babiak/10",617,1.14336e+06,1.14267e+06,ns,,,,,,10,37,4,22,8,11
"babiak/11",1378,508403,508111,ns,,,,,,12,44,2,26,11,15
"babiak/12",595,1.18398e+06,1.18325e+06,ns,,,,,,24,111,6,37,12,26
"babiak/13",497,1.40186e+06,1.40102e+06,ns,,,,,,22,82,10,49,21,28
"babiak/14",155,4.53655e+06,4.53356e+06,ns,,,,,,40,231,9,62,15,44
"babiak/15",1291,543125,542802,ns,,,,,,13,52,4,21,7,14
"babiak/16",68,1.01824e+07,1.01754e+07,ns,,,,,,33,274,21,163,28,34
"babiak/17",636,1.10492e+06,1.10426e+06,ns,,,,,,28,113,7,41,14,30
"babiak/18",267,2.63154e+06,2.62999e+06,ns,,,,,,31,164,12,52,19,36
"babiak/19",822,870734,870135,ns,,,,,,14,52,3,33,10,14
"babiak/20",2893,241857,241730,ns,,,,,,9,33,3,17,6,10
"babiak/21",2085,340016,339805,ns,,,,,,10,35,4,27,10,12
"babiak/22",247,2.84851e+06,2.84664e+06,ns,,,,,,27,110,8,67,17,30
"babiak/23",834,845417,844929,ns,,,,,,6,18,2,12,5,7
"babiak/24",9105,77073.9,77045.5,ns,,,,,,7,23,1,23,7,7
"babiak/25",3490,199091,198994,ns,,,,,,10,33,1,23,7,10
"babiak/26",2225,308201,308021,ns,,,,,,11,37,3,37,12,12
"babiak/27",9,7.30487e+07,7.2995e+07,ns,,,,,,80,828,56,812,80,80
"babiak/28",349,2.01336e+06,2.01203e+06,ns,,,,,,12,64,9,58,12,12
"babiak/29",50,1.40968e+07,1.40885e+07,ns,,,,,,48,373,30,207,36,48
"babiak/30",70,9.56168e+06,9.55546e+06,ns,,,,,,39,230,26,192,35,40
"babiak/31",88,7.90643e+06,7.90104e+06,ns,,,,,,30,304,16,271,28,30
"babiak/32",850,798342,797869,ns,,,,,,14,50,4,42,16,18
"babiak/33",2186,316133,315964,ns,,,,,,11,46,6,46,12,12
"babiak/34",555,1.24575e+06,1.24493e+06,ns,,,,,,21,89,12,54,19,23
"babiak/35",514,1.38039e+06,1.37953e+06,ns,,,,,,15,66,8,65,17,17
"babiak/36",239,2.99755e+06,2.99565e+06,ns,,,,,,31,128,18,93,28,32
"babiak/37",7519,94768.6,94726.5,ns,,,,,,7,22,3,22,9,9
"babiak/38",226,3.11341e+06,3.11157e+06,ns,,,,,,15,62,10,59,17,17
"babiak/39",183,3.85776e+06,3.85529e+06,ns,,,,,,23,133,14,88,22,25
"babiak/40",43,1.6188e+07,1.61774e+07,ns,,,,,,56,545,36,237,40,57
"babiak/41",36,1.97882e+07,1.97742e+07,ns,,,,,,56,510,20,226,32,56
"babiak/42",271,2.6085e+06,2.60694e+06,ns,,,,,,35,226,9,70,19,38
"babiak/43",449,1.57503e+06,1.57406e+06,ns,,,,,,32,130,8,40,18,42
"babiak/44",328,2.14848e+06,2.14715e+06,ns,,,,,,25,119,11,77,20,26
"babiak/45",462,1.52749e+06,1.52658e+06,ns,,,,,,14,55,3,40,12,15
"babiak/46",177,3.98369e+06,3.98108e+06,ns,,,,,,24,152,3,87,15,24
"babiak/47",1255,563053,562698,ns,,,,,,10,35,4,27,10,12
"babiak/48",1339,492059,491805,ns,,,,,,7,24,3,16,6,8
"babiak/49",281,2.49054e+06,2.48902e+06,ns,,,,,,26,178,11,69,16,27
"babiak/50",728,966280,965703,ns,,,,,,17,66,9,45,17,20
"babiak/51",1901,370043,369835,ns,,,,,,11,37,4,25,11,15
"babiak/52",150,4.50969e+06,4.507e+06,ns,,,,,,27,121,17,85,25,29
"babiak/53",154,4.53044e+06,4.52752e+06,ns,,,,,,25,123,14,115,27,27
"babiak/54",1782,395631,395408,ns,,,,,,13,60,3,16,6,14
"babiak/55",479,1.46857e+06,1.46766e+06,ns,,,,,,13,48,4,27,10,15
"babiak/56",59,1.17227e+07,1.17152e+07,ns,,,,,,50,364,22,127,30,51
"babiak/57",892,783707,783241,ns,,,,,,12,50,9,42,13,14
"babiak/58",404,1.74149e+06,1.74042e+06,ns,,,,,,26,87,10,51,22,34
"babiak/59",240,2.93489e+06,2.93309e+06,ns,,,,,,24,95,11,76,21,25
"babiak/60",61,1.16254e+07,1.16169e+07,ns,,,,,,41,306,31,194,36,42
"babiak/61",120,5.76862e+06,5.76486e+06,ns,,,,,,25,147,10,62,14,26
"babiak/62",126,5.7167e+06,5.71213e+06,ns,,,,,,25,144,20,121,33,33
"babiak/63",357,1.93253e+06,1.93139e+06,ns,,,,,,29,155,12,62,20,32
"babiak/64",583,1.18486e+06,1.18416e+06,ns,,,,,,14,68,11,51,11,14
"babiak/65",167,4.12451e+06,4.12212e+06,ns,,,,,,13,57,6,36,10,14
"babiak/66",6329,110170,110120,ns,,,,,,7,22,4,22,8,8
"babiak/67",697,1.00614e+06,1.00554e+06,ns,,,,,,17,62,5,46,14,18
"babiak/68",434,1.6161e+06,1.61512e+06,ns,,,,,,26,105,6,54,18,28
"babiak/69",150,4.71227e+06,4.70924e+06,ns,,,,,,21,132,15,91,19,22
"babiak/70",645,1.09668e+06,1.09602e+06,ns,,,,,,21,74,8,42,17,25
"babiak/71",238,2.97319e+06,2.97145e+06,ns,,,,,,18,99,13,75,21,21
"babiak/72",2108,335782,335610,ns,,,,,,5,19,3,15,6,8
"babiak/73",30,2.37139e+07,2.36984e+07,ns,,,,,,69,704,30,239,41,70
"babiak/74",696,1.0099e+06,1.00931e+06,ns,,,,,,10,37,4,21,7,11
"babiak/75",287,2.47111e+06,2.46958e+06,ns,,,,,,28,132,12,54,21,35
"babiak/76",3702,190666,190572,ns,,,,,,9,28,2,14,6,10
"babiak/77",263,2.69466e+06,2.69276e+06,ns,,,,,,17,81,8,52,15,19
"babiak/78",883,790559,790093,ns,,,,,,9,32,2,20,9,12
"babiak/79",47,1.45465e+07,1.45375e+07,ns,,,,,,91,831,7,43,16,94
"babiak/80",3180,213440,213336,ns,,,,,,6,19,2,13,6,8
"babiak/81",2042,339952,339764,ns,,,,,,10,34,2,28,9,11
"babiak/82",11,5.81872e+07,5.81454e+07,ns,,,,,,94,908,37,254,47,97
"babiak/83",319,2.20489e+06,2.20353e+06,ns,,,,,,18,83,11,56,19,22
"babiak/84",1465,468876,468609,ns,,,,,,12,49,4,23,8,14
"babiak/85",1661,419798,419573,ns,,,,,,7,29,3,17,7,11
"babiak/86",2166,318741,318564,ns,,,,,,12,54,3,18,7,14
"babiak/87",2895,236694,236566,ns,,,,,,11,47,3,47,13,13
"babiak/88",196,3.53945e+06,3.53724e+06,ns,,,,,,20,89,6,55,16,22
"babiak/89",93,7.15868e+06,7.1543e+06,ns,,,,,,34,212,7,143,29,37
"babiak/90",360,1.91534e+06,1.91421e+06,ns,,,,,,21,86,12,82,22,22
"babiak/91",590,1.19506e+06,1.19433e+06,ns,,,,,,18,64,6,52,19,23
"babiak/92",923,766252,765711,ns,,,,,,8,30,4,26,10,12
"babiak/93",1178,598485,598140,ns,,,,,,17,73,5,28,11,21
"babiak/94",318,2.21664e+06,2.21532e+06,ns,,,,,,32,225,10,58,13,35
"babiak/95",2701,257358,257226,ns,,,,,,6,19,2,13,6,8
"babiak/96",82,8.11354e+06,8.10895e+06,ns,,,,,,40,390,16,101,21,42
"babiak/97",98,7.20671e+06,7.20173e+06,ns,,,,,,46,349,16,109,19,47
"babiak/98",2490,282152,281977,ns,,,,,,11,33,3,21,9,13
"babiak/99",2503,281786,281628,ns,,,,,,8,34,2,34,10,10
