name,iterations,real_time,cpu_time,time_unit,bytes_per_second,items_per_second,label,error_occurred,error_message,"det","edges","red_det","red_edges","red_states","states"
"sim/0",40590,17547.4,17532.1,ns,,,,,,4,11,4,11,5,5
"sim/1",71471,9856.75,9849.55,ns,,,,,,1,3,1,3,2,2
"sim/2",26727,26370.7,26348.7,ns,,,,,,6,30,4,17,6,8
"sim/3",47135,14895.9,14883.6,ns,,,,,,5,13,3,6,3,5
"sim/4",30409,23167.5,23148,ns,,,,,,7,23,4,14,7,9
"sim/5",55763,12322.3,12311.2,ns,,,,,,1,5,1,5,3,3
"sim/6",53863,12959.5,12950.2,ns,,,,,,2,6,1,3,2,3
"sim/7",3818,184129,183944,ns,,,,,,25,158,13,41,15,27
"sim/8",42941,16402.4,16388.8,ns,,,,,,4,13,2,9,5,6
"sim/9",46614,15177.4,15165.2,ns,,,,,,1,6,1,6,3,3
"sim/10",44149,16031.9,16018.7,ns,,,,,,1,6,1,6,3,3
"sim/11",46179,15331.8,15316,ns,,,,,,1,7,1,7,4,4
"sim/12",26113,26885.1,26860.7,ns,,,,,,6,21,5,18,7,8
"sim/13",20017,35307.8,35275.9,ns,,,,,,4,16,3,15,9,9
"sim/14",10566,65037.6,64977.6,ns,,,,,,7,45,5,30,9,14
"sim/15",38185,18008.7,17994.3,ns,,,,,,2,11,1,8,4,5
"sim/16",12082,57977.7,57926.9,ns,,,,,,7,53,5,29,8,10
"sim/17",16240,42959.7,42924.2,ns,,,,,,6,23,3,13,7,10
"sim/18",14565,47631.9,47591.4,ns,,,,,,6,30,3,15,7,11
"sim/19",44224,15752.8,15739.7,ns,,,,,,4,9,4,9,4,4
"sim/20",52115,12942.5,12932,ns,,,,,,1,6,1,6,3,3
"sim/21",50376,14025.6,14013,ns,,,,,,1,7,1,7,4,4
"sim/22",17556,39205.5,39174,ns,,,,,,7,19,5,17,8,9
"sim/23",95068,7396.65,7389.61,ns,,,,,,0,3,0,3,2,2
"sim/24",72134,9792.44,9784.29,ns,,,,,,2,4,2,4,2,2
"sim/25",54059,13092.3,13081.7,ns,,,,,,3,6,3,6,3,3
"sim/26",50905,13871.2,13859.2,ns,,,,,,3,7,3,7,4,4
"sim/27",4049,172102,171954,ns,,,,,,20,107,20,105,20,20
"sim/28",46138,14924.9,14912.9,ns,,,,,,3,8,3,8,3,3
"sim/29",10430,67441.2,67377.8,ns,,,,,,14,68,10,36,10,14
"sim/30",16563,42498.3,42461.7,ns,,,,,,11,42,11,42,12,12
"sim/31",16185,43102.9,43070.3,ns,,,,,,8,48,8,48,8,8
"sim/32",39557,17198.4,17184.5,ns,,,,,,3,12,3,12,8,8
"sim/33",46215,14872.3,14857.9,ns,,,,,,2,6,2,6,3,3
"sim/34",31664,22275.2,22257.9,ns,,,,,,5,16,5,16,7,7
"sim/35",41835,16859.8,16846,ns,,,,,,3,11,3,11,5,5
"sim/36",23980,29220.7,29196.4,ns,,,,,,9,24,9,24,10,10
"sim/37",99751,7077.57,7072.42,ns,,,,,,0,4,0,4,3,3
"sim/38",34452,20498,20481.4,ns,,,,,,2,11,2,11,5,5
"sim/39",23314,31208.7,31173.6,ns,,,,,,4,28,3,21,7,8
"sim/40",6294,110894,110795,ns,,,,,,16,111,12,61,13,17
"sim/41",8363,83360.4,83284.8,ns,,,,,,16,90,6,20,6,16
"sim/42",20136,34699,34666.1,ns,,,,,,8,43,4,20,8,12
"sim/43",22629,30661,30635.4,ns,,,,,,8,26,6,23,13,14
"sim/44",28070,25113,25094.6,ns,,,,,,7,21,6,16,7,8
"sim/45",36398,19126.8,19111.8,ns,,,,,,4,11,4,11,5,5
"sim/46",16206,43445.9,43403.6,ns,,,,,,8,30,6,22,7,8
"sim/47",44966,15725.5,15713.6,ns,,,,,,1,7,1,7,4,4
"sim/48",81805,8094.13,8087.72,ns,,,,,,0,5,0,5,3,3
"sim/49",11497,61639.5,61590.9,ns,,,,,,6,36,4,22,7,9
"sim/50",38259,18348.8,18333.3,ns,,,,,,3,12,3,9,5,6
"sim/51",45752,15428.3,15415.9,ns,,,,,,1,7,1,7,5,5
"sim/52",21812,32294.8,32267.5,ns,,,,,,6,23,6,23,9,9
"sim/53",23664,29868.1,29841.3,ns,,,,,,5,23,5,23,8,8
"sim/54",37710,18787.7,18772.3,ns,,,,,,4,13,3,9,4,5
"sim/55",35024,20028.8,20013.1,ns,,,,,,2,10,2,10,5,5
"sim/56",6627,105797,105704,ns,,,,,,11,67,6,33,10,15
"sim/57",40803,17244.9,17228.7,ns,,,,,,3,9,3,9,5,5
"sim/58",27477,24937.1,24917.9,ns,,,,,,4,15,4,15,10,10
"sim/59",25122,27679.9,27660.1,ns,,,,,,6,19,6,19,8,8
"sim/60",13131,53005,52951.3,ns,,,,,,11,61,10,45,11,12
"sim/61",14205,48845.5,48805,ns,,,,,,4,28,3,26,8,8
"sim/62",21948,31794,31767.1,ns,,,,,,4,24,4,24,10,10
"sim/63",21645,32113,32104,ns,,,,,,8,30,8,26,10,10
"sim/64",23105,30627,30618.1,ns,,,,,,5,15,5,14,5,5
"sim/65",32685,21468.2,21462.3,ns,,,,,,2,10,2,10,4,4
"sim/66",65695,10509.5,10506.6,ns,,,,,,1,3,1,3,2,2
"sim/67",36058,18872.2,18867.3,ns,,,,,,3,12,3,12,6,6
"sim/68",29081,23985.1,23978.4,ns,,,,,,6,20,5,16,8,9
"sim/69",28249,24475.9,24467.3,ns,,,,,,5,21,4,15,5,6
"sim/70",31730,22090.6,22084.3,ns,,,,,,5,14,5,14,8,8
"sim/71",26020,27079.6,27071.8,ns,,,,,,4,20,4,20,7,7
"sim/72",98549,7203.41,7201.08,ns,,,,,,0,4,0,4,3,3
"sim/73",7588,93300.8,93265.2,ns,,,,,,17,121,6,33,9,20
"sim/74",41274,17017.8,17013,ns,,,,,,1,8,1,8,4,4
"sim/75",12606,55650.3,55634.6,ns,,,,,,5,25,4,21,10,11
"sim/76",47632,14223.4,14219.3,ns,,,,,,1,5,1,5,3,3
"sim/77",29031,24103.1,24096.2,ns,,,,,,2,15,2,15,6,6
"sim/78",45278,15583.2,15578.8,ns,,,,,,1,6,1,6,4,4
"sim/79",101411,6929.83,6927.9,ns,,,,,,0,4,0,4,3,3
"sim/80",53732,13107.3,13103.1,ns,,,,,,3,7,3,7,4,4
"sim/81",31099,22773.4,22766.5,ns,,,,,,2,15,2,15,7,7
"sim/82",39590,17850.5,17845.2,ns,,,,,,1,10,1,10,5,5
"sim/83",47582,14778.4,14774.4,ns,,,,,,1,6,1,6,4,4
"sim/84",47071,14603.3,14599.2,ns,,,,,,3,11,2,8,4,5
"sim/85",48515,14525.1,14520.9,ns,,,,,,2,7,2,7,4,4
"sim/86",17580,39398,39387.2,ns,,,,,,5,19,4,17,8,8
"sim/87",17599,39081.9,39071.8,ns,,,,,,9,40,8,35,11,12
"sim/88",26232,26327.7,26320.4,ns,,,,,,6,19,6,19,7,7
"sim/89",37103,18238.8,18232.6,ns,,,,,,4,13,4,13,8,8
"sim/90",47367,14783.3,14775.6,ns,,,,,,1,6,1,6,4,4
"sim/91",37325,18920.3,18908.6,ns,,,,,,4,15,3,11,6,7
"sim/92",12920,54929.6,54883.8,ns,,,,,,9,46,4,25,10,12
"sim/93",54306,13067.2,13056.5,ns,,,,,,1,4,1,4,3,3
"sim/94",8249,84627.8,84557.2,ns,,,,,,12,78,9,37,11,14
"sim/95",4314,158212,158052,ns,,,,,,13,72,10,63,15,16
"sim/96",42284,16254.8,16241.4,ns,,,,,,2,10,2,10,6,6
"sim/97",45197,15582,15569.4,ns,,,,,,2,6,2,6,4,4
"babiak/0",8294,85848.1,85774,ns,,,,,,4,11,1,9,4,5
"babiak/1",50313,13935.9,13924.5,ns,,,,,,1,3,1,3,2,2
"babiak/2",1875,376397,375982,ns,,,,,,6,30,4,17,6,8
"babiak/3",18859,37587.2,37550.5,ns,,,,,,5,13,1,4,2,5
"babiak/4",6768,104836,104730,ns,,,,,,7,23,2,11,6,9
"babiak/5",31024,22471.6,22441.4,ns,,,,,,1,5,1,5,3,3
"babiak/6",17460,38815.7,38781.9,ns,,,,,,2,6,1,3,2,3
"babiak/7",638,1.10444e+06,1.10318e+06,ns,,,,,,25,158,9,32,12,27
"babiak/8",8769,80383.1,80313.6,ns,,,,,,4,13,2,9,5,6
"babiak/9",54327,12484.7,12474.5,ns,,,,,,1,6,0,6,3,3
"babiak/10",10843,64940,64884.9,ns,,,,,,1,6,1,6,3,3
"babiak/11",21147,32831.7,32799.2,ns,,,,,,1,7,1,7,4,4
"babiak/12",2717,258597,258343,ns,,,,,,6,21,4,18,7,8
"babiak/13",4647,152467,152315,ns,,,,,,4,16,2,13,8,9
"babiak/14",799,886550,885517,ns,,,,,,7,45,4,33,10,14
"babiak/15",5578,126427,126305,ns,,,,,,2,11,1,8,4,5
"babiak/16",2390,296656,296324,ns,,,,,,7,53,2,20,6,10
"babiak/17",3642,194042,193856,ns,,,,,,6,23,3,18,8,10
"babiak/18",2075,337066,336687,ns,,,,,,6,30,4,17,8,11
"babiak/19",7856,89870.7,89791.1,ns,,,,,,4,9,1,7,3,4
"babiak/20",24339,29044.1,29019.4,ns,,,,,,1,6,1,6,3,3
"babiak/21",24521,28733,28708.1,ns,,,,,,1,7,1,7,4,4
"babiak/22",2005,353623,353254,ns,,,,,,7,19,3,18,8,9
"babiak/23",49279,14421.6,14409.7,ns,,,,,,0,3,0,3,2,2
"babiak/24",164240,4284.47,4280.13,ns,,,,,,2,4,0,2,1,2
"babiak/25",19872,35533.5,35501.4,ns,,,,,,3,6,1,4,2,3
"babiak/26",11894,59187.3,59136.3,ns,,,,,,3,7,1,5,3,4
"babiak/27",682,1.03112e+06,1.03003e+06,ns,,,,,,20,107,12,107,20,20
"babiak/28",10414,63789.9,63732.5,ns,,,,,,3,8,2,8,3,3
"babiak/29",1211,582786,582203,ns,,,,,,14,68,5,24,6,14
"babiak/30",1686,420604,420147,ns,,,,,,11,42,6,27,8,12
"babiak/31",3534,198516,198331,ns,,,,,,8,48,2,24,4,8
"babiak/32",7178,99503.1,99411.6,ns,,,,,,3,12,1,10,7,8
"babiak/33",28289,24959.9,24939.8,ns,,,,,,2,6,1,6,3,3
"babiak/34",9796,72150.5,72081.3,ns,,,,,,5,16,5,16,7,7
"babiak/35",15492,45440.2,45400.3,ns,,,,,,3,11,2,11,5,5
"babiak/36",3726,188459,188275,ns,,,,,,9,24,6,18,8,10
"babiak/37",103128,6832.34,6827.22,ns,,,,,,0,4,0,4,3,3
"babiak/38",5726,120248,120135,ns,,,,,,2,11,2,11,5,5
"babiak/39",2920,234139,233853,ns,,,,,,4,28,2,16,6,8
"babiak/40",999,704774,704030,ns,,,,,,16,111,7,36,9,17
"babiak/41",744,952505,951492,ns,,,,,,16,90,2,20,6,16
"babiak/42",2919,241300,241024,ns,,,,,,8,43,1,18,7,12
"babiak/43",2063,342702,342302,ns,,,,,,8,26,6,23,13,14
"babiak/44",4176,168715,168539,ns,,,,,,7,21,4,14,6,8
"babiak/45",3446,204307,204111,ns,,,,,,4,11,2,9,4,5
"babiak/46",1313,532309,531723,ns,,,,,,8,30,3,18,5,8
"babiak/47",18246,38767.6,38733.4,ns,,,,,,1,7,1,7,4,4
"babiak/48",60408,11681,11672.1,ns,,,,,,0,5,0,5,3,3
"babiak/49",1819,383370,382963,ns,,,,,,6,36,4,29,8,9
"babiak/50",7401,94930.4,94843.4,ns,,,,,,3,12,3,9,5,6
"babiak/51",21967,31778.1,31749.4,ns,,,,,,1,7,1,7,5,5
"babiak/52",2648,262307,262013,ns,,,,,,6,23,4,23,9,9
"babiak/53",2247,313041,312693,ns,,,,,,5,23,1,19,7,8
"babiak/54",6017,113509,113412,ns,,,,,,4,13,3,9,4,5
"babiak/55",5575,123954,123830,ns,,,,,,2,10,2,10,5,5
"babiak/56",662,1.06483e+06,1.06356e+06,ns,,,,,,11,67,4,40,11,15
"babiak/57",18531,38049.6,38016.5,ns,,,,,,3,9,3,9,5,5
"babiak/58",7516,94145.3,94055.1,ns,,,,,,4,15,4,15,10,10
"babiak/59",3220,218863,218629,ns,,,,,,6,19,2,14,6,8
"babiak/60",1730,408040,407595,ns,,,,,,11,61,4,25,7,12
"babiak/61",784,901027,900149,ns,,,,,,4,28,2,26,8,8
"babiak/62",3807,186205,186017,ns,,,,,,4,24,4,24,10,10
"babiak/63",2413,290951,290675,ns,,,,,,8,30,6,26,10,10
"babiak/64",4496,157922,157768,ns,,,,,,5,15,4,12,4,5
"babiak/65",2057,343097,342750,ns,,,,,,2,10,2,10,4,4
"babiak/66",132117,5327.9,5323.08,ns,,,,,,1,3,0,3,2,2
"babiak/67",6743,101948,101856,ns,,,,,,3,12,1,10,5,6
"babiak/68",3798,184530,184352,ns,,,,,,6,20,3,14,7,9
"babiak/69",2221,310487,310101,ns,,,,,,5,21,3,15,5,6
"babiak/70",9882,71379.4,71316.4,ns,,,,,,5,14,2,14,8,8
"babiak/71",3723,170214,170030,ns,,,,,,4,20,2,20,7,7
"babiak/72",93324,7556.51,7550.36,ns,,,,,,0,4,0,4,3,3
"babiak/73",582,1.21201e+06,1.21061e+06,ns,,,,,,17,121,4,33,9,20
"babiak/74",7376,92352.4,92272.8,ns,,,,,,1,8,1,8,4,4
"babiak/75",2576,268177,267901,ns,,,,,,5,25,5,25,11,11
"babiak/76",61161,11519.7,11510.4,ns,,,,,,1,5,0,5,3,3
"babiak/77",4831,144396,144247,ns,,,,,,2,15,1,15,6,6
"babiak/78",10486,67005.2,66943.4,ns,,,,,,1,6,1,6,4,4
"babiak/79",92365,7604.32,7598.32,ns,,,,,,0,4,0,4,3,3
"babiak/80",14751,47963.2,47922.4,ns,,,,,,3,7,1,5,3,4
"babiak/81",5807,120798,120677,ns,,,,,,2,15,2,15,7,7
"babiak/82",47919,14661.3,14649.4,ns,,,,,,1,10,0,10,5,5
"babiak/83",16581,42092.2,42056.6,ns,,,,,,1,6,1,6,4,4
"babiak/84",9386,75161,75097.6,ns,,,,,,3,11,2,8,4,5
"babiak/85",67702,10051.9,10043.8,ns,,,,,,2,7,0,7,4,4
"babiak/86",1503,460484,460064,ns,,,,,,5,19,1,17,7,8
"babiak/87",1119,628491,627837,ns,,,,,,9,40,3,28,9,12
"babiak/88",2815,248622,248385,ns,,,,,,6,19,1,13,5,7
"babiak/89",6624,106854,106755,ns,,,,,,4,13,1,11,7,8
"babiak/90",15852,44231.2,44180.4,ns,,,,,,1,6,1,6,4,4
"babiak/91",6609,106947,106850,ns,,,,,,4,15,3,11,6,7
"babiak/92",1292,541788,541200,ns,,,,,,9,46,1,33,10,12
"babiak/93",17510,40109,40072.2,ns,,,,,,1,4,1,4,3,3
"babiak/94",682,1.031e+06,1.02974e+06,ns,,,,,,12,78,6,44,10,14
"babiak/95",839,847483,846512,ns,,,,,,13,72,2,72,16,16
"babiak/96",42558,16456.4,16443.8,ns,,,,,,2,10,0,10,6,6
"babiak/97",58739,11560.7,11552.3,ns,,,,,,2,6,0,6,4,4
