name,iterations,real_time,cpu_time,time_unit,bytes_per_second,items_per_second,label,error_occurred,error_message,"det","edges","red_det","red_edges","red_states","states"
"sim/0",11977,58626.6,58608.8,ns,,,,,,22,96,9,30,10,23
"sim/1",10735,65213.3,65190.9,ns,,,,,,22,96,10,36,11,23
"sim/2",6475,104062,104028,ns,,,,,,23,121,19,105,19,23
"sim/3",6642,103044,103007,ns,,,,,,27,110,19,70,21,29
"sim/4",9110,77335.4,77309.1,ns,,,,,,23,114,11,42,12,24
"sim/5",5327,131611,131564,ns,,,,,,27,122,19,74,20,28
"sim/6",10354,64676.5,64652.1,ns,,,,,,19,89,11,41,12,24
"sim/7",11222,61753.6,61730.6,ns,,,,,,22,97,10,37,12,24
"sim/8",10476,67642,67619.6,ns,,,,,,22,97,10,37,12,24
"babiak/0",1639,431479,431238,ns,,,,,,22,96,1,14,5,23
"babiak/1",172,4.09914e+06,4.09679e+06,ns,,,,,,22,96,2,20,6,23
"babiak/2",2084,337707,337529,ns,,,,,,23,121,1,23,5,23
"babiak/3",734,960117,959549,ns,,,,,,27,110,3,38,11,29
"babiak/4",325,2.16259e+06,2.16134e+06,ns,,,,,,23,114,3,26,7,24
"babiak/5",645,1.09839e+06,1.09774e+06,ns,,,,,,27,122,5,37,10,28
"babiak/6",443,1.58515e+06,1.58423e+06,ns,,,,,,19,89,3,25,7,24
"babiak/7",667,1.05399e+06,1.05339e+06,ns,,,,,,22,97,2,21,7,24
"babiak/8",558,1.23472e+06,1.23399e+06,ns,,,,,,22,97,2,21,7,24
