name,iterations,real_time,cpu_time,time_unit,bytes_per_second,items_per_second,label,error_occurred,error_message,"det","edges","red_det","red_edges","red_states","states"
"sim/0",1346,525700,525469,ns,,,,,,35,376,12,72,13,36
"sim/1",8186,84689.5,84658.6,ns,,,,,,17,115,4,18,5,18
"sim/2",402,1.75438e+06,1.75367e+06,ns,,,,,,70,1050,20,140,22,72
"sim/3",2397,291523,291422,ns,,,,,,26,255,7,46,7,26
"sim/4",583,1.23252e+06,1.2319e+06,ns,,,,,,62,644,14,91,16,64
"sim/5",3679,191124,191054,ns,,,,,,25,205,7,35,9,27
"sim/6",3710,189311,189247,ns,,,,,,26,210,5,28,6,27
"sim/7",1084,629483,629264,ns,,,,,,44,382,10,56,12,46
"sim/8",2884,240124,240029,ns,,,,,,26,210,6,39,7,27
"sim/9",2302,302849,302737,ns,,,,,,26,250,9,54,10,27
"sim/10",1656,416470,416326,ns,,,,,,33,295,11,62,14,36
"sim/11",566,1.21114e+06,1.21069e+06,ns,,,,,,70,685,12,81,14,72
"sim/12",579,1.22173e+06,1.2212e+06,ns,,,,,,66,461,20,112,28,73
"sim/13",187,3.74925e+06,3.74776e+06,ns,,,,,,123,1405,14,125,16,126
"sim/14",1708,405968,405822,ns,,,,,,36,312,6,38,7,37
"sim/15",193,3.55856e+06,3.55719e+06,ns,,,,,,71,1253,29,277,30,72
"sim/16",506,1.35231e+06,1.35176e+06,ns,,,,,,80,656,13,79,15,82
"sim/17",292,2.35509e+06,2.35421e+06,ns,,,,,,96,970,24,110,26,99
"sim/18",1338,527088,526876,ns,,,,,,27,358,9,72,9,27
"sim/19",2694,262198,262101,ns,,,,,,26,210,5,28,6,27
"sim/20",2391,291065,290966,ns,,,,,,26,197,10,65,12,28
"sim/21",490,1.45655e+06,1.45595e+06,ns,,,,,,79,715,19,141,20,81
"sim/22",6402,111399,111359,ns,,,,,,17,115,5,28,6,18
"sim/23",9887,212049,211246,ns,,,,,,9,81,5,36,5,9
"sim/24",3418,204305,204230,ns,,,,,,18,187,5,36,5,18
"sim/25",2135,331719,331597,ns,,,,,,18,163,10,79,11,19
"sim/26",1018,697686,697410,ns,,,,,,27,360,15,126,15,27
"sim/27",288,2.45183e+06,2.4509e+06,ns,,,,,,63,985,28,271,29,64
"sim/28",267,2.63813e+06,2.63705e+06,ns,,,,,,36,1059,18,316,18,36
"sim/29",1339,522775,522561,ns,,,,,,27,258,11,84,15,31
"sim/30",1345,496829,496659,ns,,,,,,26,270,14,108,15,27
"sim/31",807,880575,880214,ns,,,,,,53,542,23,141,25,55
"sim/32",827,873651,873273,ns,,,,,,35,371,18,132,20,37
"sim/33",402,1.93111e+06,1.92917e+06,ns,,,,,,63,733,29,206,30,64
"sim/34",5248,146224,146106,ns,,,,,,17,118,9,54,11,19
"sim/35",1136,628386,628095,ns,,,,,,35,371,19,162,21,37
"sim/36",453,1.58103e+06,1.5803e+06,ns,,,,,,53,629,24,183,26,55
"sim/37",201,3.4009e+06,3.39913e+06,ns,,,,,,97,1416,22,195,25,100
"sim/38",469,1.46344e+06,1.46276e+06,ns,,,,,,106,727,14,78,20,118
"sim/39",467,1.50473e+06,1.50403e+06,ns,,,,,,54,740,20,175,21,55
"sim/40",1033,681289,681011,ns,,,,,,27,323,10,89,11,28
"sim/41",414,1.70319e+06,1.70211e+06,ns,,,,,,46,855,11,127,11,46
"sim/42",2564,277594,277422,ns,,,,,,26,197,10,65,12,28
"sim/43",5286,139090,139019,ns,,,,,,18,138,6,38,7,19
"sim/44",251,2.74661e+06,2.74504e+06,ns,,,,,,72,1070,15,100,16,73
"sim/45",1119,625841,625393,ns,,,,,,43,371,18,90,20,46
"sim/46",2234,322515,322298,ns,,,,,,31,208,10,57,13,37
"sim/47",443,1.55714e+06,1.5563e+06,ns,,,,,,71,705,31,207,33,73
"sim/48",360,1.91378e+06,1.91271e+06,ns,,,,,,53,624,28,235,30,55
"sim/49",1634,436809,436540,ns,,,,,,36,346,6,38,7,37
"sim/50",1473,446554,445731,ns,,,,,,35,276,10,65,12,37
"sim/51",1380,536743,536032,ns,,,,,,27,268,14,98,16,29
"sim/52",645,1.06495e+06,1.0638e+06,ns,,,,,,84,535,22,115,26,90
"sim/53",611,1.16966e+06,1.16823e+06,ns,,,,,,45,472,17,174,18,46
"sim/54",197,3.4487e+06,3.44477e+06,ns,,,,,,71,1483,19,210,20,72
"sim/55",296,2.19606e+06,2.19212e+06,ns,,,,,,71,940,15,149,16,72
"sim/56",257,2.39764e+06,2.3952e+06,ns,,,,,,78,833,42,263,46,82
"sim/57",305,2.30203e+06,2.29927e+06,ns,,,,,,80,964,26,163,28,82
"sim/58",1249,528256,527189,ns,,,,,,23,319,10,100,10,23
"sim/59",1328,532842,532630,ns,,,,,,35,390,11,93,12,36
"sim/60",4265,165746,165674,ns,,,,,,17,135,9,54,10,18
"sim/61",980,730779,730176,ns,,,,,,36,370,12,102,13,37
"sim/62",417,1.58292e+06,1.58164e+06,ns,,,,,,62,702,16,117,18,64
"sim/63",383,1.77028e+06,1.76864e+06,ns,,,,,,53,805,24,229,25,54
"sim/64",759,934249,933692,ns,,,,,,61,427,17,88,19,64
"sim/65",611,1.16497e+06,1.16382e+06,ns,,,,,,53,550,28,172,30,55
"sim/66",6612,105984,105873,ns,,,,,,17,113,6,37,7,19
"sim/67",2181,325463,325115,ns,,,,,,27,217,6,38,7,28
"sim/68",371,1.93396e+06,1.93185e+06,ns,,,,,,89,745,18,104,26,99
"sim/69",3369,210647,210349,ns,,,,,,26,165,6,30,7,27
"sim/70",696,1.06132e+06,1.06003e+06,ns,,,,,,44,528,16,131,18,46
"sim/71",2646,266143,265845,ns,,,,,,25,206,8,46,11,28
"sim/72",7424,96627.9,96531,ns,,,,,,17,116,5,29,7,19
"sim/73",2970,251041,250665,ns,,,,,,18,188,6,56,7,19
"sim/74",746,989402,988076,ns,,,,,,52,531,23,146,26,55
"sim/75",1709,412330,411930,ns,,,,,,35,306,7,51,9,37
"sim/76",3297,212238,211986,ns,,,,,,25,186,6,39,8,28
"sim/77",1539,451262,450572,ns,,,,,,35,331,6,40,8,37
"sim/78",1114,566324,565626,ns,,,,,,26,271,14,109,16,28
"sim/79",682,1.13562e+06,1.13375e+06,ns,,,,,,45,467,13,116,15,47
"sim/80",186,3.42072e+06,3.41736e+06,ns,,,,,,71,1160,25,265,28,74
"sim/81",998,706379,705854,ns,,,,,,36,351,20,143,21,37
"sim/82",975,729955,729320,ns,,,,,,43,328,16,108,19,47
"sim/83",2471,229686,229383,ns,,,,,,25,172,10,64,12,28
"sim/84",1027,714546,713804,ns,,,,,,52,436,11,66,13,55
"sim/85",193,4.48142e+06,4.46985e+06,ns,,,,,,98,1311,13,106,14,100
"sim/86",2432,292921,291966,ns,,,,,,17,116,5,29,7,19
"sim/87",75,9.42937e+06,9.39751e+06,ns,,,,,,135,1993,18,192,19,136
"sim/88",2919,238944,238779,ns,,,,,,28,190,8,43,10,30
"sim/89",2878,232302,232133,ns,,,,,,18,182,10,76,12,20
"babiak/0",20,1.15714e+08,1.15355e+08,ns,,,,,,35,376,1,72,13,36
"babiak/1",234,3.04389e+06,3.03432e+06,ns,,,,,,17,115,1,18,5,18
"babiak/2",2,4.29446e+08,4.28103e+08,ns,,,,,,70,1050,14,140,22,72
"babiak/3",70,9.49353e+06,9.46551e+06,ns,,,,,,26,255,3,46,7,26
"babiak/4",5,1.46898e+08,1.46475e+08,ns,,,,,,62,644,7,91,16,64
"babiak/5",28,2.55167e+07,2.54401e+07,ns,,,,,,25,205,1,35,9,27
"babiak/6",90,8.09445e+06,8.0689e+06,ns,,,,,,26,210,2,28,6,27
"babiak/7",31,2.2605e+07,2.25373e+07,ns,,,,,,44,382,4,56,12,46
"babiak/8",48,1.43656e+07,1.43203e+07,ns,,,,,,26,210,3,39,7,27
"babiak/9",19,3.7935e+07,3.78068e+07,ns,,,,,,26,250,2,54,10,27
"babiak/10",11,5.87922e+07,5.85855e+07,ns,,,,,,33,295,2,62,14,36
"babiak/11",8,8.84882e+07,8.8181e+07,ns,,,,,,70,685,6,81,14,72
"babiak/12",6,1.27121e+08,1.267e+08,ns,,,,,,66,461,11,112,28,73
"babiak/13",2,5.88034e+08,5.85502e+08,ns,,,,,,123,1405,9,142,17,126
"babiak/14",77,9.58903e+06,9.55297e+06,ns,,,,,,36,312,4,49,8,37
"babiak/15",3,3.59168e+08,3.57488e+08,ns,,,,,,71,1253,13,277,30,72
"babiak/16",7,9.06738e+07,9.01018e+07,ns,,,,,,80,656,7,91,16,82
"babiak/17",3,2.46659e+08,2.4521e+08,ns,,,,,,96,970,11,111,27,99
"babiak/18",8,6.68756e+07,6.65415e+07,ns,,,,,,27,358,1,72,9,27
"babiak/19",149,6.88979e+06,6.8547e+06,ns,,,,,,26,210,3,39,7,27
"babiak/20",59,8.85588e+06,8.82051e+06,ns,,,,,,26,197,4,65,12,28
"babiak/21",12,6.0731e+07,6.05422e+07,ns,,,,,,79,715,8,156,20,81
"babiak/22",38,1.8416e+07,1.83581e+07,ns,,,,,,17,115,2,28,6,18
"babiak/23",298,2.34926e+06,2.34146e+06,ns,,,,,,9,81,1,36,5,9
"babiak/24",120,7.81503e+06,7.77691e+06,ns,,,,,,18,187,1,36,5,18
"babiak/25",22,3.31776e+07,3.29883e+07,ns,,,,,,18,163,3,79,11,19
"babiak/26",6,1.13044e+08,1.12427e+08,ns,,,,,,27,360,11,126,15,27
"babiak/27",1,3.91695e+09,3.89419e+09,ns,,,,,,63,985,22,274,30,64
"babiak/28",2,3.86732e+08,3.84583e+08,ns,,,,,,36,1059,10,316,18,36
"babiak/29",18,4.10026e+07,4.07485e+07,ns,,,,,,27,258,4,84,15,31
"babiak/30",10,6.4505e+07,6.41572e+07,ns,,,,,,26,270,7,108,15,27
"babiak/31",2,4.40641e+08,4.38335e+08,ns,,,,,,53,542,17,141,25,55
"babiak/32",1,5.50493e+08,5.47342e+08,ns,,,,,,35,371,9,151,21,37
"babiak/33",1,5.23172e+08,5.20279e+08,ns,,,,,,63,733,22,206,30,64
"babiak/34",101,6.75913e+06,6.72124e+06,ns,,,,,,17,118,3,54,11,19
"babiak/35",1,8.33007e+08,8.28685e+08,ns,,,,,,35,371,9,162,21,37
"babiak/36",2,3.73789e+08,3.71539e+08,ns,,,,,,53,629,10,183,26,55
"babiak/37",2,2.63747e+08,2.62912e+08,ns,,,,,,97,1416,11,195,25,100
"babiak/38",5,1.42382e+08,1.42092e+08,ns,,,,,,106,727,8,78,20,118
"babiak/39",2,2.859e+08,2.84969e+08,ns,,,,,,54,740,13,175,21,55
"babiak/40",11,6.07697e+07,6.05324e+07,ns,,,,,,27,323,3,89,11,28
"babiak/41",3,1.99355e+08,1.98677e+08,ns,,,,,,46,855,3,143,11,46
"babiak/42",65,8.09952e+06,8.08364e+06,ns,,,,,,26,197,4,65,12,28
"babiak/43",123,5.76598e+06,5.75661e+06,ns,,,,,,18,138,3,38,7,19
"babiak/44",9,7.32032e+07,7.30986e+07,ns,,,,,,72,1070,12,158,20,73
"babiak/45",26,2.71526e+07,2.71116e+07,ns,,,,,,43,371,12,90,20,46
"babiak/46",163,5.1167e+06,5.10526e+06,ns,,,,,,31,208,4,57,13,37
"babiak/47",4,2.58924e+08,2.57959e+08,ns,,,,,,71,705,17,207,33,73
"babiak/48",2,4.54629e+08,4.52865e+08,ns,,,,,,53,624,11,254,31,55
"babiak/49",47,1.23954e+07,1.23606e+07,ns,,,,,,36,346,3,38,7,37
"babiak/50",11,5.38755e+07,5.37092e+07,ns,,,,,,35,276,4,65,12,37
"babiak/51",26,2.68462e+07,2.68031e+07,ns,,,,,,27,268,11,98,16,29
"babiak/52",7,1.53297e+08,1.52941e+08,ns,,,,,,84,535,10,115,26,90
"babiak/53",6,1.3828e+08,1.37959e+08,ns,,,,,,45,472,5,174,18,46
"babiak/54",4,1.89383e+08,1.89104e+08,ns,,,,,,71,1483,12,210,20,72
"babiak/55",9,8.30275e+07,8.29223e+07,ns,,,,,,71,940,8,149,16,72
"babiak/56",5,1.68733e+08,1.68509e+08,ns,,,,,,78,833,22,263,46,82
"babiak/57",8,9.89608e+07,9.88621e+07,ns,,,,,,80,964,12,163,28,82
"babiak/58",45,1.52609e+07,1.52518e+07,ns,,,,,,23,319,6,100,10,23
"babiak/59",7,1.0648e+08,1.06407e+08,ns,,,,,,35,390,4,93,12,36
"babiak/60",290,2.39236e+06,2.39056e+06,ns,,,,,,17,135,2,54,10,18
"babiak/61",18,3.31439e+07,3.31184e+07,ns,,,,,,36,370,5,102,13,37
"babiak/62",22,3.14527e+07,3.1428e+07,ns,,,,,,62,702,6,117,18,64
"babiak/63",6,1.21649e+08,1.21181e+08,ns,,,,,,53,805,17,229,25,54
"babiak/64",45,1.5106e+07,1.50531e+07,ns,,,,,,61,427,6,97,20,64
"babiak/65",21,3.4214e+07,3.41561e+07,ns,,,,,,53,550,11,174,31,55
"babiak/66",248,2.86999e+06,2.86636e+06,ns,,,,,,17,113,3,37,7,19
"babiak/67",89,8.2022e+06,8.19037e+06,ns,,,,,,27,217,4,49,8,28
"babiak/68",10,5.33242e+07,5.32371e+07,ns,,,,,,89,745,13,108,27,99
"babiak/69",415,1.62852e+06,1.62637e+06,ns,,,,,,26,165,2,30,7,27
"babiak/70",13,4.82587e+07,4.81874e+07,ns,,,,,,44,528,6,131,18,46
"babiak/71",51,1.36076e+07,1.35867e+07,ns,,,,,,25,206,2,46,11,28
"babiak/72",311,2.39445e+06,2.3911e+06,ns,,,,,,17,116,2,29,7,19
"babiak/73",223,9.22564e+06,9.17245e+06,ns,,,,,,18,188,2,56,7,19
"babiak/74",23,3.13321e+07,3.13127e+07,ns,,,,,,52,531,9,146,26,55
"babiak/75",100,1.28623e+07,1.28103e+07,ns,,,,,,35,306,4,51,9,37
"babiak/76",200,3.53984e+06,3.53769e+06,ns,,,,,,25,186,3,39,8,28
"babiak/77",160,4.3651e+06,4.36255e+06,ns,,,,,,35,331,3,40,8,37
"babiak/78",128,5.62546e+06,5.62159e+06,ns,,,,,,26,271,3,109,16,28
"babiak/79",10,7.25845e+07,7.25328e+07,ns,,,,,,45,467,6,118,15,47
"babiak/80",6,1.41009e+08,1.4089e+08,ns,,,,,,71,1160,7,272,28,74
"babiak/81",48,1.37073e+07,1.3697e+07,ns,,,,,,36,351,9,143,21,37
"babiak/82",47,1.48228e+07,1.47966e+07,ns,,,,,,43,328,6,108,19,47
"babiak/83",106,9.75e+06,9.71915e+06,ns,,,,,,25,172,4,64,12,28
"babiak/84",4,1.76712e+08,1.75326e+08,ns,,,,,,52,436,5,66,13,55
"babiak/85",33,2.09387e+07,2.09074e+07,ns,,,,,,98,1311,10,122,14,100
"babiak/86",173,4.01931e+06,4.01377e+06,ns,,,,,,17,116,2,29,7,19
"babiak/87",7,9.39747e+07,9.37362e+07,ns,,,,,,135,1993,16,209,20,136
"babiak/88",260,2.4785e+06,2.47565e+06,ns,,,,,,28,190,3,43,10,30
"babiak/89",94,6.17342e+06,6.16341e+06,ns,,,,,,18,182,2,76,12,20
