name,iterations,real_time,cpu_time,time_unit,bytes_per_second,items_per_second,label,error_occurred,error_message,"det","edges","red_det","red_edges","red_states","states"
"sim/0",127963,5487.44,5482.36,ns,,,,,,0,1,0,1,1,1
"sim/1",107512,6610.22,6605.68,ns,,,,,,0,3,0,3,2,2
"sim/2",37335,19046.5,19025.6,ns,,,,,,1,7,1,7,4,4
"sim/3",44306,18268.3,18237.7,ns,,,,,,1,5,1,5,3,3
"sim/4",50000,13538.2,13527,ns,,,,,,1,3,1,3,2,2
"sim/5",38639,18666.3,18649.9,ns,,,,,,1,6,1,6,3,3
"sim/6",39666,18815.1,18789.1,ns,,,,,,2,6,2,6,3,3
"sim/7",29085,22456.7,22430.7,ns,,,,,,2,8,2,8,4,4
"sim/8",46367,16149.5,16135.3,ns,,,,,,2,4,2,4,2,2
"sim/9",35939,20161.4,20104.1,ns,,,,,,1,6,1,6,3,3
"sim/10",110085,7463.47,7442.68,ns,,,,,,0,3,0,3,2,2
"sim/11",127727,5629.73,5583.5,ns,,,,,,0,1,0,1,1,1
"sim/12",87240,7558.66,7527.93,ns,,,,,,0,3,0,3,2,2
"sim/13",73611,8386.16,8342.32,ns,,,,,,0,3,0,3,2,2
"sim/14",30619,22908.2,22888.4,ns,,,,,,2,11,2,11,5,5
"sim/15",88376,7964.65,7955.26,ns,,,,,,0,3,0,3,2,2
"sim/16",45688,14925.2,14916.9,ns,,,,,,2,4,2,4,2,2
"sim/17",40514,17610.3,17597.4,ns,,,,,,1,5,1,5,3,3
"sim/18",39634,15958.5,15944.6,ns,,,,,,2,4,2,4,2,2
"sim/19",35633,17687.1,17665,ns,,,,,,1,5,1,5,3,3
"sim/20",17486,38496.7,38462.2,ns,,,,,,4,29,1,20,8,8
"sim/21",25284,27126.7,27103.4,ns,,,,,,1,13,1,13,7,7
"sim/22",17552,40830.6,40783.3,ns,,,,,,6,28,6,28,7,7
"sim/23",20012,31494.2,31471.1,ns,,,,,,2,16,2,16,8,8
"sim/24",12231,54432.2,54399.9,ns,,,,,,6,32,6,26,7,7
"sim/25",26840,26397.4,26382.3,ns,,,,,,1,14,1,14,7,7
"sim/26",131980,5659.73,5653.41,ns,,,,,,0,1,0,1,1,1
"sim/27",108925,6527.67,6522.83,ns,,,,,,0,3,0,3,2,2
"sim/28",38337,17795.6,17785.3,ns,,,,,,1,7,1,7,4,4
"sim/29",44866,15419.9,15411.3,ns,,,,,,1,5,1,5,3,3
"sim/30",53531,13274.6,13264.7,ns,,,,,,1,3,1,3,2,2
"sim/31",41802,16760.9,16751.9,ns,,,,,,1,6,1,6,3,3
"sim/32",43000,16800.6,16789.8,ns,,,,,,2,6,2,6,3,3
"sim/33",35410,19417.9,19407.8,ns,,,,,,2,8,2,8,4,4
"sim/34",45981,15436,15421.3,ns,,,,,,2,4,2,4,2,2
"sim/35",36368,18772,18756.1,ns,,,,,,1,6,1,6,3,3
"sim/36",96343,7355.74,7351.59,ns,,,,,,0,3,0,3,2,2
"sim/37",87254,8099.01,8093.88,ns,,,,,,0,3,0,3,2,2
"sim/38",34606,20336.5,20318.3,ns,,,,,,1,7,1,7,4,4
"sim/39",40494,17217.3,17203.8,ns,,,,,,1,5,1,5,3,3
"sim/40",29886,22943.4,22928.6,ns,,,,,,2,11,2,11,5,5
"sim/41",38245,18174.5,18165.7,ns,,,,,,3,7,3,7,3,3
"sim/42",39241,18058.2,18046.6,ns,,,,,,2,6,2,6,3,3
"sim/43",33569,20391.5,20376.3,ns,,,,,,2,8,2,8,4,4
"sim/44",42800,15949.2,15941.6,ns,,,,,,2,4,2,4,2,2
"sim/45",36312,19398.8,19388.3,ns,,,,,,1,6,1,6,3,3
"sim/46",52459,13266.3,13256.3,ns,,,,,,2,4,2,4,2,2
"sim/47",52889,13272.3,13263.5,ns,,,,,,1,3,1,3,2,2
"sim/48",22877,31485.4,31463.7,ns,,,,,,3,11,2,10,5,5
"sim/49",41465,16707.3,16698.1,ns,,,,,,1,5,1,5,3,3
"sim/50",41244,17768.5,17755.2,ns,,,,,,3,7,3,7,3,3
"sim/51",41685,17704.4,17686.1,ns,,,,,,2,6,2,6,3,3
"sim/52",33651,21246.3,21233.7,ns,,,,,,3,10,3,10,4,4
"sim/53",33638,20975,20959.6,ns,,,,,,2,8,2,8,4,4
"sim/54",34631,20287.7,20266.6,ns,,,,,,3,8,3,8,3,3
"sim/55",30530,22207.9,22187.8,ns,,,,,,2,8,2,8,4,4
"sim/56",34930,16970.3,16960.6,ns,,,,,,1,5,1,5,3,3
"sim/57",39725,17388.7,17380.3,ns,,,,,,1,6,1,6,3,3
"sim/58",29187,23766.7,23743.5,ns,,,,,,2,11,2,11,5,5
"sim/59",35500,20143.2,20131.9,ns,,,,,,2,8,2,8,4,4
"sim/60",33510,20913,20901.7,ns,,,,,,2,8,2,8,4,4
"sim/61",32087,21713,21696.4,ns,,,,,,2,9,2,9,4,4
"sim/62",19168,36965.3,36934,ns,,,,,,5,22,5,22,6,6
"sim/63",28060,25324.1,25310.1,ns,,,,,,3,12,3,12,5,5
"sim/64",18471,38306.2,38285.5,ns,,,,,,4,16,4,11,4,4
"sim/65",28524,24231.6,24214.1,ns,,,,,,2,10,2,10,4,4
"sim/66",32773,21051.2,21038.7,ns,,,,,,2,10,2,10,5,5
"sim/67",36804,18326.6,18317.5,ns,,,,,,2,8,2,8,4,4
"sim/68",25903,27551.8,27536.5,ns,,,,,,3,14,3,14,6,6
"sim/69",35890,19848.1,19834.2,ns,,,,,,2,7,2,7,4,4
"sim/70",30283,23507,23494.4,ns,,,,,,2,11,2,11,5,5
"sim/71",30354,23765,23752.6,ns,,,,,,3,12,3,12,5,5
"sim/72",25135,28762.3,28744.2,ns,,,,,,4,16,4,16,6,6
"sim/73",29711,23392.4,23372.9,ns,,,,,,3,10,3,10,5,5
"sim/74",13860,50852.2,50821.7,ns,,,,,,7,25,6,21,7,8
"sim/75",11217,59488.4,59456,ns,,,,,,6,28,6,24,9,10
"sim/76",16613,42642.5,42613.3,ns,,,,,,7,34,7,34,8,8
"sim/77",41563,16142.3,16128.9,ns,,,,,,1,5,1,5,3,3
"sim/78",7298,96871,96802.2,ns,,,,,,8,56,7,45,11,12
"sim/79",33520,21046.5,21034.7,ns,,,,,,3,8,3,8,4,4
"sim/80",18331,38657.1,38633.7,ns,,,,,,5,17,5,15,5,5
"sim/81",34849,19752.3,19737.7,ns,,,,,,2,8,2,8,4,4
"sim/82",5374,131221,131131,ns,,,,,,11,63,11,61,12,12
"sim/83",28065,25106.4,25094.1,ns,,,,,,4,11,4,11,5,5
"sim/84",6100,114914,114821,ns,,,,,,10,57,10,55,10,10
"sim/85",31598,22267.2,22252.8,ns,,,,,,4,11,2,8,4,5
"sim/86",32520,21649.2,21637.5,ns,,,,,,4,14,4,14,4,4
"sim/87",40873,16837.5,16828.5,ns,,,,,,2,6,2,6,3,3
"sim/88",16860,41279.7,41241.1,ns,,,,,,5,21,3,14,6,7
"sim/89",33197,20918.4,20907.7,ns,,,,,,2,9,2,9,4,4
"sim/90",36920,19059.3,19049,ns,,,,,,3,8,3,8,3,3
"sim/91",31766,22183,22170.9,ns,,,,,,2,9,2,9,4,4
"sim/92",22983,29132.7,29107.7,ns,,,,,,5,20,4,16,5,6
"sim/93",26816,25734.5,25722,ns,,,,,,3,13,3,13,5,5
"sim/94",9872,69464.4,69423.2,ns,,,,,,12,60,6,23,6,12
"sim/95",11105,63674.3,63632.5,ns,,,,,,8,38,5,25,8,11
"sim/96",28917,24260.1,24239.6,ns,,,,,,4,14,4,14,4,4
"sim/97",37743,18570.5,18559.8,ns,,,,,,3,7,3,7,3,3
"sim/98",15633,45320,45293,ns,,,,,,5,21,3,14,6,7
"sim/99",30009,23202.1,23186.9,ns,,,,,,3,10,3,10,4,4
"sim/100",33340,21032,21017.7,ns,,,,,,3,8,3,8,3,3
"sim/101",29108,24206.3,24188.7,ns,,,,,,2,10,2,10,4,4
"sim/102",20995,33511.2,33486,ns,,,,,,5,20,5,20,6,6
"sim/103",25021,27934.7,27910.5,ns,,,,,,4,14,4,14,5,5
"sim/104",8570,81653,81604.8,ns,,,,,,12,60,7,27,7,12
"sim/105",6275,111792,111718,ns,,,,,,10,56,9,48,11,12
"sim/106",26306,27100.6,27084.4,ns,,,,,,3,15,1,10,5,5
"sim/107",70703,9681.46,9674.4,ns,,,,,,0,11,0,11,6,6
"sim/108",19278,38335.5,38297.7,ns,,,,,,4,21,2,14,6,6
"sim/109",52681,13293,13282.7,ns,,,,,,0,14,0,14,7,7
"sim/110",88357,8250.82,8241.04,ns,,,,,,0,3,0,3,2,2
"sim/111",92797,8040.56,8030.67,ns,,,,,,0,3,0,3,2,2
"sim/112",39740,19797.7,19691.6,ns,,,,,,1,6,1,6,3,3
"sim/113",37214,18994.6,18982.4,ns,,,,,,1,6,1,6,3,3
"sim/114",36843,19757.1,19733.3,ns,,,,,,1,6,1,6,3,3
"sim/115",39095,17678.1,17663.9,ns,,,,,,1,6,1,6,3,3
"sim/116",46316,14914.6,14905.9,ns,,,,,,2,7,2,6,3,3
"sim/117",49859,14233.1,14225.2,ns,,,,,,2,5,2,4,2,2
"sim/118",40793,16959.5,16947.2,ns,,,,,,3,10,2,7,3,4
"sim/119",46464,15025.6,15012.6,ns,,,,,,2,7,1,4,2,3
"sim/120",42328,16706.2,16696.9,ns,,,,,,1,6,1,6,4,4
"sim/121",41764,16738.5,16729.7,ns,,,,,,1,6,1,6,3,3
"sim/122",156795,5002.63,4997.79,ns,,,,,,0,0,0,0,1,1
"sim/123",42670,17605.8,17583.1,ns,,,,,,1,7,1,7,4,4
"sim/124",49286,14643.5,14632.3,ns,,,,,,2,5,2,4,2,2
"sim/125",47733,15186,15177,ns,,,,,,2,7,2,6,3,3
"sim/126",18643,37662.3,37632.4,ns,,,,,,5,16,3,7,3,5
"sim/127",28649,25277.5,25260.3,ns,,,,,,6,29,2,10,3,7
"sim/128",98616,7360.98,7356.33,ns,,,,,,0,3,0,3,2,2
"sim/129",92696,7536.8,7532.73,ns,,,,,,0,3,0,3,2,2
"sim/130",34324,20973.4,20956,ns,,,,,,1,9,1,9,5,5
"sim/131",113243,5615.48,5610.34,ns,,,,,,0,0,0,0,1,1
"sim/132",28942,23573.6,23550.8,ns,,,,,,1,10,1,10,5,5
"sim/133",119294,5417.68,5413.56,ns,,,,,,0,0,0,0,1,1
"sim/134",17894,41498.7,41458.7,ns,,,,,,7,19,6,17,7,7
"sim/135",50500,13996,13986.8,ns,,,,,,2,5,1,3,2,3
"sim/136",17337,42078.1,42039,ns,,,,,,7,17,6,15,7,7
"sim/137",47311,14259.9,14250.5,ns,,,,,,2,5,1,3,2,3
"sim/138",51606,14910.7,14896.5,ns,,,,,,2,4,2,4,2,2
"sim/139",45593,14457.7,14445,ns,,,,,,1,3,1,3,2,2
"sim/140",44700,15966.6,15957.8,ns,,,,,,1,5,1,5,3,3
"sim/141",48975,15977.5,15961.1,ns,,,,,,2,4,2,4,2,2
"sim/142",45998,15802.3,15786.3,ns,,,,,,2,5,2,4,2,2
"sim/143",45337,16585.9,16570.7,ns,,,,,,2,7,2,6,3,3
"sim/144",49501,14530.7,14519.3,ns,,,,,,1,4,1,4,1,1
"sim/145",45530,16613,16596.9,ns,,,,,,1,5,1,5,3,3
"sim/146",73782,9230.74,9221.15,ns,,,,,,0,7,0,7,4,4
"sim/147",95412,7637.36,7631.48,ns,,,,,,0,4,0,4,3,3
"sim/148",2536,291691,291396,ns,,,,,,14,88,8,42,13,18
"sim/149",31312,22651.5,22628,ns,,,,,,3,12,2,9,4,5
"sim/150",36343,20728.5,20699.6,ns,,,,,,1,8,1,8,4,4
"sim/151",9400,70644.8,70572.3,ns,,,,,,10,51,4,19,6,12
"sim/152",40555,16710.3,16698.2,ns,,,,,,1,4,1,4,3,3
"sim/153",11468,63355.9,63303.2,ns,,,,,,8,39,5,21,5,8
"sim/154",40913,16989.6,16977.2,ns,,,,,,1,5,1,5,3,3
"sim/155",38184,18049.1,18038.1,ns,,,,,,1,8,1,8,4,4
"sim/156",119986,5823.88,5820.87,ns,,,,,,0,1,0,1,1,1
"sim/157",108388,6409.43,6406.2,ns,,,,,,0,3,0,3,2,2
"sim/158",93330,7470.94,7465.7,ns,,,,,,0,3,0,3,2,2
"sim/159",96055,7211.74,7204.62,ns,,,,,,0,3,0,3,2,2
"sim/160",47928,14757.6,14749.6,ns,,,,,,1,3,1,3,2,2
"sim/161",32143,22286.7,22275.8,ns,,,,,,2,11,2,11,4,4
"sim/162",40933,18855.2,18835.9,ns,,,,,,1,5,1,5,3,3
"sim/163",29519,24072,24049.2,ns,,,,,,2,11,2,11,4,4
"sim/164",26498,27093.7,27076.4,ns,,,,,,5,13,5,13,7,7
"sim/165",11284,65042.8,64991.6,ns,,,,,,10,37,5,19,8,12
"sim/166",53346,13741,13729.4,ns,,,,,,1,3,1,3,2,2
"sim/167",51034,14602.7,14588.9,ns,,,,,,2,5,2,5,2,2
"sim/168",39070,18698.6,18684.6,ns,,,,,,1,6,1,6,4,4
"sim/169",40575,17589.6,17576.2,ns,,,,,,2,6,2,6,3,3
"sim/170",33926,18375.2,18354,ns,,,,,,1,5,1,5,3,3
"sim/171",43441,15296.2,15284.5,ns,,,,,,2,4,2,4,2,2
"sim/172",45420,15711.5,15702.5,ns,,,,,,1,5,1,5,3,3
"sim/173",48949,14470.5,14461.1,ns,,,,,,1,4,1,4,1,1
"sim/174",45126,15954.4,15941.3,ns,,,,,,2,4,2,4,2,2
"sim/175",36168,19544.1,19529.9,ns,,,,,,1,6,1,6,3,3
"sim/176",34007,20645.8,20634.3,ns,,,,,,3,9,3,9,5,5
"sim/177",36908,18723.7,18708.8,ns,,,,,,3,7,3,7,4,4
"sim/178",9315,71659.9,71612.5,ns,,,,,,1,32,1,32,1,1
"sim/179",29194,26066.9,26036.4,ns,,,,,,1,11,1,11,6,6
"sim/180",80095,8234.83,8226.98,ns,,,,,,0,2,0,2,2,2
"sim/181",84231,8589.72,8580.49,ns,,,,,,0,2,0,2,2,2
"sim/182",31602,23333.3,23306.9,ns,,,,,,2,9,2,9,4,4
"sim/183",15525,46802.8,46752.3,ns,,,,,,3,26,3,26,6,6
"babiak/0",162054,3978.75,3974.22,ns,,,,,,0,1,0,1,1,1
"babiak/1",98864,6761.13,6752.82,ns,,,,,,0,3,0,3,2,2
"babiak/2",19540,35382.2,35347.5,ns,,,,,,1,7,1,7,4,4
"babiak/3",74869,9427.08,9421.04,ns,,,,,,1,5,0,5,3,3
"babiak/4",103173,6890.47,6885.15,ns,,,,,,1,3,0,3,2,2
"babiak/5",62334,10812.6,10802.5,ns,,,,,,1,6,0,6,3,3
"babiak/6",20068,34562,34534.2,ns,,,,,,2,6,1,6,3,3
"babiak/7",14331,48882.8,48841.8,ns,,,,,,2,8,1,8,4,4
"babiak/8",67852,10433,10424.4,ns,,,,,,2,4,0,4,2,2
"babiak/9",16500,42385.9,42352.2,ns,,,,,,1,6,1,6,3,3
"babiak/10",116528,6158.76,6152.64,ns,,,,,,0,3,0,3,2,2
"babiak/11",197869,3516.69,3514.6,ns,,,,,,0,1,0,1,1,1
"babiak/12",111035,6164.73,6159.88,ns,,,,,,0,3,0,3,2,2
"babiak/13",95682,7323.39,7319.01,ns,,,,,,0,3,0,3,2,2
"babiak/14",12903,52843.9,52789,ns,,,,,,2,11,1,11,5,5
"babiak/15",92552,7440.65,7435.81,ns,,,,,,0,3,0,3,2,2
"babiak/16",66405,10491.3,10481.9,ns,,,,,,2,4,0,4,2,2
"babiak/17",21649,32465.8,32441.3,ns,,,,,,1,5,1,5,3,3
"babiak/18",63026,10887.5,10876.3,ns,,,,,,2,4,0,4,2,2
"babiak/19",21687,31318.1,31294.3,ns,,,,,,1,5,1,5,3,3
"babiak/20",3427,204830,204664,ns,,,,,,4,29,1,20,8,8
"babiak/21",25302,27761.7,27736.7,ns,,,,,,1,13,0,13,7,7
"babiak/22",4301,162967,162716,ns,,,,,,6,28,4,28,7,7
"babiak/23",7188,96686.8,96616.3,ns,,,,,,2,16,1,16,8,8
"babiak/24",2375,297168,296937,ns,,,,,,6,32,4,26,7,7
"babiak/25",9017,80429.8,80368.4,ns,,,,,,1,14,1,14,7,7
"babiak/26",197564,3587.29,3584.84,ns,,,,,,0,1,0,1,1,1
"babiak/27",116353,6141.42,6138.18,ns,,,,,,0,3,0,3,2,2
"babiak/28",20007,35212.4,35188.9,ns,,,,,,1,7,1,7,4,4
"babiak/29",75757,9465.13,9458.26,ns,,,,,,1,5,0,5,3,3
"babiak/30",99892,6929.36,6924.92,ns,,,,,,1,3,0,3,2,2
"babiak/31",64781,10590.6,10585.1,ns,,,,,,1,6,0,6,3,3
"babiak/32",19784,34737.3,34716.7,ns,,,,,,2,6,1,6,3,3
"babiak/33",10000,50281.8,50241,ns,,,,,,2,8,1,8,4,4
"babiak/34",65692,10684.6,10673.5,ns,,,,,,2,4,0,4,2,2
"babiak/35",16759,41944.5,41915.5,ns,,,,,,1,6,1,6,3,3
"babiak/36",109731,6484.89,6481.31,ns,,,,,,0,3,0,3,2,2
"babiak/37",104115,6640.79,6636.62,ns,,,,,,0,3,0,3,2,2
"babiak/38",13833,49643.3,49590.5,ns,,,,,,1,7,1,7,4,4
"babiak/39",70874,9804.16,9796.43,ns,,,,,,1,5,0,5,3,3
"babiak/40",10583,67822.2,67768.8,ns,,,,,,2,11,2,11,5,5
"babiak/41",45933,15346.4,15334.7,ns,,,,,,3,7,0,7,3,3
"babiak/42",12499,55003.7,54960.4,ns,,,,,,2,6,1,6,3,3
"babiak/43",10217,68372.4,68314.8,ns,,,,,,2,8,1,8,4,4
"babiak/44",37413,18770.8,18755.8,ns,,,,,,2,4,0,4,2,2
"babiak/45",11213,68408.6,68334.7,ns,,,,,,1,6,1,6,3,3
"babiak/46",78622,8487.97,8479.51,ns,,,,,,2,4,0,4,2,2
"babiak/47",32878,20401.3,20383.3,ns,,,,,,1,3,1,3,2,2
"babiak/48",10518,65236.9,65171.9,ns,,,,,,3,11,1,11,5,5
"babiak/49",23915,29440,29422.5,ns,,,,,,1,5,1,5,3,3
"babiak/50",47798,14927.4,14913.8,ns,,,,,,3,7,0,7,3,3
"babiak/51",18628,36785.2,36761.9,ns,,,,,,2,6,2,6,3,3
"babiak/52",8621,82535,82480,ns,,,,,,3,10,1,10,4,4
"babiak/53",11396,63246.2,63203.9,ns,,,,,,2,8,2,8,4,4
"babiak/54",29549,23976.1,23955.2,ns,,,,,,3,8,0,8,3,3
"babiak/55",11544,62800.6,62728.3,ns,,,,,,2,8,2,8,4,4
"babiak/56",25520,27344.3,27327.5,ns,,,,,,1,5,1,5,3,3
"babiak/57",66119,10891,10884.7,ns,,,,,,1,6,0,6,3,3
"babiak/58",9932,72426.6,72374.4,ns,,,,,,2,11,2,11,5,5
"babiak/59",48776,14426.2,14413.2,ns,,,,,,2,8,0,8,4,4
"babiak/60",12408,51022.2,50992.6,ns,,,,,,2,8,2,8,4,4
"babiak/61",47808,15081.4,15070.4,ns,,,,,,2,9,0,9,4,4
"babiak/62",3413,208136,207948,ns,,,,,,5,22,4,22,6,6
"babiak/63",8192,87583.6,87472.2,ns,,,,,,3,12,1,12,5,5
"babiak/64",5631,122964,122860,ns,,,,,,4,16,4,16,4,4
"babiak/65",8654,79855.3,79791.9,ns,,,,,,2,10,1,10,4,4
"babiak/66",10000,50455.3,50416.3,ns,,,,,,2,10,1,10,5,5
"babiak/67",56686,12717.4,12708.6,ns,,,,,,2,8,0,5,3,4
"babiak/68",7727,83558.8,83459.1,ns,,,,,,3,14,1,14,6,6
"babiak/69",56615,12429.1,12421.5,ns,,,,,,2,7,0,7,4,4
"babiak/70",11136,63713.8,63669.3,ns,,,,,,2,11,1,11,5,5
"babiak/71",33521,21567.6,21542.6,ns,,,,,,3,12,0,8,4,5
"babiak/72",5000,145108,144492,ns,,,,,,4,16,2,16,6,6
"babiak/73",8932,82908.2,82653.7,ns,,,,,,3,10,1,10,5,5
"babiak/74",1250,548385,547734,ns,,,,,,7,25,2,21,7,8
"babiak/75",3306,202621,202413,ns,,,,,,6,28,1,8,4,10
"babiak/76",1377,536645,535898,ns,,,,,,7,34,3,25,6,8
"babiak/77",26724,26302,26285.2,ns,,,,,,1,5,1,5,3,3
"babiak/78",909,803396,802675,ns,,,,,,8,56,3,47,11,12
"babiak/79",16553,42879.6,42846.9,ns,,,,,,3,8,1,8,4,4
"babiak/80",24011,29382.9,29347.9,ns,,,,,,5,17,0,17,5,5
"babiak/81",15890,44433.4,44401.9,ns,,,,,,2,8,2,8,4,4
"babiak/82",361,1.96572e+06,1.96377e+06,ns,,,,,,11,63,5,49,10,12
"babiak/83",11060,65517.8,65465.7,ns,,,,,,4,11,2,11,5,5
"babiak/84",1418,486402,485986,ns,,,,,,10,57,3,57,10,10
"babiak/85",6982,101047,100975,ns,,,,,,4,11,2,8,4,5
"babiak/86",9825,71570.3,71524.3,ns,,,,,,4,14,4,14,4,4
"babiak/87",19098,36147.9,36109.6,ns,,,,,,2,6,1,6,3,3
"babiak/88",3295,222072,221890,ns,,,,,,5,21,1,17,6,7
"babiak/89",13751,50721.3,50688.2,ns,,,,,,2,9,1,9,4,4
"babiak/90",42457,16918.3,16909,ns,,,,,,3,8,0,8,3,3
"babiak/91",10445,65196,65129.8,ns,,,,,,2,9,2,9,4,4
"babiak/92",2202,318881,318606,ns,,,,,,5,20,1,16,5,6
"babiak/93",7088,100106,100033,ns,,,,,,3,13,2,13,5,5
"babiak/94",1342,531148,530665,ns,,,,,,12,60,2,23,6,12
"babiak/95",1104,617878,617181,ns,,,,,,8,38,3,25,8,11
"babiak/96",8892,80614.1,80545.1,ns,,,,,,4,14,4,14,4,4
"babiak/97",10151,64836.7,64796.4,ns,,,,,,3,7,1,7,3,3
"babiak/98",1928,360661,360362,ns,,,,,,5,21,3,16,6,7
"babiak/99",9000,79336.2,79280.5,ns,,,,,,3,10,1,10,4,4
"babiak/100",28935,24497.9,24480.3,ns,,,,,,3,8,0,8,3,3
"babiak/101",4518,153570,153467,ns,,,,,,2,10,2,10,4,4
"babiak/102",1508,478182,477717,ns,,,,,,5,20,3,15,5,6
"babiak/103",3351,210588,210379,ns,,,,,,4,14,2,14,5,5
"babiak/104",904,775049,774365,ns,,,,,,12,60,4,22,6,12
"babiak/105",403,1.74398e+06,1.74249e+06,ns,,,,,,10,56,5,44,11,12
"babiak/106",8603,83235.5,83188.9,ns,,,,,,3,15,1,10,5,5
"babiak/107",38631,17732.6,17719.2,ns,,,,,,0,11,0,11,6,6
"babiak/108",5612,124215,124129,ns,,,,,,4,21,2,14,6,6
"babiak/109",29324,23786.7,23772.4,ns,,,,,,0,14,0,14,7,7
"babiak/110",95418,8049.35,8039.87,ns,,,,,,0,3,0,3,2,2
"babiak/111",105753,5834.73,5828.95,ns,,,,,,0,3,0,3,2,2
"babiak/112",54389,13183.5,13169.5,ns,,,,,,1,6,0,6,3,3
"babiak/113",71064,10653.2,10643.6,ns,,,,,,1,6,0,6,3,3
"babiak/114",70871,29633.8,29518.6,ns,,,,,,1,6,0,6,3,3
"babiak/115",55028,12707.2,12696.2,ns,,,,,,1,6,0,6,3,3
"babiak/116",10000,187885,187080,ns,,,,,,2,7,1,6,3,3
"babiak/117",18959,37681.4,37656.8,ns,,,,,,2,5,1,4,2,2
"babiak/118",10695,200953,199711,ns,,,,,,3,10,2,7,3,4
"babiak/119",18487,47176,47115.2,ns,,,,,,2,7,1,4,2,3
"babiak/120",59142,13017.8,13005.5,ns,,,,,,1,6,0,6,4,4
"babiak/121",22160,33786.3,33746.9,ns,,,,,,1,6,1,6,3,3
"babiak/122",237752,2848.78,2845.52,ns,,,,,,0,0,0,0,1,1
"babiak/123",20732,33554.9,33533,ns,,,,,,1,7,1,7,4,4
"babiak/124",16215,43895.3,43765,ns,,,,,,2,5,1,4,2,2
"babiak/125",12743,56608.1,56360.9,ns,,,,,,2,7,1,6,3,3
"babiak/126",6142,115426,115045,ns,,,,,,5,16,1,7,3,5
"babiak/127",6813,101236,100985,ns,,,,,,6,29,1,10,3,7
"babiak/128",88457,6923.28,6907.86,ns,,,,,,0,3,0,3,2,2
"babiak/129",83271,7290.56,7268.82,ns,,,,,,0,3,0,3,2,2
"babiak/130",13302,53939.6,53735.8,ns,,,,,,1,9,1,9,5,5
"babiak/131",208837,3229.12,3222.09,ns,,,,,,0,0,0,0,1,1
"babiak/132",11381,55203.2,55080.6,ns,,,,,,1,10,1,10,5,5
"babiak/133",242689,2810.24,2800.21,ns,,,,,,0,0,0,0,1,1
"babiak/134",6198,102974,102572,ns,,,,,,7,19,0,4,2,7
"babiak/135",16331,46198.9,46067.8,ns,,,,,,2,5,1,3,2,3
"babiak/136",7213,94798.1,94548.9,ns,,,,,,7,17,0,4,2,7
"babiak/137",15913,46326.4,46129.1,ns,,,,,,2,5,1,3,2,3
"babiak/138",79021,8783.31,8758.14,ns,,,,,,2,4,0,4,2,2
"babiak/139",32181,20580.4,20497.4,ns,,,,,,1,3,1,3,2,2
"babiak/140",24091,29496,29418.1,ns,,,,,,1,5,1,5,3,3
"babiak/141",83326,8490.4,8477.12,ns,,,,,,2,4,0,4,2,2
"babiak/142",16797,41476,41448.7,ns,,,,,,2,5,1,4,2,2
"babiak/143",13172,52419.7,52383.6,ns,,,,,,2,7,1,6,3,3
"babiak/144",116290,6115.09,6111.83,ns,,,,,,1,4,0,4,1,1
"babiak/145",26390,26900.9,26876.6,ns,,,,,,1,5,1,5,3,3
"babiak/146",67207,10275.8,10269.4,ns,,,,,,0,7,0,7,4,4
"babiak/147",99100,7146.38,7142.65,ns,,,,,,0,4,0,4,3,3
"babiak/148",3062,236609,236394,ns,,,,,,14,88,2,9,5,18
"babiak/149",5490,129637,129526,ns,,,,,,3,12,2,9,4,5
"babiak/150",15892,43344.2,43315.8,ns,,,,,,1,8,1,8,4,4
"babiak/151",1806,382998,382305,ns,,,,,,10,51,4,19,6,12
"babiak/152",29981,23484.1,23435.6,ns,,,,,,1,4,1,4,3,3
"babiak/153",2101,324878,324109,ns,,,,,,8,39,3,21,5,8
"babiak/154",81104,8806.86,8791.52,ns,,,,,,1,5,0,5,3,3
"babiak/155",15707,44398.9,44302.3,ns,,,,,,1,8,1,8,4,4
"babiak/156",174708,3922.87,3912.93,ns,,,,,,0,1,0,1,1,1
"babiak/157",111840,6215.12,6200.57,ns,,,,,,0,3,0,3,2,2
"babiak/158",97412,7197.91,7179.85,ns,,,,,,0,3,0,3,2,2
"babiak/159",113728,6133.94,6123.2,ns,,,,,,0,3,0,3,2,2
"babiak/160",31418,22378.8,22333,ns,,,,,,1,3,1,3,2,2
"babiak/161",39579,17830.4,17794.9,ns,,,,,,2,11,0,11,4,4
"babiak/162",21863,32419.2,32357.2,ns,,,,,,1,5,1,5,3,3
"babiak/163",41205,17142.5,17107.3,ns,,,,,,2,11,0,11,4,4
"babiak/164",8655,80964.7,80793.6,ns,,,,,,5,13,1,13,7,7
"babiak/165",14568,47663.2,47558.8,ns,,,,,,10,37,0,21,8,12
"babiak/166",36174,19521.3,19478.4,ns,,,,,,1,3,1,3,2,2
"babiak/167",82423,8553.76,8548.01,ns,,,,,,2,5,0,5,2,2
"babiak/168",19756,34990.1,34960.2,ns,,,,,,1,6,1,6,4,4
"babiak/169",66252,10276.8,10271.2,ns,,,,,,2,6,0,6,3,3
"babiak/170",24161,29399.6,29381.5,ns,,,,,,1,5,1,5,3,3
"babiak/171",83135,8816.91,8810.65,ns,,,,,,2,4,0,4,2,2
"babiak/172",26477,26530.5,26504.9,ns,,,,,,1,5,1,5,3,3
"babiak/173",116477,6228.79,6225.3,ns,,,,,,1,4,0,4,1,1
"babiak/174",65323,10924.4,10917.5,ns,,,,,,2,4,0,4,2,2
"babiak/175",16414,43228.7,43196.2,ns,,,,,,1,6,1,6,3,3
"babiak/176",41570,16796.9,16785.4,ns,,,,,,3,9,0,9,5,5
"babiak/177",58083,12195,12188.1,ns,,,,,,3,7,0,7,4,4
"babiak/178",14777,51659.4,51609.3,ns,,,,,,1,32,0,32,1,1
"babiak/179",4546,147188,147065,ns,,,,,,1,11,1,11,6,6
"babiak/180",79363,8779.47,8774.97,ns,,,,,,0,2,0,2,2,2
"babiak/181",126394,5227.66,5226.06,ns,,,,,,0,2,0,2,2,2
"babiak/182",13167,52601.6,52576.9,ns,,,,,,2,9,2,9,4,4
"babiak/183",3765,185813,185702,ns,,,,,,3,26,2,26,6,6
